time,open,close,high,low,volume
1529531100000,0.0425,0.0425,0.0425,0.0425,300.0
1529536260000,0.040322,0.040189,0.040322,0.040189,10924.38026569
1529536320000,0.040144,0.040144,0.040144,0.040144,1756.55473431
1529537040000,0.04016,0.0401,0.04016,0.0401,8280.58534868
1529537880000,0.040101,0.040101,0.040101,0.040101,2024.41465
1529555520000,0.0425,0.04459,0.04459,0.0425,8371.48823608
1529555640000,0.04459,0.04459,0.04459,0.04459,2500.0
1529556240000,0.04459,0.04459,0.04459,0.04459,954.35347304
1529556600000,0.04459,0.04459,0.04459,0.04459,27153.91726037
1529556660000,0.04459,0.04459,0.04459,0.04459,1317.77273463
1529557500000,0.0392,0.03913,0.0392,0.03913,4577.64624556
1529569980000,0.043,0.043,0.043,0.043,505.0
1529577000000,0.0393,0.0392,0.0393,0.0392,32199.0
1529577120000,0.0392,0.0392,0.0392,0.0392,998.0
1529577300000,0.0392,0.0392,0.0392,0.0392,613.85343541
1529578440000,0.0392,0.0392,0.0392,0.0392,30967.0
1529581800000,0.0392,0.03911,0.0392,0.03911,22976.04081632
1529583360000,0.03911,0.03911,0.03911,0.03911,12852.46665481
1529590140000,0.03911,0.03911,0.03911,0.03911,7548.97713346
1529591400000,0.03911,0.03911,0.03911,0.03911,1000.0
1529633880000,0.038110000000000005,0.038110000000000005,0.038110000000000005,0.038110000000000005,1083.80414357
1529638080000,0.038110000000000005,0.038110000000000005,0.038110000000000005,0.038110000000000005,555.0
1529639760000,0.038110000000000005,0.036707,0.038110000000000005,0.036707,630.3199999999998
1529643840000,0.03671,0.03671,0.03671,0.03671,766.87585643
1529644020000,0.0361,0.036000000000000004,0.0361,0.036000000000000004,12059.88586507
1529646300000,0.036000000000000004,0.036000000000000004,0.036000000000000004,0.036000000000000004,4157.60402243
1529646540000,0.03599,0.03599,0.03599,0.03599,8315.207999999999
1529652720000,0.035733,0.035733,0.035733,0.035733,747.376875
1529653320000,0.035733,0.035733,0.035733,0.035733,998.0
1529657820000,0.035733,0.035733,0.035733,0.035733,41490.80917156
1529672880000,0.035,0.035,0.035,0.035,306.386
1529673060000,0.035,0.031976,0.035,0.031976,5488.614000000001
1529675640000,0.029004000000000002,0.029004000000000002,0.029004000000000002,0.029004000000000002,998.0
1529693580000,0.031088,0.031088,0.031088,0.031088,2003.70605216
1529719620000,0.0334,0.0334,0.0334,0.0334,435.0
1529736900000,0.0299,0.0298,0.0299,0.0298,2779.90475973
1529739720000,0.028013,0.0266,0.028013,0.0266,18758.21408495
1529748960000,0.0266,0.0266,0.0266,0.0266,341.18793999999997
1529755380000,0.0262,0.02585,0.0262,0.02585,3759.8578172
1529757300000,0.025002,0.025,0.025002,0.025,32545.0
1529777100000,0.026000000000000002,0.02503,0.026000000000000002,0.02503,8997.75
1529807220000,0.02503,0.02503,0.02503,0.02503,9554.98671634
1529813280000,0.024,0.024,0.024,0.023,25710.61235286
1529813340000,0.022002,0.022000000000000002,0.022002,0.022000000000000002,3934.72370625
1529819160000,0.028999999999999998,0.028999999999999998,0.028999999999999998,0.028999999999999998,450.2
1529840580000,0.028996,0.028996,0.028996,0.028996,1000.0
1529875860000,0.028993,0.028999999999999998,0.028999999999999998,0.028993,14820.52621874
1529882760000,0.031,0.031,0.031,0.031,1002.0
1529882940000,0.031,0.031,0.031,0.031,1002.0
1529943480000,0.03075,0.030989999999999997,0.030989999999999997,0.03075,5867.19915129
1529950140000,0.03099,0.031,0.031,0.03099,563.63326161
1529965860000,0.0245,0.0245,0.0245,0.0245,952.82442704
1529966460000,0.0245,0.024,0.0245,0.024,20000.0
1530000360000,0.029769999999999998,0.0309,0.0309,0.029769999999999998,1850.0
1530003420000,0.03085,0.03085,0.03085,0.03085,500.0
1530013740000,0.030844999999999997,0.030844999999999997,0.030844999999999997,0.030844999999999997,1000.0
1530027480000,0.0245,0.024,0.0245,0.024,10048.0
1530027540000,0.024,0.0232,0.024,0.0232,11970.0
1530029940000,0.02325,0.02325,0.02325,0.02325,739.40822
1530031200000,0.024,0.024,0.024,0.024,4295.0
1530031680000,0.02937,0.02937,0.02937,0.02937,361.93053409
1530033420000,0.028999999999999998,0.028999999999999998,0.028999999999999998,0.028999999999999998,330.0
1530068880000,0.0241,0.02401,0.0241,0.02401,570.186
1530091200000,0.0241,0.024,0.0241,0.024,11674.7
1530091260000,0.024,0.024,0.024,0.024,6538.8
1530091320000,0.024,0.024,0.024,0.024,20000.0
1530094260000,0.024,0.024,0.024,0.024,12018.80352125
1530119820000,0.028,0.028,0.028,0.028,500.0
1530121140000,0.024,0.024,0.024,0.024,654.85228482
1530171720000,0.026394,0.026394,0.026394,0.026394,10000.0
1530180420000,0.026399,0.026399,0.026399,0.026399,390.0
1530182940000,0.026398,0.0264,0.0264,0.026398,3500.0
1530188340000,0.0231,0.0231,0.0231,0.0231,395.283
1530201660000,0.02799,0.02839,0.02839,0.02799,3000.0
1530205860000,0.027989,0.027989,0.027989,0.027989,1077.7
1530239520000,0.023117,0.02304,0.023117,0.02304,2733.0
1530251160000,0.0211,0.021,0.0211,0.021,15718.5
1530270420000,0.0267,0.0267,0.0267,0.0267,400.0
1530290520000,0.021331,0.021331,0.021331,0.021331,392.0
1530292800000,0.021,0.021,0.021,0.021,399.2
1530293520000,0.021,0.021,0.021,0.021,1996.0
1530310080000,0.02112,0.021,0.02112,0.021,20000.0
1530325440000,0.022218,0.022218,0.022218,0.022218,10989.0
1530339480000,0.0264,0.0264,0.0264,0.0264,606.0
1530340260000,0.022505,0.022505,0.022505,0.022505,10000.0
1530340440000,0.022505,0.022505,0.022505,0.022505,11873.3048
1530346320000,0.0235,0.0235,0.0235,0.0235,499.0
1530346920000,0.0235,0.0235,0.0235,0.0235,9990.0
1530356880000,0.026,0.026,0.026,0.026,1005.0
1530368460000,0.0259,0.0259,0.0259,0.0259,392.0
1530375060000,0.023504,0.023504,0.023504,0.023504,491.47
1530389280000,0.0258,0.025882,0.025882,0.0258,2272.61998995
1530403620000,0.025882,0.025882,0.025882,0.025882,1313.57700332
1530445320000,0.0249,0.0249,0.0249,0.0249,401.0
1530535080000,0.0255,0.025988,0.025988,0.0255,1300.0
1530538140000,0.025977,0.025977,0.025977,0.025977,709.11927
1530545280000,0.025977,0.026,0.026,0.025977,4040.0
1530545460000,0.025999,0.025999,0.025999,0.025999,2000.0
1530545520000,0.025999,0.025999,0.025999,0.025999,3000.0
1530550800000,0.025999,0.027000000000000003,0.027000000000000003,0.025999,8326.00351141
1530550920000,0.0275,0.0275,0.0275,0.0275,5000.0
1530550980000,0.0275,0.0285,0.0285,0.0275,20000.0
1530554280000,0.02839,0.02839,0.02839,0.02839,1700.0
1530566460000,0.020288,0.020288,0.020288,0.020288,500.0
1530566520000,0.016,0.014666,0.016,0.014666,4497.603032470001
1530568080000,0.023,0.023,0.023,0.023,616.97371304
1530569160000,0.023,0.023,0.023,0.023,3559.3788326
1530570180000,0.019547,0.019547,0.019547,0.019547,449.7498
1530572820000,0.023,0.023,0.023,0.023,3000.0
1530573120000,0.021242,0.021242,0.021242,0.021242,3488.96201272
1530575280000,0.023,0.023,0.023,0.023,2997.0
1530589620000,0.0275,0.027999,0.027999,0.0275,2071.01771642
1530597300000,0.022650999999999998,0.022650999999999998,0.022650999999999998,0.022650999999999998,499.0
1530602340000,0.023001,0.023001,0.023001,0.023001,758.48
1530606420000,0.0274,0.027488,0.027488,0.0274,2999.0
1530648780000,0.02113,0.02113,0.02113,0.02113,3993.98393857
1530664680000,0.021100999999999998,0.021100999999999998,0.021100999999999998,0.021100999999999998,3521.77
1530696480000,0.024988,0.024988,0.024988,0.024988,419.98255931
1530716340000,0.024,0.024977000000000003,0.024977000000000003,0.024,13863.37449574
1530722640000,0.024977000000000003,0.024977000000000003,0.024977000000000003,0.024977000000000003,750.0
1530779460000,0.02202,0.022011000000000003,0.02202,0.022011000000000003,13200.0
1530780360000,0.024954,0.024954,0.024954,0.024954,1111.0
1530793920000,0.022014,0.022014,0.022014,0.022014,1850.0
1530799560000,0.022126,0.022126,0.022126,0.022126,3555.81945377
1530804180000,0.022126,0.022126,0.022126,0.022126,3329.14694401
1530814020000,0.022127,0.022127,0.022127,0.022127,690.71
1530864600000,0.024943,0.024944,0.024944,0.024943,3029.2
1530884280000,0.02213,0.02213,0.02213,0.02213,1100.0
1530971280000,0.0222,0.022127,0.0222,0.022127,30795.84499368
1530974520000,0.0275,0.027878,0.027878,0.0275,2000.0
1530985980000,0.023,0.023,0.023,0.023,1000.0
1530998760000,0.027877,0.027877,0.027877,0.027877,473.27196776
1531002060000,0.027877,0.027877,0.027877,0.027877,554.42363955
1531035960000,0.027499000000000003,0.027499000000000003,0.027499000000000003,0.027499000000000003,2000.0
1531057680000,0.02735,0.027477,0.027477,0.02735,2787.72633188
1531071060000,0.02237,0.022298,0.02237,0.022298,553.31479227
1531072140000,0.02707,0.027477,0.027477,0.02707,1295.0
1531075200000,0.02237,0.022126,0.02237,0.022126,63416.54
1531076880000,0.027000000000000003,0.027000000000000003,0.027000000000000003,0.027000000000000003,1000.0
1531081200000,0.022281,0.022281,0.022281,0.022281,3000.0
1531081260000,0.022281,0.022001,0.022281,0.022001,18647.63337372
1531087860000,0.02487,0.024999,0.024999,0.02487,2500.0
1531090440000,0.024999,0.024999,0.024999,0.024999,2000.0
1531095300000,0.0226,0.0226,0.0226,0.0226,1960.0
1531095960000,0.0235,0.0235,0.0235,0.0235,728.7272267999997
1531100460000,0.024999,0.024999,0.024999,0.024999,1000.0
1531128480000,0.022251,0.0222,0.022251,0.0222,998.0
1531133640000,0.0248,0.0248,0.0248,0.0248,425.0
1531142700000,0.02478,0.02478,0.02478,0.02478,1904.59623419
1531143300000,0.02478,0.02478,0.02478,0.02478,444.0
1531149900000,0.022496000000000002,0.022496000000000002,0.022496000000000002,0.022496000000000002,1996.0
1531160520000,0.02478,0.02478,0.02478,0.02478,1000.0
1531168200000,0.0245,0.0245,0.0245,0.0245,727.99849957
1531168440000,0.022504,0.022504,0.022504,0.022504,999.0
1531175400000,0.022508,0.022508,0.022508,0.022508,2495.42
1531207980000,0.023,0.023,0.023,0.023,942.70773913
1531217880000,0.022019999999999998,0.022000000000000002,0.022019999999999998,0.022000000000000002,10002.56632217
1531234320000,0.019274,0.019274,0.019274,0.019274,2783.33535922
1531242960000,0.022999000000000002,0.023,0.023,0.022999000000000002,4897.37761697
1531516980000,0.019,0.01401,0.019,0.01401,10000.00008051
1531536000000,0.02249,0.022545,0.022545,0.02249,3641.40376581
1531562940000,0.022543999999999998,0.023,0.023,0.022543999999999998,10000.0
1531563000000,0.023,0.023,0.023,0.023,20000.0
1531563060000,0.023,0.023,0.023,0.023,20000.0
1531563120000,0.023,0.023,0.023,0.023,10000.0
1531609440000,0.017,0.017,0.017,0.017,500.0
1531634640000,0.0186,0.0186,0.0186,0.0186,0.00021037
1531826760000,0.019999,0.018401,0.019999,0.018401,5126.27
1531852260000,0.019999,0.02,0.02,0.019999,5000.0
1531852380000,0.02,0.018401,0.02,0.018401,3992.1682101
1531854360000,0.02,0.02,0.02,0.02,5000.0
1531854420000,0.02,0.02,0.02,0.02,1067.07291416
1531864920000,0.0227,0.0228,0.0228,0.0227,3173.30882389
1531893300000,0.02,0.02,0.02,0.02,798.90955088
1531902300000,0.0228,0.0228,0.0228,0.0228,1711.1999999999994
1531913640000,0.024111,0.024299,0.024299,0.024111,21823.97389827
1531915980000,0.02099,0.02,0.02099,0.02,20996.1885775
1531916040000,0.019045,0.019045,0.019045,0.019045,784.13737297
1531920300000,0.023499000000000003,0.023499000000000003,0.023499000000000003,0.023499000000000003,782.17702954
1531921020000,0.0235,0.0235,0.0235,0.0235,500.0
1531923180000,0.0235,0.0235,0.0235,0.0235,1446.0
1531924680000,0.0235,0.024299,0.024299,0.0235,5537.264666810002
1531938900000,0.023999,0.023999,0.023999,0.023999,1500.0
1531973640000,0.022000000000000002,0.022000000000000002,0.022000000000000002,0.022000000000000002,593.24585229
1531980480000,0.0196,0.0196,0.0196,0.0196,590.87524187
1531990740000,0.0196,0.0196,0.0196,0.0196,4383.172179589998
1531990800000,0.0196,0.0184,0.0196,0.0184,11393.12475813
1531991940000,0.018000000000000002,0.018000000000000002,0.018000000000000002,0.018000000000000002,1244.35088111
1531992360000,0.0185,0.0185,0.0185,0.0185,2343.23750167
1531992600000,0.0185,0.0185,0.0185,0.0185,704.69804494
1531993140000,0.0185,0.0185,0.0185,0.0185,2994.0
1531995780000,0.0185,0.0185,0.0185,0.0185,4530.75202286
1531998000000,0.0212,0.022000000000000002,0.022000000000000002,0.0212,7600.0
1531999380000,0.017922,0.017922,0.017922,0.017922,1973.58297714
1532000220000,0.017922,0.017922,0.017922,0.017922,2744.70328213
1532000940000,0.02,0.02,0.02,0.02,2000.0
1532002620000,0.02,0.02,0.02,0.02,1620.000047
1532025000000,0.02,0.02,0.02,0.02,552.13507
1532025420000,0.018000000000000002,0.018000000000000002,0.018000000000000002,0.018000000000000002,13203.49333333
1532066580000,0.020886000000000002,0.020897,0.020897,0.020886000000000002,1000.0
1532076900000,0.018001,0.018001,0.018001,0.018001,6366.18326754
1532081820000,0.020557,0.020908000000000003,0.020908000000000003,0.020557,12385.37313068
1532085660000,0.018201,0.0182,0.018201,0.0182,12664.665
1532093700000,0.0178,0.0175,0.0178,0.0175,6601.73473748
1532103240000,0.019558000000000002,0.0196,0.0196,0.019558000000000002,6368.63300274
1532172840000,0.0196,0.0196,0.0196,0.0196,2500.0
1532172900000,0.018002,0.018000000000000002,0.018002,0.018000000000000002,1246.473714
1532173200000,0.018000000000000002,0.018000000000000002,0.018000000000000002,0.018000000000000002,2412.998786
1532178060000,0.017602,0.0176,0.017602,0.0176,2012.2303
1532259240000,0.019908000000000002,0.019908000000000002,0.019908000000000002,0.019908000000000002,669.6
1532259300000,0.019911,0.019919,0.019919,0.019911,1115.0
1532274600000,0.019909,0.020728,0.020728,0.019909,7471.7
1532274720000,0.0231,0.0231,0.0231,0.0231,4378.78900741
1532274780000,0.023389,0.023389,0.023389,0.023389,1424.54393419
1532275620000,0.023389,0.024,0.024,0.023389,11986.01949333
1532343960000,0.0239,0.0239,0.0239,0.0239,700.0
1532348160000,0.0239,0.026000000000000002,0.026000000000000002,0.0239,22612.06521123
1532348220000,0.026000000000000002,0.0271,0.0271,0.026000000000000002,5000.0
1532358660000,0.027099,0.027099,0.027099,0.027099,11037.30764972
1532380020000,0.0271,0.0271,0.0271,0.0271,3174.73427527
1532397240000,0.0186,0.0182,0.0186,0.0182,15128.02062185
1532397660000,0.0182,0.0182,0.0182,0.0182,10121.562
1532398020000,0.0182,0.01702,0.0182,0.01702,13983.21484747
1532398080000,0.017669999999999998,0.017669999999999998,0.017669999999999998,0.017669999999999998,1258.43319676
1532398140000,0.016239,0.016239,0.016239,0.016239,12166.44531116
1532398620000,0.0162,0.0162,0.0162,0.0162,3002.84628656
1532399760000,0.0163,0.0163,0.0163,0.0163,720.0
1532400900000,0.014753,0.014753,0.014753,0.014753,3168.38480672
1532401440000,0.0265,0.0265,0.0265,0.0265,1500.0
1532401620000,0.014838999999999996,0.014838999999999996,0.014838999999999996,0.014838999999999996,1497.0
1532403300000,0.016,0.016,0.016,0.016,3663.05211432
1532406720000,0.016,0.016,0.016,0.016,999.84143626
1532408400000,0.01601,0.01601,0.01601,0.01601,5000.0
1532410980000,0.0161,0.0161,0.0161,0.0161,998.0
1532413260000,0.024980000000000002,0.026000000000000002,0.026000000000000002,0.024980000000000002,6352.68796915
1532414280000,0.017,0.017,0.017,0.017,1797.87672925
1532414940000,0.017,0.017,0.017,0.017,2570.33533117
1532415060000,0.017,0.017,0.017,0.017,9987.20587059
1532415120000,0.017,0.017,0.017,0.017,2644.60604899
1532418000000,0.0171,0.0171,0.0171,0.0171,984.95872049
1532422860000,0.0175,0.0171,0.0175,0.0171,16064.84422513
1532426760000,0.017,0.017,0.017,0.017,2183.21450294
1532427000000,0.017,0.017,0.017,0.017,8923.752540000001
1532428620000,0.017,0.017,0.017,0.017,32441.76250706
1532428860000,0.017,0.017,0.017,0.017,1438.0
1532428980000,0.017,0.017,0.017,0.017,39031.86575439
1532429520000,0.017,0.017,0.017,0.017,1371.07047561
1532431860000,0.0188,0.0188,0.0188,0.0188,1009.0
1532431920000,0.018799,0.018799,0.018799,0.018799,3385.88993856
1532433120000,0.0188,0.0188,0.0188,0.0188,426.124
1532434020000,0.021313,0.021313,0.021313,0.021313,694.75347789
1532434560000,0.02,0.02,0.02,0.02,1000.0
1532434860000,0.017200999999999998,0.0165,0.017200999999999998,0.0165,9426.55533902
1532435580000,0.0165,0.0165,0.0165,0.0165,1643.0
1532435820000,0.0165,0.0165,0.0165,0.0165,597.90381333
1532436000000,0.0165,0.0165,0.0165,0.0165,1200.0
1532436300000,0.0165,0.0165,0.0165,0.0165,6000.0
1532437380000,0.0165,0.0165,0.0165,0.0165,83304.50084989
1532440920000,0.0182,0.0182,0.0182,0.0182,1639.714
1532441580000,0.0181,0.0181,0.0181,0.0181,1798.2
1532441820000,0.017209000000000002,0.017209000000000002,0.017209000000000002,0.017209000000000002,1794.6036
1532445060000,0.018000000000000002,0.0172,0.018000000000000002,0.0172,14042.82327453
1532445240000,0.017,0.017,0.017,0.017,1199.0
1532445420000,0.016999,0.016999,0.016999,0.016999,1780.0
1532446200000,0.016513,0.016513,0.016513,0.016513,41046.989
1532446260000,0.016513,0.016513,0.016513,0.016513,1795.63160783
1532447760000,0.016838,0.016838,0.016838,0.016838,2554.21544979
1532447820000,0.016838,0.016838,0.016838,0.016838,3499.78455021
1532447880000,0.016996999999999998,0.016996999999999998,0.016996999999999998,0.016996999999999998,2777.05744308
1532447940000,0.016996999999999998,0.016996999999999998,0.016996999999999998,0.016996999999999998,2499.85291522
1532449320000,0.016996999999999998,0.016996999999999998,0.016996999999999998,0.016996999999999998,550.0
1532449380000,0.016996999999999998,0.016996999999999998,0.016996999999999998,0.016996999999999998,1028.0
1532451240000,0.0193,0.0193,0.0193,0.0193,1299.08081089
1532459040000,0.017519999999999997,0.0169,0.017519999999999997,0.0169,44735.2517612
1532459100000,0.0168,0.0168,0.0168,0.0168,4221.4572388000015
1532460420000,0.0185,0.0185,0.0185,0.0185,14000.0
1532462940000,0.0185,0.0185,0.0185,0.0185,526.0
1532463060000,0.017,0.017,0.017,0.017,2000.0
1532463120000,0.016980000000000002,0.016802,0.016980000000000002,0.016802,66611.89184818999
1532463720000,0.018602,0.018602,0.018602,0.018602,2000.0
1532468340000,0.0185,0.0185,0.0185,0.0185,4099.26632391
1532469180000,0.0185,0.0185,0.0185,0.0185,1647.5984827
1532470860000,0.016804,0.016804,0.016804,0.016804,647.920164
1532473860000,0.018499,0.018499,0.018499,0.018499,2070.0
1532477760000,0.018658,0.018658,0.018658,0.018658,563.0
1532480280000,0.016804,0.016804,0.016804,0.016804,6083.91
1532485140000,0.018638,0.018638,0.018638,0.018638,1200.0
1532493540000,0.017,0.017,0.017,0.017,748.5
1532497200000,0.017156,0.017156,0.017156,0.017156,1998.0
1532497620000,0.017156,0.017156,0.017156,0.017,65034.50799269999
1532509800000,0.018385,0.018385,0.018385,0.018385,5498.28162432
1532513580000,0.016506,0.016506,0.016506,0.016506,8071.75629196
1532519940000,0.016881,0.016881,0.016881,0.016881,2586.46772294
1532520660000,0.016269,0.016269,0.016269,0.016269,11314.30253758
1532533980000,0.01618,0.0157,0.01618,0.0157,30000.69969277
1532536680000,0.017304,0.017304,0.017304,0.017304,562.77756925
1532541120000,0.0165,0.0165,0.0165,0.0165,10360.81585384
1532556120000,0.017254,0.017456,0.017456,0.017254,100000.0
1532556180000,0.017456,0.0175,0.0175,0.017456,15855.23116974
1532567100000,0.016309,0.016309,0.016309,0.016309,615.0
1532567280000,0.016309,0.016308,0.016309,0.016308,12000.07
1532589660000,0.018283,0.018283,0.018283,0.018283,600.0
1532616960000,0.016321000000000002,0.016311000000000003,0.016321000000000002,0.016311000000000003,8590.0
1532621040000,0.016,0.016,0.016,0.016,6339.98259321
1532633700000,0.016738,0.016738,0.016738,0.016738,2214.82898866
1532671920000,0.01553,0.01553,0.01553,0.01553,701.47108757
1532690760000,0.01521,0.01521,0.01521,0.01521,1418.05161648
1532701500000,0.01567,0.01567,0.01567,0.01567,4338.87232567
1532701620000,0.01567,0.01567,0.01567,0.01567,7329.127674329998
1532701800000,0.0156,0.015608000000000004,0.015608000000000004,0.0156,1000.0
1532701860000,0.015212,0.015212,0.015212,0.015212,1549.58293493
1532709480000,0.015663,0.016486,0.016486,0.015663,7201.23265574
1532746200000,0.016457,0.016457,0.016457,0.016457,1868.65074554
1532779440000,0.016983,0.016999,0.016999,0.016983,34152.59600849
1532780400000,0.017825,0.018000000000000002,0.018000000000000002,0.017825,13732.67638138
1532780700000,0.018000000000000002,0.0184,0.0184,0.018000000000000002,4104.9849
1532780940000,0.0184,0.01847,0.01847,0.0184,18653.75843299
1532781000000,0.0186,0.0186,0.0186,0.0186,1398.0
1532783220000,0.017025,0.017025,0.017025,0.017025,1212.61415967
1532789280000,0.0199,0.0199,0.0199,0.0199,1234.56431969
1532826480000,0.019899,0.019899,0.019899,0.019899,1400.0
1532843760000,0.019499,0.019499,0.019499,0.019499,1000.0
1532859420000,0.017057,0.017057,0.017057,0.017057,1764.94618516
1532872200000,0.019498,0.019498,0.019498,0.019498,570.0
1532911380000,0.018000000000000002,0.018000000000000002,0.018000000000000002,0.018000000000000002,5924.81061048
1532967240000,0.0183,0.0183,0.0183,0.0183,1000.0
1532972880000,0.0187,0.0187,0.0187,0.0187,1998.0
1532974440000,0.0171,0.0171,0.0171,0.0171,1996.0
1532974560000,0.019498,0.019498,0.019498,0.019498,978.82967006
1532974620000,0.019498,0.019498,0.019498,0.019498,1521.17032994
1532974860000,0.019499000000000002,0.019499000000000002,0.019499000000000002,0.019499000000000002,1998.0
1532975460000,0.019897,0.019897,0.019897,0.019897,2500.0
1532983320000,0.019948,0.019948,0.019948,0.019948,1500.0
1532988480000,0.019948,0.019998,0.019998,0.019948,10001.00010001
1532989080000,0.017130000000000003,0.017130000000000003,0.017130000000000003,0.017130000000000003,2810.0
1532994720000,0.019997,0.019998,0.019998,0.019997,7500.0
1532998380000,0.01714,0.017103999999999998,0.01714,0.017103999999999998,11538.0444
1533034260000,0.017501,0.017501,0.017501,0.017501,5197.01221238
1533040140000,0.017501,0.017501,0.017501,0.017501,980.90710809
1533084060000,0.017502,0.017502,0.017502,0.017502,2067.93
1533095100000,0.018241,0.018241,0.018241,0.018241,31289.07406337
1533095160000,0.018998,0.018002,0.018998,0.018002,1510.5272355
1533114000000,0.018002,0.018002,0.018002,0.018002,46850.43467553
1533118620000,0.018002,0.018002,0.018002,0.018002,22056.68201465
1533125580000,0.018994999999999998,0.018994999999999998,0.018994999999999998,0.018994999999999998,1340.3368
1533125880000,0.018994999999999998,0.019953,0.019953,0.018994999999999998,10851.7987719
1533125940000,0.019953,0.019998,0.019998,0.019953,4956.6971
1533128640000,0.018345,0.018011000000000003,0.018345,0.018011000000000003,8268.2579
1533128760000,0.01983,0.01983,0.01983,0.01983,1153.3563
1533128820000,0.018112,0.019814,0.019814,0.018112,2339.1752
1533128940000,0.019952,0.019952,0.019952,0.019952,1226.8511
1533129000000,0.018286,0.018286,0.018286,0.018286,2410.1467
1533129060000,0.019769,0.019769,0.019769,0.019769,1224.8834
1533129120000,0.018136000000000003,0.018136000000000003,0.018136000000000003,0.018136000000000003,1222.4337
1533137280000,0.018338999999999998,0.018338999999999998,0.018338999999999998,0.018338999999999998,1397.2
1533145560000,0.01968,0.019999,0.019999,0.01968,10000.0
1533145620000,0.019999,0.019999,0.019999,0.019999,3204.26257862
1533147420000,0.019999,0.019999,0.019999,0.019999,879.2
1533154320000,0.019989,0.019989,0.019989,0.019989,1000.0
1533162180000,0.019979,0.019979,0.019979,0.019979,575.0
1533166140000,0.018022999999999997,0.018022999999999997,0.018022999999999997,0.018022999999999997,1719.63626502
1533169500000,0.018022,0.018022,0.018022,0.018022,562.0
1533176220000,0.018063,0.018063,0.018063,0.018063,562.0
1533208800000,0.018063,0.018003,0.018063,0.018003,7533.87917919
1533213720000,0.018002,0.018002,0.018002,0.018002,33259.35150439
1533218640000,0.018002,0.018002,0.018002,0.018002,3074.99453023
1533239880000,0.018012,0.018012,0.018012,0.018012,3197.85405346
1533240420000,0.018012,0.018012,0.018012,0.018012,12360.60238442
1533248280000,0.018012,0.018012,0.018012,0.018012,2739.5
1533248580000,0.018012,0.018012,0.018012,0.018012,561.21278036
1533257280000,0.017205,0.017205,0.017205,0.017205,1912.5630820000001
1533258780000,0.017200999999999998,0.017200999999999998,0.017200999999999998,0.017200999999999998,1698.3
1533316860000,0.019979,0.019979,0.019979,0.019979,3021.77852421
1533334260000,0.017205,0.017205,0.017205,0.017205,11800.0
1533334500000,0.017205,0.017205,0.017205,0.017205,11800.0
1533339840000,0.019899,0.019997,0.019998,0.018737,40342.80996479
1533339900000,0.017203,0.017203,0.017203,0.017203,3286.39736666
1533370800000,0.018421,0.018278,0.018421,0.018278,6996.42349206
1533371880000,0.019165,0.019165,0.019165,0.019165,1253.90372205
1533372480000,0.019185,0.019185,0.019185,0.019185,2605.32928709
1533372540000,0.019205,0.019205,0.019205,0.019205,862.1234985
1533374100000,0.019205,0.019205,0.019205,0.019205,2810.0
1533383400000,0.019246,0.019246,0.019246,0.019246,843.97543211
1533386940000,0.019246,0.019246,0.019246,0.019246,710.62147822
1533387060000,0.019266,0.019266,0.019266,0.019266,725.6370440000003
1533404160000,0.019309,0.019309,0.019309,0.019309,4790.89645278
1533427380000,0.019002,0.019002,0.019002,0.019002,1000.0
1533432780000,0.019003,0.019003,0.019003,0.019003,999.0
1533437580000,0.019649,0.019649,0.019649,0.019649,1000.0
1533453900000,0.019915000000000002,0.019915000000000002,0.019915000000000002,0.019915000000000002,563.0
1533455580000,0.019216,0.019003,0.019216,0.019003,6729.63763217
1533455760000,0.019516,0.019537,0.019537,0.019516,10492.25131713
1533455820000,0.019721,0.019721,0.019721,0.019721,916.52520983
1533457560000,0.019812,0.019813,0.019813,0.019812,3540.6
1533458820000,0.019915000000000002,0.019915000000000002,0.019915000000000002,0.019915000000000002,1037.72103335
1533461580000,0.019999,0.02,0.02,0.019999,1998.0
1533464760000,0.019999,0.02,0.02,0.019999,20937.5732
1533468000000,0.021614,0.022,0.022,0.021614,2739.0
1533474120000,0.020306,0.020306,0.020306,0.020306,693.36397093
1533475200000,0.0205,0.0205,0.0205,0.0205,30298.1225
1533486120000,0.02,0.021998,0.021998,0.02,2451.28508729
1533491100000,0.0218,0.019681,0.0255,0.019681,50961.39794483
1533491400000,0.024755000000000003,0.025499,0.025499,0.024755000000000003,2606.753922
1533491700000,0.025499,0.025499,0.025499,0.025499,1503.56558139
1533492060000,0.0203,0.019126,0.0203,0.019126,42483.4399191
1533492120000,0.019125,0.017445,0.019125,0.017445,2977.546414350001
1533494160000,0.024257,0.024257,0.024257,0.024257,562.0
1533502800000,0.024543000000000002,0.024990000000000002,0.024990000000000002,0.024543000000000002,8279.24861119
1533521160000,0.019826,0.019826,0.019826,0.019826,2907.8353827
1533521280000,0.021349,0.021349,0.021349,0.021349,1615.89684447
1533538440000,0.022084,0.022084,0.022084,0.022084,564.0
1533570480000,0.020179,0.020177,0.020179,0.020177,1978.0
1533570540000,0.020177,0.020177,0.020177,0.020177,4000.0
1533570840000,0.020835,0.020835,0.020835,0.020835,1093.85327938
1533579960000,0.019437,0.018495,0.019437,0.018495,15986.58481426
1533580080000,0.018384,0.018384,0.018384,0.018384,6240.0
1533580140000,0.020609,0.020609,0.020609,0.020609,1474.63924516
1533583140000,0.021038,0.021039,0.021039,0.021038,6713.88625235
1533584760000,0.021037,0.021037,0.021037,0.021037,1200.0
1533593160000,0.02,0.02,0.02,0.02,6327.3
1533593340000,0.0202,0.0202,0.0202,0.0202,2339.32038102
1533593940000,0.019999,0.019999,0.019999,0.019999,2279.26291297
1533594180000,0.019759,0.02,0.02,0.019759,3819.27966766
1533594480000,0.02,0.02,0.02,0.02,3443.89110928
1533594900000,0.019999,0.019999,0.019999,0.019999,1124.0
1533595140000,0.019999,0.019999,0.019999,0.019999,562.0
1533595200000,0.02,0.02,0.02,0.02,5463.73278094
1533596100000,0.019999,0.02,0.02,0.019999,3973.70462575
1533596880000,0.02,0.02,0.02,0.02,3458.95910279
1533597180000,0.02,0.02,0.02,0.02,1156.78178144
1533597420000,0.02,0.02,0.02,0.02,674.03940619
1533597600000,0.019999,0.019999,0.019999,0.019999,562.0
1533597900000,0.02,0.02,0.02,0.02,1254.49612176
1533598680000,0.02,0.02,0.02,0.02,2597.87105739
1533620820000,0.020677,0.020677,0.020677,0.020677,1287.7468414
1533632820000,0.02164,0.0222,0.0222,0.02164,3651.3
1533639060000,0.020977000000000003,0.020977000000000003,0.020977000000000003,0.020977000000000003,3703.0747164000004
1533642000000,0.019161,0.019161,0.019161,0.019161,1500.0
1533670860000,0.019091,0.017911,0.019091,0.017911,12265.92096101
1533670920000,0.018045,0.017851,0.018045,0.017851,25993.82860361
1533727860000,0.01821,0.01821,0.01821,0.01821,607.24552268
1533741660000,0.01821,0.01785,0.01821,0.01785,73522.63695492
1533776340000,0.01785,0.01785,0.01785,0.01785,2000.0
1533777180000,0.015338,0.015103,0.015338,0.015103,2590.24279117
1533778680000,0.014805,0.014805,0.014805,0.014805,2423.271752
1533801780000,0.016,0.016,0.016,0.016,1251.31457864
1533815280000,0.0157,0.0157,0.0157,0.0157,1787.56428828
1533818460000,0.0157,0.0157,0.0157,0.0157,2302.39503568
1533840120000,0.0205,0.0205,0.0205,0.0205,6446.2199086300025
1533843660000,0.021892,0.022091,0.022091,0.021892,4500.0
1533846420000,0.020997,0.020997,0.020997,0.020997,1045.74559636
1533849120000,0.021066,0.021066,0.021066,0.021066,4482.018
1533850800000,0.021089,0.021089,0.021089,0.021089,1939.50429856
1533886140000,0.018189,0.018189,0.018189,0.018189,2725.7883679
1533906900000,0.019779,0.019779,0.019779,0.019779,562.0
1533907800000,0.019779,0.019779,0.019779,0.019779,562.0
1533908160000,0.01978,0.01978,0.01978,0.01978,562.0
1533908220000,0.01978,0.01978,0.01978,0.01978,562.0
1533910800000,0.018432,0.018431,0.018432,0.018431,563.9650762
1533911580000,0.018636,0.018636,0.018636,0.018636,562.0
1533912300000,0.018693,0.018692,0.018693,0.018692,562.58338921
1533912900000,0.019079,0.019079,0.019079,0.019079,1119.2846055
1533913380000,0.019176,0.019176,0.019177,0.019176,1125.81844499
1533919320000,0.018792,0.018773,0.018792,0.018773,1161.54309366
1533919620000,0.018432,0.018432,0.018432,0.018432,562.0
1533920340000,0.018432,0.018432,0.018432,0.018432,776.55501363
1533921060000,0.018432,0.018432,0.018432,0.018432,562.0
1533924180000,0.018432,0.018432,0.018432,0.018432,696.03371428
1533924900000,0.018432,0.018432,0.018432,0.018432,562.0
1533925680000,0.018609,0.018609,0.018609,0.018609,563.47424137
1533928980000,0.019076,0.019076,0.019076,0.019076,1124.0
1533929040000,0.019077,0.019078,0.019078,0.019077,2248.0
1533936480000,0.018431,0.018431,0.018431,0.018431,1662.81332104
1533948300000,0.018189,0.018189,0.018189,0.018189,74.2116321
1533971220000,0.018001,0.018001,0.018001,0.018001,2396.08231664
1533971280000,0.018001,0.018000000000000002,0.018001,0.018000000000000002,568.53473994
1533976680000,0.018001,0.018001,0.018001,0.018001,562.0
1534008660000,0.018015,0.018014,0.018015,0.018014,565.53903583
1534008900000,0.018014,0.018014,0.018014,0.018014,1455.52145583
1534010760000,0.01854,0.01854,0.01854,0.01854,2194.33804679
1534016460000,0.018015,0.018015,0.018015,0.018015,710.89564412
1534016580000,0.018015,0.018015,0.018015,0.018015,562.0
1534020420000,0.0183,0.0183,0.018301,0.0183,1131.14220326
1534020480000,0.0183,0.0183,0.0183,0.0183,58.45779674
1534030740000,0.017287,0.01703,0.017287,0.01703,6949.358
1534032000000,0.017034,0.01703,0.017034,0.01703,8930.396999999999
1534033260000,0.017031,0.01703,0.017031,0.01703,4938.397
1534035240000,0.01703,0.016472,0.01703,0.016472,6934.397
1534043340000,0.016472999999999998,0.016472,0.016472999999999998,0.016472,4600.0
1534043400000,0.016472,0.015929,0.016472,0.015929,1087.316
1534044720000,0.016000999999999998,0.016000999999999998,0.016000999999999998,0.016000999999999998,1573.51946671
1534044780000,0.015985,0.015929,0.015985,0.015929,8181.97053329
1534048200000,0.01593,0.015929,0.01593,0.015929,5929.8
1534053360000,0.01593,0.01593,0.01593,0.01593,1000.0
1534059060000,0.0157,0.0157,0.0157,0.0157,910.04067604
1534059120000,0.015369999999999997,0.015369999999999997,0.015369999999999997,0.015369999999999997,983.32570843
1534059180000,0.015369999999999997,0.015369999999999997,0.015369999999999997,0.015369999999999997,829.83734097
1534059600000,0.015369999999999997,0.015369999999999997,0.015369999999999997,0.015369999999999997,1079.6813823
1534060260000,0.015380000000000001,0.015380000000000001,0.015380000000000001,0.015380000000000001,1119.2846055
1534063920000,0.015929,0.01593,0.01593,0.015929,2100.0
1534063980000,0.01593,0.01593,0.01593,0.01593,700.0
1534064040000,0.01593,0.01593,0.01593,0.01593,600.0
1534064100000,0.01593,0.01593,0.01593,0.01593,710.0
1534064760000,0.015501,0.015501,0.015501,0.015501,1119.2846055
1534065540000,0.015618,0.015618,0.015618,0.015618,562.0
1534065720000,0.015501,0.015502000000000004,0.015502000000000004,0.015501,3183.79931364
1534065780000,0.015502000000000004,0.015502000000000004,0.015502000000000004,0.015502000000000004,705.09378967
1534065900000,0.015501,0.015501,0.015501,0.015501,819.59243553
1534066680000,0.015508,0.015508,0.015508,0.015508,840.05999305
1534067640000,0.015513,0.015513,0.015513,0.015513,658.62746853
1534077000000,0.015518,0.015518,0.015518,0.015518,667.82322791
1534078380000,0.015519,0.015519,0.015519,0.015519,562.0
1534081080000,0.015584,0.015584,0.015584,0.015584,562.0
1534087380000,0.015763,0.015764,0.015764,0.015763,1127.0
1534088400000,0.015764,0.015841,0.015841,0.015764,3385.95098637
1534090620000,0.015787,0.015785,0.015787,0.015785,1686.0
1534092540000,0.0155,0.015363,0.0155,0.015363,1685.7289829999993
1534094040000,0.015928,0.015928,0.015928,0.015928,600.0
1534141200000,0.015438999999999996,0.015438999999999996,0.015438999999999996,0.015438999999999996,1410.36039903
1534167300000,0.015203,0.015203,0.015203,0.015203,1235.361048
1534173420000,0.015203,0.015203,0.015203,0.015203,1850.54957
1534191660000,0.015566,0.015583,0.015583,0.015566,2662.83922377
1534213740000,0.015203,0.0152,0.015203,0.0152,900.0
1534213800000,0.0152,0.0152,0.0152,0.0152,76.089382
1534232220000,0.015169,0.015169,0.015169,0.015169,2400.5219292
1534235940000,0.0154,0.0154,0.0154,0.0154,598.8
1534239480000,0.01517,0.01517,0.01517,0.01517,1795.2732701700006
1534239660000,0.01517,0.01517,0.01517,0.01517,598.42442339
1534282260000,0.0146,0.0146,0.0146,0.0146,1896.98546764
1534302900000,0.015694999999999997,0.015694999999999997,0.015694999999999997,0.015694999999999997,1123.312
1534311600000,0.014733000000000001,0.014733000000000001,0.014733000000000001,0.014733000000000001,2166.60879168
1534351500000,0.01555,0.015562000000000001,0.015562000000000001,0.01555,4183.53394842
1534365660000,0.014209999999999999,0.014209999999999999,0.014209999999999999,0.014209999999999999,3513.71093533
1534436520000,0.015338,0.014421000000000003,0.015338,0.014421000000000003,1744.23899344
1534449060000,0.014212,0.014212,0.014212,0.014212,996.0039999999999
1534512780000,0.015312000000000001,0.015312000000000001,0.015312000000000001,0.015312000000000001,562.0
1534528020000,0.015244999999999996,0.014648,0.015244999999999996,0.014648,1622.376
1534529940000,0.01526,0.01526,0.01526,0.01526,670.0
1534550160000,0.014978,0.014978,0.014978,0.014978,2252.01345235
1534550340000,0.014209999999999999,0.014001,0.014209999999999999,0.014001,2737.98654765
1534594980000,0.015271000000000003,0.015271000000000003,0.015271000000000003,0.015271000000000003,976.94177478
1534612440000,0.014801,0.014801,0.014801,0.014801,5058.0
1534667520000,0.0131,0.012802000000000001,0.0131,0.012802000000000001,26976.0
1534673100000,0.012101,0.012101,0.012101,0.012101,1000.0
1534690620000,0.013285,0.013285,0.013285,0.013285,820.0
1534753800000,0.012103000000000001,0.0121,0.012103000000000001,0.0121,1980.3322
1534770000000,0.010464,0.010464,0.010464,0.010464,1322.774
1534777440000,0.011318,0.011318,0.011318,0.011318,799.2
1534904700000,0.012079000000000001,0.0121,0.0121,0.012079000000000001,3872.2
1534927680000,0.011039,0.011039,0.011039,0.011039,3402.77412729
1534983240000,0.011078,0.011078,0.011078,0.011078,999.0
1535043360000,0.011078,0.011078,0.011078,0.011078,3365.256
1535246220000,0.0127,0.0127,0.0127,0.0127,2240.29946299
1535248200000,0.013022,0.013022,0.013022,0.013022,2000.0
1535410860000,0.012342,0.012342,0.012342,0.012342,1343.10308701
1535436300000,0.011824,0.011822,0.011824,0.011822,2498.8877
1535457000000,0.012322,0.012332,0.012332,0.012322,2000.0
1535472660000,0.012332,0.012332,0.012332,0.012332,814.5
1535472900000,0.013088999999999998,0.013088999999999998,0.013088999999999998,0.013088999999999998,5590.89993434
1535530380000,0.011842,0.011842,0.011842,0.011842,1172.6073
1535536080000,0.01184,0.01184,0.01184,0.01184,5000.0
1535560080000,0.010053,0.010053,0.010053,0.010053,4514.09
1535591640000,0.0104,0.0104,0.0104,0.0104,1238.0
1535805840000,0.0106,0.0106,0.0106,0.0106,9264.0
1535805900000,0.0106,0.0105,0.0106,0.0105,9264.0
1535876520000,0.0116,0.0116,0.0116,0.0116,866.0
1535897580000,0.0116,0.0116,0.0116,0.0116,5000.0
1535897760000,0.0116,0.0117,0.0117,0.0116,1000.0
1535952240000,0.0105,0.01,0.0105,0.01,2781.209034270001
1535970540000,0.013733,0.013733,0.013733,0.013733,5000.0
1536028500000,0.013723,0.013733,0.013733,0.013723,4925.31
1536028740000,0.014788,0.014788999999999997,0.014788999999999997,0.014788,4723.61019754
1536029340000,0.013368000000000001,0.013368000000000001,0.013368000000000001,0.013368000000000001,2257.56181398
1536168120000,0.012,0.012,0.012,0.012,2280.78278556
1536191220000,0.012,0.012,0.012,0.012,978.16937547
1536191400000,0.012,0.012,0.012,0.012,866.0
1536193200000,0.012,0.012,0.012,0.012,866.0
1536193560000,0.012,0.012,0.012,0.012,866.0
1536199980000,0.012,0.012,0.012,0.012,6392.58913447
1536229380000,0.014747,0.014747,0.014747,0.014747,1000.0
1536230280000,0.012,0.012,0.012,0.012,5250.4587045
1536316440000,0.010077,0.010066,0.010077,0.010066,1996.0
1536431160000,0.0105,0.010067,0.0105,0.010067,6674.0
1536492840000,0.014084,0.014731,0.014731,0.014084,8500.046391790003
1536492900000,0.010079,0.010067,0.010079,0.010067,11071.595434
1536493140000,0.013271000000000002,0.013271000000000002,0.013271000000000002,0.013271000000000002,5100.0
1536501360000,0.013213999999999998,0.013213999999999998,0.013213999999999998,0.013213999999999998,2002.00400801
1536512220000,0.01319,0.013213999999999998,0.013213999999999998,0.01319,18635.4530214
1536562620000,0.011001,0.010998,0.011001,0.010998,18598.18
1536563400000,0.011000000000000001,0.011000000000000001,0.011000000000000001,0.011000000000000001,870.0
1536563460000,0.011000000000000001,0.011000000000000001,0.011000000000000001,0.011000000000000001,866.0
1536578940000,0.013177,0.013177,0.013177,0.013177,868.26
1536692640000,0.011,0.010998,0.011,0.010998,6563.48924819
1536692760000,0.011987000000000001,0.011987000000000001,0.011987000000000001,0.011987000000000001,2901.13942926
1536719520000,0.010998,0.010998,0.010998,0.010998,5024.76671043
1536944160000,0.010999,0.010829,0.010999,0.010829,9301.0
1536944220000,0.010829,0.010829,0.010829,0.010829,1065.0
1536950520000,0.010829,0.010829,0.010829,0.010829,12623.7536037
1536950640000,0.010829,0.010829,0.010829,0.010829,866.0
1536951480000,0.010829,0.010829,0.010829,0.010829,866.0
1536951660000,0.010829,0.010829,0.010829,0.010829,866.0
1536951960000,0.010829,0.010829,0.010829,0.010829,866.0
1536956760000,0.010829,0.010829,0.010829,0.010829,89048.46765630002
1536982320000,0.010651,0.010651,0.010651,0.010651,10598.0
1536982380000,0.01065,0.01065,0.01065,0.01065,866.0
1537293000000,0.010106,0.010101,0.010106,0.010101,1000.05916353
1537480620000,0.010103,0.01,0.010103,0.01,5867.19915129
1537527660000,0.012304,0.012304,0.012304,0.012304,5000.0
1537531200000,0.013288999999999999,0.013288999999999999,0.013288999999999999,0.013288999999999999,1500.0
1537533180000,0.012999,0.012999,0.012999,0.012999,2552.1360949600007
1537533360000,0.012997,0.012997,0.012997,0.012997,1500.0
1537533600000,0.008,0.0095,0.0095,0.008,3000.0
1537533720000,0.011498999999999999,0.011498999999999999,0.011498999999999999,0.011498999999999999,1500.0
1537534080000,0.011498999999999999,0.011498999999999999,0.011498999999999999,0.011498999999999999,2000.0
1537551000000,0.009001,0.009001,0.009001,0.009001,1500.0
1537551060000,0.009999899999999999,0.009999899999999999,0.009999899999999999,0.009999899999999999,1537.38550504
1537581000000,0.012851,0.012881,0.012881,0.012851,2020.0
1537581060000,0.012881,0.012881,0.012881,0.012881,1062.9943316
1537585740000,0.011000000000000001,0.011000000000000001,0.011000000000000001,0.011000000000000001,1297.78173008
1537589220000,0.010801999999999999,0.010801999999999999,0.010801999999999999,0.010801999999999999,1500.0
1537720980000,0.012482,0.012482,0.012482,0.012482,3000.0
1537794120000,0.0092353,0.0092353,0.0092353,0.0092353,1498.5
1537823460000,0.012467,0.012467,0.012467,0.012467,1765.67229004
1537823940000,0.009429,0.009429,0.009429,0.009429,1762.14094546
1537824120000,0.012466,0.012466,0.012466,0.012466,4543.45975934
1537824240000,0.009438600000000002,0.009438600000000002,0.009438600000000002,0.009438600000000002,4534.37283982
1537897560000,0.0097,0.009448100000000001,0.0097,0.009448100000000001,4990.0
1537959780000,0.0095,0.0095,0.0095,0.0095,5966.99545263
1537961280000,0.0095,0.0095,0.0095,0.0095,1701.21997263
1537964280000,0.0095,0.0095,0.0095,0.0095,43738.78457474
1538020800000,0.009429,0.009429,0.009429,0.009429,4719.0
1538020860000,0.009412,0.009412,0.009412,0.009412,1100.0
1538127000000,0.0092449,0.0092353,0.0092449,0.0092353,7987.30333008
1538140380000,0.0074090000000000015,0.0073,0.0074090000000000015,0.0073,32230.48722155
1538143620000,0.0082,0.0082,0.0082,0.0082,1730.48722155
1538143800000,0.009183,0.009183,0.009183,0.009183,2000.0
1538305620000,0.0101,0.0101,0.0101,0.0101,7246.25086341
1538306820000,0.009000000000000001,0.009000000000000001,0.009000000000000001,0.009000000000000001,3000.0
1538335080000,0.010101,0.010562,0.010562,0.010101,5000.0
1538335200000,0.010999,0.011000000000000001,0.011000000000000001,0.010999,10789.52108851
1538483520000,0.011000000000000001,0.011000000000000001,0.011000000000000001,0.011000000000000001,2707.81753268
1538516040000,0.0080916,0.008083499999999999,0.0080916,0.008083499999999999,25211.53033006
1538616720000,0.011005,0.011006,0.011006,0.011005,8538.79697402
1538823660000,0.009488,0.009363400000000001,0.009488,0.009363400000000001,4990.0
1538943600000,0.00939,0.0093853,0.00939,0.0093853,2159.90481643
1538955180000,0.011111,0.011111,0.011111,0.011111,1100.0
1539103080000,0.011090000000000001,0.0115,0.0115,0.011090000000000001,3000.0
1539221880000,0.0095,0.0095,0.0095,0.0095,4231.75836168
1539237600000,0.0095,0.0095,0.0095,0.0095,1198.8
1539242760000,0.0095,0.0095,0.0095,0.0095,2656.69559463
1539381840000,0.012,0.012,0.012,0.012,2000.0
1539444300000,0.01,0.01,0.01,0.01,32554.96
1539450780000,0.012,0.012222,0.012222,0.012,1500.0
1539780180000,0.012222,0.012465,0.012465,0.012222,1010.0
1539784440000,0.01,0.01,0.01,0.01,1049.02483177
1539788640000,0.012465,0.012467,0.012467,0.012465,10000.0
1539933360000,0.012467,0.012482,0.012482,0.012467,1798.09501977
1540042560000,0.011112,0.011112,0.011112,0.011112,1898.31015315
1540195380000,0.011,0.011,0.011,0.011,1180.0
1540564800000,0.012466,0.012466,0.012466,0.012466,2100.0
1540564860000,0.010503,0.010503,0.010503,0.010503,2000.0
1540565100000,0.012453,0.010503,0.012453,0.010503,3600.0
1540565220000,0.012452,0.012452,0.012452,0.012452,1010.0
1540565340000,0.012467,0.012466,0.012467,0.010504000000000001,10000.0
1540565400000,0.010504000000000001,0.012466,0.012466,0.010504000000000001,24000.0
1540565460000,0.010504,0.010515,0.012466,0.010504,10000.0
1540565640000,0.012466,0.010574,0.012466,0.010574,3020.0
1540566660000,0.012320000000000001,0.010574,0.012465,0.010574,8020.0
1540566720000,0.012466,0.010574,0.012467,0.010574,8020.0
1540566840000,0.012467,0.010574,0.012482,0.010574,8020.0
1540566900000,0.012355,0.012355,0.012355,0.012355,4020.0
1540566960000,0.010574,0.010574,0.010574,0.010574,4000.0
1540567020000,0.012332,0.010574,0.012355,0.010574,6020.0
1540567140000,0.010578,0.012355,0.012355,0.010578,4000.0
1540567200000,0.012352,0.012352,0.012352,0.012352,4040.0
1540567260000,0.012352,0.012352,0.012352,0.012352,1800.0
1540567320000,0.012352,0.012352,0.012352,0.012352,2000.0
1540567440000,0.012352,0.010586,0.012479,0.010586,6000.0
1540567560000,0.010593,0.010593,0.010593,0.010593,3000.0
1540567620000,0.012305,0.010655,0.012305,0.010655,6000.0
1540568100000,0.012282,0.012305,0.012305,0.012282,3000.0
1540568160000,0.012305,0.012477,0.012477,0.012305,3000.0
1540568220000,0.012478,0.012478,0.012478,0.012478,1020.0
1540568760000,0.011029,0.012476,0.012479,0.011028,18000.0
1540568820000,0.011032,0.011067,0.012477,0.011032,33000.0
1540568880000,0.011125,0.011125,0.011125,0.011125,3000.0
1540568940000,0.011125,0.011115,0.011125,0.011115,3000.0
1540569000000,0.012383,0.012383,0.012383,0.012383,2100.0
1540569060000,0.012383,0.012417,0.012417,0.012383,2100.0
1540569180000,0.012417,0.012417,0.012417,0.012417,2100.0
1540569240000,0.012417,0.012475,0.012475,0.012417,2100.0
1540569360000,0.011136,0.012473,0.012473,0.011136,6000.0
1540569420000,0.011135,0.011156,0.012474,0.011135,27000.0
1540569480000,0.012425,0.012425,0.012425,0.012425,1300.0
1540569600000,0.012425,0.012474,0.012474,0.012425,1300.0
1540569900000,0.012473,0.012473,0.012473,0.012473,1300.0
1540570380000,0.011198,0.011198,0.011198,0.011198,3000.0
1540570560000,0.011234,0.011242,0.011242,0.011234,6000.0
1540570620000,0.012408,0.0125,0.0125,0.012408,13445.92254585
1540573860000,0.0124,0.0124,0.0124,0.0124,3000.0
1540573920000,0.0124,0.011252,0.0124,0.011252,4060.0
1540573980000,0.01239,0.01239,0.01239,0.01239,2150.0
1540574040000,0.011314,0.011314,0.011314,0.011314,3010.0
1540574160000,0.01239,0.0124,0.0124,0.01239,3010.0
1540574280000,0.0124,0.0124,0.0124,0.0124,5160.0
1540574640000,0.0124,0.012505,0.012505,0.0124,3010.0
1540574880000,0.012509000000000001,0.012509000000000001,0.012509000000000001,0.012509000000000001,2010.0
1540581180000,0.012534,0.012534,0.012534,0.012534,6128.77303571
1540581660000,0.0112,0.0112,0.0112,0.0112,3750.24019694
1540581900000,0.01132,0.01132,0.01132,0.01132,7886.47045868
1540645140000,0.011095,0.011095,0.011095,0.011095,5967.2
1540665360000,0.011095,0.011095,0.011095,0.011095,6860.218000000003
1540735620000,0.010502,0.010502,0.010502,0.010502,2011.98
1540786080000,0.010502,0.0105,0.010502,0.0105,2798.02
1540844700000,0.01,0.01,0.01,0.01,1100.0
1540925640000,0.01,0.01,0.01,0.01,2000.0
1541034300000,0.008218399999999999,0.008218399999999999,0.008218399999999999,0.008218399999999999,1340.41688084
1541055660000,0.0088882,0.0088882,0.0088882,0.0088882,8100.39560174
1541198400000,0.0095,0.0095,0.0095,0.0095,3789.0097825999997
1541231640000,0.0095,0.0095,0.0095,0.0095,1996.0
1541259240000,0.009999899999999999,0.01,0.01,0.009999899999999999,6581.96468791
1541269380000,0.011599,0.011599,0.011599,0.011599,5202.62122878
1541342100000,0.01155,0.01155,0.01155,0.01155,2615.8089999999997
1541402760000,0.0097,0.0095,0.0097,0.0095,20000.0
1541418060000,0.0099827,0.009982799999999998,0.009982799999999998,0.0099827,8955.0
1542004380000,0.009983,0.009983,0.009983,0.009983,15626.00132324
1542004860000,0.0095001,0.0095001,0.0095001,0.0095001,5869.83997195
1542132360000,0.011979,0.011979,0.011979,0.011979,1058.5
1542198600000,0.009500100000000001,0.009500100000000001,0.009500100000000001,0.009500100000000001,2095.8
1542203460000,0.011979,0.011979,0.011979,0.011979,2000.0
1542252240000,0.01,0.01,0.01,0.01,6849.274127
1542276000000,0.01,0.01,0.01,0.01,14953.332457
1542355320000,0.00999,0.01,0.01,0.00999,5464.480900000001
1542355380000,0.01,0.01,0.01,0.01,1228.0
1542508200000,0.01,0.01,0.01,0.01,61324.86232568
1542510780000,0.01,0.01,0.01,0.01,14180.05019032
1542557520000,0.0099,0.0099,0.0099,0.0099,2719.0
1542701940000,0.0095196,0.0095196,0.0095196,0.0095196,3801.18
1542702540000,0.0095197,0.0095197,0.0095197,0.0095197,1638.04772384
1542702780000,0.0095197,0.0095196,0.0095197,0.0095196,2892.84673246
1542702900000,0.00951,0.00951,0.00951,0.00951,1228.0
1542703860000,0.00975,0.00975,0.00975,0.00975,1350.64954148
1543025100000,0.011239,0.011239,0.011239,0.011239,3485.60787881
1543025760000,0.0090091,0.0090091,0.0090091,0.0090091,3485.60787881
1543088580000,0.009009200000000002,0.0090091,0.009009200000000002,0.0090091,5900.6180901900025
1543088760000,0.009009,0.009009,0.009009,0.009009,2987.41442749
1543094640000,0.009009,0.009009,0.009009,0.009009,3993.88259114
1543095180000,0.009009,0.009009,0.009009,0.009009,1991.60961833
1543098300000,0.009009,0.009009,0.009009,0.009009,15143.96007193
1543098360000,0.009009,0.009009,0.009009,0.009009,25883.13329111
1543098420000,0.0084,0.0084,0.0084,0.0084,2000.0
1543099200000,0.0061064,0.0061064,0.0061064,0.0061064,1500.0
1543128900000,0.0064251,0.0062,0.0064251,0.0062,12975.67526338
1543324500000,0.0062504,0.0062,0.0062504,0.0062,16260.15976258
1543327500000,0.0062,0.0062,0.0062,0.0062,2313.20249999
1543336680000,0.011445,0.011445,0.011445,0.011445,10100.0
1543347240000,0.006999999999999999,0.006999999999999999,0.006999999999999999,0.006999999999999999,10000.0
1543405980000,0.0067997,0.0067997,0.0067997,0.0067997,26363.0
1543406160000,0.0068,0.0068,0.0068,0.0068,4990.0
1543426200000,0.0062001,0.0062001,0.0062001,0.0062001,5000.0
1543465260000,0.0065,0.0065,0.0065,0.0065,3000.0
1543469280000,0.0065,0.0065,0.0065,0.0065,11730.25084528
1543726800000,0.0064586,0.0064586,0.0064586,0.0064586,3100.05280651
1543852620000,0.0058059,0.0058059,0.0058059,0.0058059,2997.0
1543865220000,0.0057331000000000005,0.005733,0.0057331000000000005,0.005733,8348.14564097
1544055120000,0.005733,0.005733,0.005733,0.005733,13261.8266248
1544377680000,0.00331,0.00331,0.00331,0.00331,2997.0
1544613840000,0.005120899999999999,0.005120899999999999,0.005120899999999999,0.005120899999999999,5447.762956860001
1544715360000,0.0057,0.005733,0.005733,0.0057,36688.0
1544715480000,0.005733,0.005733,0.005733,0.005733,2979.0
1544738100000,0.005733,0.0072345,0.0072345,0.005733,2633.56644293
1544822760000,0.0087329,0.008733,0.008733,0.0087329,17722.88635769
1544864520000,0.008733,0.008733,0.008733,0.008733,4236.80293141
1545099660000,0.0087329,0.008733,0.008733,0.0087329,15113.0
1545223260000,0.008733,0.008733,0.008733,0.008733,26435.85056142
1545335820000,0.0087978,0.0087978,0.0087978,0.0087978,1996.0
1545335880000,0.009999,0.009999,0.009999,0.009999,2250.0
1545342960000,0.009999,0.009999,0.009999,0.009999,2853.60887188
1545377040000,0.00333,0.0033,0.00333,0.0033,3500.0
1545497580000,0.00425,0.00425,0.00425,0.00425,7532.387848199999
1545505320000,0.006,0.006,0.006,0.006,6480.0
1545508920000,0.006013800000000001,0.006013800000000001,0.006013800000000001,0.006013800000000001,7517.323072499998
1545511740000,0.006013800000000001,0.006013800000000001,0.006013800000000001,0.006013800000000001,2994.0
1545573240000,0.006013800000000001,0.006013800000000001,0.006013800000000001,0.006013800000000001,5550.30355175
1545857220000,0.009000000000000001,0.009000000000000001,0.009000000000000001,0.009000000000000001,4164.91995444
1545864420000,0.0088915,0.009000000000000001,0.009000000000000001,0.0088915,9188.99578332
1545864480000,0.0099,0.0118,0.0118,0.0099,36488.75539359
1545864540000,0.012759999999999999,0.012808000000000002,0.012808000000000002,0.012759999999999999,27126.96072221
1545864600000,0.012819999999999998,0.012903999999999999,0.012903999999999999,0.012819999999999998,11796.05403239
1545865560000,0.0128,0.0128,0.0128,0.0128,2994.0
1545865620000,0.013000000000000001,0.013000000000000001,0.013000000000000001,0.013000000000000001,14500.0
1545928620000,0.0127,0.0129,0.0129,0.0127,36800.0
1545928680000,0.013000000000000001,0.013000000000000001,0.013000000000000001,0.013000000000000001,11854.0
1545974220000,0.013000000000000001,0.013000000000000001,0.013000000000000001,0.013000000000000001,9975.01673769
1545974280000,0.013199,0.013199,0.013199,0.013199,2490.0164583
1545974400000,0.0132,0.0132,0.0132,0.0132,3041.83068712
1546014420000,0.006556,0.006556,0.006556,0.006556,9980.0
1546094340000,0.007311,0.007311,0.007311,0.007311,4156.59011453
1546121280000,0.01193,0.01193,0.01193,0.01193,4108.3169343
1546122780000,0.01261,0.0132,0.0132,0.01261,7258.16931288
1546122840000,0.013444999999999999,0.013444999999999999,0.013444999999999999,0.013444999999999999,2998.08276281
1546130220000,0.013213999999999998,0.013213999999999998,0.013213999999999998,0.013213999999999998,2732.65989816
1546175400000,0.013444999999999999,0.013999999999999999,0.013999999999999999,0.013444999999999999,6001.91723719
1546447380000,0.013777000000000001,0.014213,0.014213,0.013777000000000001,15467.34010184
1546447440000,0.014544,0.014544,0.014544,0.014544,3195.304430200001
1546447920000,0.015246000000000001,0.015562000000000001,0.015562000000000001,0.015246000000000001,6983.31
1546778580000,0.0155,0.015562999999999999,0.015562999999999999,0.0155,3070.13034235
1547190840000,0.0154,0.0154,0.0154,0.0154,2000.0
1547251680000,0.012512,0.012512,0.012512,0.012512,8862.451576000001
1547301960000,0.0125,0.0099756,0.0125,0.0099756,7584.799999999997
1548508320000,0.011000000000000001,0.011000000000000001,0.011000000000000001,0.011000000000000001,2450.62793255
1548590160000,0.0099756,0.009885099999999999,0.0099756,0.009885099999999999,9867.54902447
1548612840000,0.009885,0.009885,0.009885,0.009885,2345.0
1548653820000,0.009885,0.009885,0.009885,0.009885,24121.0
1548695100000,0.009885,0.009885,0.009885,0.009885,0.82304298
1548695760000,0.010999,0.010999,0.010999,0.010999,5730.50932774
1548695820000,0.011000000000000001,0.011000000000000001,0.011000000000000001,0.011000000000000001,3206.99714181
1548699600000,0.011000000000000001,0.011000000000000001,0.011000000000000001,0.011000000000000001,10000.0
1548775380000,0.011000000000000001,0.011000000000000001,0.011000000000000001,0.011000000000000001,10635.0
1548928980000,0.0098235,0.009798600000000001,0.0098235,0.009798600000000001,5989.91340272
1549397460000,0.009798600000000001,0.0096772,0.009798600000000001,0.0096772,15610.37532192
1550171100000,0.0096772,0.0095599,0.0096772,0.0095599,2467.2674
1550542440000,0.013999999999999999,0.013999999999999999,0.013999999999999999,0.013999999999999999,2000.0
1550643960000,0.013999999999999999,0.013999999999999999,0.013999999999999999,0.013999999999999999,1989.42193972
1550698980000,0.014999,0.014999,0.014999,0.014999,2722.54794243
1550709360000,0.012473999999999999,0.012473999999999999,0.012473999999999999,0.012473999999999999,3246.1
1550736420000,0.014999,0.015,0.015,0.014999,6999.972
1551004980000,0.013193,0.013193,0.013193,0.013193,6033.08451291
1551008160000,0.014999,0.015,0.015,0.014999,47873.47346467
1551304980000,0.014998,0.014998,0.014998,0.014998,1750.0
1551709020000,0.015,0.015,0.015,0.015,50795.0
1551794520000,0.015,0.015,0.015,0.015,0.45778163
1551954660000,0.014998,0.014998,0.014998,0.014998,1594.430072
1552124520000,0.0155,0.0155,0.0155,0.0155,3339.33564193
1552210680000,0.0165,0.0165,0.0165,0.0165,2290.0
1552568280000,0.024987,0.025889999999999996,0.025889999999999996,0.024987,7102.74088914
1552568340000,0.026083999999999996,0.031,0.031,0.026083999999999996,12979.30549577
1552574880000,0.021487,0.021487,0.021487,0.021487,2637.35233066
1552733340000,0.015891,0.01589,0.015891,0.01589,11602.05425882
1552931040000,0.016,0.016,0.016,0.016,1500.0
1552931100000,0.016,0.016,0.016,0.016,41008.12212328
1553155080000,0.0181,0.01782,0.0181,0.01782,4478.55775799
1553155740000,0.01782,0.01782,0.01782,0.01782,843.46577558
1553155800000,0.017643,0.017564,0.017643,0.017564,2000.0
1553155860000,0.017564,0.017564,0.017564,0.017564,1584.93106816
1553156280000,0.017353999999999998,0.017041,0.017353999999999998,0.017041,5174.27355899
1553156520000,0.016926,0.016863999999999997,0.016926,0.016863999999999997,3442.65057278
1553156760000,0.016626,0.016626,0.016626,0.016626,1677.65897457
1553156820000,0.016566,0.016566,0.016566,0.016566,1782.00461021
1553157720000,0.016153,0.016036,0.016153,0.016036,3397.5321071999997
1553161680000,0.015531,0.015521,0.015531,0.015521,3409.77573953
1553161740000,0.015384,0.015097,0.015384,0.015097,8655.60064992
1553161800000,0.014718,0.014515,0.014718,0.014515,5000.0
1553161860000,0.014515,0.014490000000000001,0.014515,0.014490000000000001,2044.55194563
1553199420000,0.0235,0.0235,0.0235,0.0235,2000.0
1553200200000,0.024990000000000002,0.024990000000000002,0.024990000000000002,0.024990000000000002,2165.34455583
1553239080000,0.024990000000000002,0.024990000000000002,0.024990000000000002,0.024990000000000002,3500.0
1553269560000,0.024990000000000002,0.024990000000000002,0.024990000000000002,0.024990000000000002,1400.0
1553270100000,0.0187,0.01872,0.01872,0.0187,2686.03452746
1553270280000,0.0229,0.0229,0.0229,0.0229,3493.0
1553270640000,0.01874,0.01874,0.01874,0.01874,9725.24876481
1553270700000,0.01874,0.01874,0.01874,0.01874,4341.31832626
1553270760000,0.01874,0.01874,0.01874,0.01874,6739.39482919
1553270940000,0.01804,0.01804,0.01804,0.01804,2839.24361925
1553271000000,0.0182,0.01804,0.0182,0.01804,9652.20743437
1553271060000,0.01804,0.01804,0.01804,0.01804,6768.2277018099985
1553271180000,0.01804,0.01804,0.01804,0.01804,1923.52651597
1554131520000,0.024877,0.025,0.025,0.024877,4500.0
1554131640000,0.025,0.025,0.025,0.025,4930.0
1554147060000,0.024,0.024,0.024,0.024,1203.78493493
1554203760000,0.024,0.024,0.024,0.024,10893.73668108
1554213480000,0.027399,0.020101,0.027399,0.020101,3099.896
1554218760000,0.027399,0.027399,0.027399,0.027399,1052.0
1554226560000,0.023,0.023,0.023,0.023,1251.92137853
1554319740000,0.027399,0.022000000000000002,0.027399,0.022000000000000002,3151.792
1554357900000,0.022501,0.0225,0.022501,0.0225,2260.24932555
1554358020000,0.0225,0.022000000000000002,0.0225,0.022000000000000002,5867.0
1554466500000,0.025,0.025,0.025,0.025,45938.050788
1554469140000,0.0231,0.0231,0.0231,0.0231,1394.0
1554549960000,0.027313,0.027399,0.027399,0.027313,4245.59335487
1554739980000,0.026942,0.023472999999999997,0.026942,0.023472999999999997,2839.4372955
1554837780000,0.023472999999999997,0.023472999999999997,0.023472999999999997,0.023472999999999997,795.10434809
1554842040000,0.023472999999999997,0.023472999999999997,0.023472999999999997,0.023472999999999997,1192.39702791
1554901860000,0.022001,0.022001,0.022001,0.022001,4736.98519865
1555037640000,0.022001,0.022000000000000002,0.022001,0.022000000000000002,5674.80084223
1555158420000,0.026681,0.026681,0.026681,0.026681,1600.0
1555158480000,0.0234,0.0234,0.0234,0.0234,2605.60596035
1555158540000,0.0234,0.0234,0.0234,0.0234,2598.3809295
1555164960000,0.022157,0.022157,0.022157,0.022157,24830.79
1555519620000,0.022157,0.022157,0.022157,0.022157,1197.6
1555538760000,0.026681,0.026942,0.026942,0.026681,2763.269880000001
1555542000000,0.026942,0.027000000000000003,0.027000000000000003,0.026942,2780.73351148
1555911840000,0.032,0.032,0.032,0.032,1012.0
1555912260000,0.032,0.032,0.032,0.032,525.62336523
1556254980000,0.020152,0.020152,0.020152,0.020152,1202.58114999
1556309820000,0.02065,0.02065,0.02065,0.02065,645.98938036
1556309880000,0.02065,0.02065,0.02065,0.02065,180.0
1556309940000,0.02065,0.02065,0.02065,0.02065,3166.34734502
1556310000000,0.02065,0.02065,0.02065,0.02065,180.0
1556310180000,0.022924,0.022900999999999998,0.022924,0.022900999999999998,3047.15484482
1556310240000,0.022900999999999998,0.022900999999999998,0.022900999999999998,0.022900999999999998,371.80981762
1556316960000,0.029255,0.029285000000000002,0.029285000000000002,0.029255,3824.28555107
1556317080000,0.032999,0.032999,0.032999,0.032999,631.36168758
1556375940000,0.030999000000000002,0.031,0.031,0.030999000000000002,1092.25916226
1556401440000,0.021832,0.021832,0.021832,0.021832,1090.29964394
1556444340000,0.030732,0.030732,0.030732,0.030732,320.0
1557175440000,0.032299,0.0323,0.0323,0.032299,999.0
1557175500000,0.0323,0.033,0.033,0.0323,1348.30525061
1557423000000,0.020299,0.019511,0.020299,0.019511,10689.38505332
1557429960000,0.01968,0.01968,0.01968,0.01968,180.0
1557498840000,0.0293,0.029330000000000002,0.029330000000000002,0.0293,4175.6649137700015
1557550080000,0.021001,0.020000999999999998,0.021001,0.020000999999999998,2268.07474997
1557584160000,0.030763,0.030763,0.030763,0.030763,2319.21957318
1557614400000,0.030763,0.030763,0.030763,0.030763,500.0
1557619440000,0.030763,0.030763,0.030763,0.030763,500.0
1557619920000,0.020077,0.020077,0.020077,0.020077,499.0
1557745080000,0.030732,0.030732,0.030732,0.030732,360.0
1557757080000,0.030763,0.030763,0.030763,0.030763,180.0
1557757440000,0.030763,0.030764,0.030764,0.030763,360.0
1557811560000,0.032999,0.033,0.033,0.032999,2203.71593933
1557901980000,0.020413,0.020413,0.020413,0.020413,499.0
1557933900000,0.02433,0.02433,0.02433,0.02433,496.006
1557957120000,0.0328,0.0328,0.0328,0.0328,495.013988
1557957300000,0.020730000000000002,0.020730000000000002,0.020730000000000002,0.020730000000000002,494.02396002
1557957480000,0.03263,0.03263,0.03263,0.03263,493.0359121
1557957600000,0.02083,0.02083,0.02083,0.02083,492.04984028
1557971220000,0.03,0.03,0.03,0.03,500.0
1557971280000,0.03261,0.035321,0.035321,0.03261,3091.0657406
1557971340000,0.04032,0.04032,0.04032,0.04032,2162.40865931
1557980880000,0.022022999999999997,0.022022999999999997,0.022022999999999997,0.022022999999999997,1097.8
1558000740000,0.022045,0.022045,0.022045,0.022045,462.537
1558016100000,0.023032,0.023032,0.023032,0.023032,461.611926
1558462500000,0.020381,0.020381,0.020381,0.020381,399.0
1558512960000,0.032479,0.032479,0.032479,0.032479,160.0
1558513440000,0.032479,0.032479,0.032479,0.032479,160.0
1558554060000,0.02903,0.02903,0.02903,0.02903,160.0
1558779120000,0.029031,0.021322999999999998,0.029031,0.021322999999999998,4422.64568909
1558894320000,0.028999999999999998,0.028999999999999998,0.028999999999999998,0.028999999999999998,30.0
1558894680000,0.032,0.032,0.032,0.032,160.0
1558894740000,0.032479,0.032479,0.032479,0.032479,180.0
1559389020000,0.028000999999999998,0.028000999999999998,0.028000999999999998,0.028000999999999998,524.948
1559521800000,0.027999999999999997,0.027999999999999997,0.027999999999999997,0.027999999999999997,35.0
1559637720000,0.023701,0.023701,0.023701,0.023701,704.34
1559947380000,0.023701,0.0237,0.023701,0.0237,1950.46638844
1560375060000,0.031999,0.031999,0.031999,0.031999,160.0
1560375120000,0.031999,0.031999,0.031999,0.031999,960.0
1560375600000,0.031999,0.031999,0.031999,0.031999,250.0
1560577140000,0.0239,0.0239,0.0239,0.0239,418.41004184
1560577200000,0.020901,0.020901,0.020901,0.020901,756.0
1560696600000,0.031889999999999995,0.031889999999999995,0.031889999999999995,0.031889999999999995,207.74163951
1560844800000,0.031889999999999995,0.031889999999999995,0.031889999999999995,0.031889999999999995,797.7071213199997
1560976320000,0.031819,0.031819,0.031819,0.031819,207.53389787
1560977040000,0.031819,0.031819,0.031819,0.031819,237.57051006
1561043820000,0.031819,0.031819,0.031819,0.031819,203.7032511
1561074180000,0.027075,0.027075,0.027075,0.027075,1000.9939999999999
1561170060000,0.03182,0.03182,0.03182,0.03182,1000.0
1561170240000,0.031889999999999995,0.031889999999999995,0.031889999999999995,0.031889999999999995,160.0
1561172520000,0.031889999999999995,0.031889999999999995,0.031889999999999995,0.031889999999999995,402.16624481
1561172580000,0.031889999999999995,0.031889999999999995,0.031889999999999995,0.031889999999999995,2341.60825469
1561201920000,0.031889999999999995,0.031999,0.031999,0.031889999999999995,685.07438656
1561241160000,0.03129,0.03129,0.03129,0.03129,301.85
1561261560000,0.03129,0.030805000000000006,0.03129,0.030805000000000006,1024.9
1561282380000,0.031999,0.032,0.032,0.031999,252.03014844
1561338900000,0.030805000000000006,0.030805000000000006,0.030805000000000006,0.030805000000000006,169.5
1561372380000,0.030805000000000006,0.030805000000000006,0.030805000000000006,0.030805000000000006,160.0
1561372920000,0.030805000000000006,0.030077,0.030805000000000006,0.030077,500.0
1561626900000,0.0302,0.0302,0.0302,0.0302,1087.34017105
1561654080000,0.0302,0.03005,0.0302,0.03005,1902.205809909534
1561745160000,0.027001999999999998,0.027000000000000003,0.027001999999999998,0.027000000000000003,3652.0
1561753620000,0.031399,0.0314,0.0314,0.031399,388.0
1561804440000,0.031399,0.0314,0.0314,0.031399,525.0961900899998
1561804800000,0.031999,0.032,0.032,0.031999,1708.87879182
1561804860000,0.031999,0.032,0.032,0.031999,670.52256252
1561812000000,0.033,0.033,0.033,0.033,468.74679280000004
1561817040000,0.034399,0.03482,0.03482,0.034399,644.88957084
1561840620000,0.034819,0.03482,0.03482,0.034819,333.0
1561850580000,0.034819,0.037880000000000004,0.037880000000000004,0.034819,3281.79034099
1561873740000,0.037879,0.038,0.038,0.037879,1536.25170254
1561873800000,0.039320999999999995,0.039788,0.039788,0.039320999999999995,2130.74083774
1561873860000,0.041086000000000004,0.041086000000000004,0.041086000000000004,0.041086000000000004,160.0
1561873920000,0.041086000000000004,0.041086000000000004,0.041086000000000004,0.041086000000000004,1037.98447019
1561874520000,0.041086000000000004,0.041087,0.041087,0.041086000000000004,2320.0
1561874940000,0.044999000000000004,0.044999000000000004,0.044999000000000004,0.044999000000000004,200.0
1561875000000,0.044999000000000004,0.045,0.045,0.044999000000000004,1363.83703416
1561875060000,0.047649000000000004,0.04765,0.04765,0.047649000000000004,3000.0
1561883040000,0.045,0.045,0.045,0.045,261.15858
1561884720000,0.047649000000000004,0.04765,0.04765,0.047649000000000004,400.0
1561890840000,0.047649000000000004,0.04765,0.04765,0.047649000000000004,1897.46870037
1561897860000,0.048899,0.0489,0.0489,0.048899,1460.0
1561916460000,0.054999,0.054999,0.054999,0.054999,400.0
1561919520000,0.0468,0.0468,0.0468,0.0468,179.00178208
1561959240000,0.0494,0.0494,0.0494,0.0494,1943.31983806
1562074020000,0.054998000000000005,0.054999,0.054999,0.05494299999999999,1528.0
1562074440000,0.054998000000000005,0.054998000000000005,0.054999,0.054998000000000005,1248.0
1562074500000,0.054998000000000005,0.055,0.055,0.054998000000000005,1820.0
1562101800000,0.055,0.055,0.055,0.055,1304.463788
1562166300000,0.057,0.057,0.057,0.057,3380.0
1562166360000,0.089999,0.089999,0.089999,0.089999,1340.0
1562199060000,0.075,0.075,0.075,0.075,72.0
1562204160000,0.075,0.075,0.075,0.075,178.19396716
1562206440000,0.075,0.075,0.075,0.075,72.0
1562238840000,0.075,0.075,0.075,0.075,200.0
1562238960000,0.075,0.075,0.075,0.075,200.0
1562304840000,0.073,0.073,0.073,0.073,1725.5
1562305020000,0.073,0.073,0.073,0.073,229.38022557
1562305440000,0.073,0.060001,0.073,0.060001,4875.35512257
1562309040000,0.060001,0.06,0.060001,0.06,1315.9704041
1562410020000,0.08731599999999999,0.08731599999999999,0.08731599999999999,0.08731599999999999,333.0
1562410140000,0.060001,0.060001,0.060001,0.060001,332.334
1562671440000,0.087258,0.087258,0.087258,0.087258,122.49739282
1562767140000,0.065,0.065,0.065,0.065,399.2
1562826900000,0.065,0.065,0.065,0.065,80.0
1562875500000,0.087258,0.087258,0.087258,0.087258,200.0
1562876520000,0.087258,0.087258,0.087258,0.087258,219.415446
1562878020000,0.08,0.08,0.08,0.08,266.81265
1562920200000,0.065001,0.061,0.065001,0.061,698.8
1562928900000,0.08707100000000001,0.08707100000000001,0.08707100000000001,0.08707100000000001,400.0
1562928960000,0.08707100000000001,0.08707100000000001,0.08707100000000001,0.08707100000000001,66.0
1563079320000,0.08707100000000001,0.087258,0.087258,0.08707100000000001,280.054061
1563363060000,0.061,0.060001,0.061,0.060001,792.4527469999997
1563401280000,0.060002,0.060001,0.060002,0.060001,86.0516269
1563401340000,0.050002,0.050002,0.050002,0.050002,528.447202
1563893880000,0.050006,0.050006,0.050006,0.050006,782.177029
1564142280000,0.050006,0.050006,0.050006,0.050006,258.17565878
1564146060000,0.050015,0.050015,0.050015,0.050015,2229.596640630001
1564192440000,0.0789,0.0789,0.0789,0.0789,188.0
1564192620000,0.07,0.0697,0.07,0.0697,1190.88939915
1564192680000,0.069629,0.069629,0.069629,0.069629,66.0
1564192740000,0.069629,0.0697,0.0697,0.069629,395.22568491
1564192800000,0.051,0.051,0.051,0.051,2300.36078742
1564192860000,0.051,0.051,0.051,0.051,2789.4808405400013
1564192920000,0.051,0.051,0.051,0.051,1408.69300523
1564243740000,0.076,0.0789,0.0789,0.076,1585.157449
1564432680000,0.0789,0.0789,0.0789,0.0789,100.0
1564612200000,0.0789,0.0789,0.0789,0.0789,187.2
1564612260000,0.0789,0.0789,0.0789,0.0789,4159.63713
1564612320000,0.0837,0.0837,0.0837,0.0837,93.6
1564612380000,0.0878,0.0878,0.0878,0.0878,147.6612408
1564612440000,0.09,0.09,0.09,0.09,84412.0
1564996140000,0.065,0.065,0.065,0.065,160.0
1564996320000,0.0898,0.0898,0.0898,0.0898,1996.0
1565177340000,0.08553200000000001,0.08553200000000001,0.08553200000000001,0.08553200000000001,350.321442
1565217480000,0.077921,0.078,0.078,0.077921,1991.0090969999999
1565260440000,0.0778,0.0778,0.0778,0.0778,72.990903
1565260500000,0.0778,0.077921,0.077921,0.0778,145.981806
1565260560000,0.077921,0.078,0.078,0.077921,72.990903
1565260620000,0.077921,0.078,0.078,0.077921,92.383921
1565260680000,0.085844,0.085844,0.085844,0.085844,785.0
1566126240000,0.06776,0.06776,0.06776,0.06776,332.79096569999996
1566159480000,0.067569,0.067569,0.067569,0.067569,62.0
1566555960000,0.067569,0.0675,0.067569,0.0675,96.0
1566749820000,0.067569,0.0675,0.067569,0.0675,3167.6
1566755220000,0.067569,0.0675,0.067569,0.0675,3128.0
1566850920000,0.0675,0.0675,0.0675,0.0675,590.1036174
1566897840000,0.0675,0.0675,0.0675,0.0675,8220.8767
1566918540000,0.0675,0.0675,0.0675,0.0675,15842.49999999
1566918600000,0.0675,0.0675,0.0675,0.0675,10898.4
1566927060000,0.0675,0.0675,0.0675,0.0675,2763.67975741
1567431420000,0.0675,0.0675,0.0675,0.0675,743.13648108
1568033880000,0.0675,0.0675,0.0675,0.0675,4734.0
1568138940000,0.0675,0.0675,0.0675,0.0675,1.70344412
1568726520000,0.056161,0.054000000000000006,0.056161,0.054000000000000006,1043.41661405
1568726580000,0.052876,0.0525,0.052876,0.0525,956.5833849999999
1569353700000,0.053,0.053,0.053,0.053,350.26300000000015
1569515700000,0.053,0.053,0.053,0.053,12921.154422
1569598320000,0.053,0.053,0.053,0.053,560.876
1569780600000,0.053,0.050001,0.053,0.050001,36423.34265239
1570377000000,0.046712000000000004,0.046712000000000004,0.046712000000000004,0.046712000000000004,434.0
1570546080000,0.040324,0.040324,0.040324,0.040324,400.0
1570855380000,0.041655000000000005,0.041655000000000005,0.041655000000000005,0.041655000000000005,76.0
1570855440000,0.041655000000000005,0.07125,0.07125,0.041655000000000005,132.0
1570855680000,0.041755,0.069,0.07,0.041755,11614.0
1570855740000,0.042,0.068,0.068,0.042,5518.0
1570855920000,0.0677,0.0677,0.0677,0.0677,154.0
1570855980000,0.0674,0.0423,0.0674,0.04212,5745.0
1570856040000,0.04233,0.0674,0.0677,0.04233,11511.13
1570856100000,0.0424,0.0427,0.0427,0.0424,6523.90358457
1570856460000,0.04276,0.04276,0.04276,0.04276,764.86496074
1570859400000,0.065,0.0428,0.065,0.042769999999999996,4601.70032623
1570859940000,0.0649,0.0649,0.0649,0.042878,6623.0
1570860000000,0.0429,0.04299,0.04299,0.0429,2847.358988400001
1570860060000,0.0649,0.0636,0.0649,0.0636,1105.0
1570860120000,0.043,0.0431,0.0431,0.043,1103.0
1570860180000,0.043160000000000004,0.043160000000000004,0.043160000000000004,0.043160000000000004,734.13564336
1570887360000,0.043230000000000005,0.043230000000000005,0.043230000000000005,0.043230000000000005,70.0
1570887540000,0.043,0.043,0.043,0.043,707.2137769999997
1570896960000,0.043923000000000004,0.043,0.043923000000000004,0.043,2916.206873
1571142540000,0.0693,0.0693,0.0693,0.0693,62.0
1571142660000,0.06919,0.06919,0.06919,0.06919,472.695754
1571170740000,0.050873,0.048,0.050873,0.048,3346.926201
1571223060000,0.048,0.0462,0.048,0.0462,439.941339
1571325600000,0.0473,0.0473,0.0473,0.0473,204.0
1571332920000,0.0473,0.0462,0.0473,0.0462,961.0586609999999
1571404320000,0.043,0.043,0.043,0.043,189.0
1571408520000,0.043,0.043,0.043,0.043,62.0
1571417340000,0.043,0.043,0.043,0.043,62.0
1571442240000,0.042996,0.042996,0.042996,0.042996,89.02616279
1571482260000,0.042999,0.042999,0.042999,0.042999,62.0
1571497620000,0.040001,0.04,0.040001,0.04,1229.05754028
1571659920000,0.04,0.04,0.04,0.04,286.07047613
1571659980000,0.04,0.04,0.04,0.04,1057.93453725
1571660040000,0.04,0.04,0.04,0.04,12524.01372279
1571660160000,0.04,0.04,0.04,0.04,6012.5381840599985
1571843640000,0.04,0.04,0.04,0.04,900.0
1572020220000,0.039999,0.039999,0.039999,0.039999,787.11441663
1572021960000,0.037000000000000005,0.036000000000000004,0.037000000000000005,0.036000000000000004,1043.5336109999996
1572050340000,0.04088,0.04088,0.04088,0.04088,156.0593061
1572050400000,0.04088,0.04099,0.04099,0.04088,837.41715821
1572055380000,0.0405,0.0405,0.0405,0.0405,2325.9186405600008
1572055560000,0.04,0.04,0.04,0.04,739.85067731
1572066960000,0.036449,0.035,0.036449,0.035,2492.21950228
1572191580000,0.0355,0.0355,0.0355,0.0355,223.332
1572392400000,0.038805,0.038805,0.038805,0.038805,212.83900000000003
1572393720000,0.038754000000000004,0.038754000000000004,0.038754000000000004,0.038754000000000004,364.69
1572473280000,0.038652,0.0405,0.0405,0.038652,2600.0
1572599940000,0.039418,0.039418,0.039418,0.039418,904.31172917
1572740460000,0.039917,0.0409,0.0409,0.039917,11202.0
1572808020000,0.03595,0.0345,0.03595,0.0345,8545.0
1573063200000,0.036139,0.0345,0.036139,0.0345,2706.40531919
1573067040000,0.0345,0.034,0.0345,0.034,1449.92466245
1573069560000,0.038380000000000004,0.038380000000000004,0.038380000000000004,0.038380000000000004,887.7862086000001
1573120980000,0.033,0.033,0.033,0.033,1000.0
1573191840000,0.033022,0.033022,0.033022,0.033022,968.86935052
1573203300000,0.033023000000000004,0.033024,0.033024,0.033023000000000004,381.50456275
1573203720000,0.033025,0.033025,0.033025,0.033025,93.13892023
1573215660000,0.03807,0.03807,0.03807,0.03807,1500.0
1573456260000,0.035001,0.035001,0.035001,0.035001,715.0
1573683780000,0.039876,0.039996,0.039996,0.039876,1024.786305
1573744800000,0.039994999999999996,0.0742,0.0742,0.039994999999999996,11754.48928172
1573745400000,0.0352,0.032,0.0352,0.032,11730.980303
1573785540000,0.037639,0.037639,0.037639,0.037639,84.0
1574335380000,0.033539,0.033539,0.033539,0.033539,1197.6
1574431740000,0.031445,0.031445,0.031445,0.031445,1600.0
1574431800000,0.030001,0.027787,0.030001,0.027787,970.0
1574434560000,0.028756,0.028756,0.028756,0.028756,357.23388062
1574439360000,0.022118000000000002,0.02159,0.022118000000000002,0.02159,2579.7425779
1574466300000,0.047601,0.047601,0.047601,0.047601,300.0
1574654520000,0.023419,0.023419,0.023419,0.023419,273.48693558
1574770860000,0.023419,0.023419,0.023419,0.023419,100.00581600000001
1575118740000,0.021862,0.021862,0.021862,0.021862,377.35849
1575965940000,0.038324000000000004,0.038324000000000004,0.038324000000000004,0.022222,3478.927418
1575966000000,0.024,0.02503,0.0375,0.024,7356.47
1575966060000,0.02503,0.024679,0.02503,0.024679,4084.199563
1576059840000,0.02513,0.02513,0.02513,0.02513,977.0
1576681200000,0.0339,0.0339,0.0339,0.0339,328.0
1576681620000,0.021185,0.021185,0.021185,0.021185,238.08468013
1576694100000,0.03311,0.03311,0.03311,0.03311,1230.512666
1576784940000,0.022244,0.022244,0.022244,0.022244,1228.0516400000001
1577713860000,0.023052,0.0219,0.023052,0.0219,12364.05151914
1577713920000,0.022518,0.0216,0.022518,0.0216,4834.94848
1577714400000,0.0216,0.02,0.0216,0.02,14199.00000077
1577782320000,0.02,0.017822,0.02,0.017822,1274.97533433
1577782860000,0.017822,0.017822,0.017822,0.017822,2638.10353136
1577782980000,0.015931999999999998,0.015931999999999998,0.015931999999999998,0.015931999999999998,2000.0
1577783040000,0.015931999999999998,0.015931999999999998,0.015931999999999998,0.015931999999999998,1000.0
1577783100000,0.015931999999999998,0.015931999999999998,0.015931999999999998,0.015931999999999998,1000.0
1577783280000,0.015931999999999998,0.015931999999999998,0.015931999999999998,0.015931999999999998,1000.0
1577783340000,0.015931999999999998,0.015931999999999998,0.015931999999999998,0.015931999999999998,2322.33118136
1577784720000,0.015322,0.015184999999999999,0.015322,0.015184999999999999,1996.0
1578861780000,0.01581,0.01581,0.01581,0.01581,1333.5368097199996
1578861840000,0.01581,0.01581,0.01581,0.01581,2133.97907246
1578864780000,0.015184999999999999,0.015184999999999999,0.015184999999999999,0.015184999999999999,266.81408757
1578926040000,0.015184999999999999,0.015184999999999999,0.015184999999999999,0.015184999999999999,1e-08
1578953640000,0.0125,0.0125,0.0125,0.0125,2040.81632653
1578955980000,0.012699,0.0127,0.0127,0.012699,2000.0
1579014360000,0.011363,0.011363,0.011363,0.011363,5122.70881534
1579016700000,0.010892,0.01089,0.010892,0.01089,634.9136669100002
1579284540000,0.014485,0.014485,0.014485,0.014485,698.59999999
1579322940000,0.014478,0.014478,0.014478,0.014478,1966.3314983
1579446060000,0.014468,0.014468,0.014468,0.014468,7495.79999997
1579446120000,0.0147,0.015184999999999999,0.015184999999999999,0.0147,1498.59999999
1580346060000,0.0278,0.0278,0.0278,0.0278,1255.0
1580348340000,0.0278,0.030494999999999998,0.030494999999999998,0.0278,1179.447809
1580348760000,0.011475,0.011475,0.011475,0.011475,2274.3091449999997
1583005020000,0.011912,0.011912,0.011912,0.011912,1399.0
1583005080000,0.011912,0.011912,0.011912,0.011912,1405.2965550000001
1583684340000,0.011912,0.011912,0.011912,0.011912,1400.0
1583763960000,0.011912,0.0115,0.011912,0.0115,1910.273445
1583969940000,0.024,0.02743,0.02743,0.024,8332.713581
1583970180000,0.006012300000000001,0.006012300000000001,0.006012300000000001,0.006012300000000001,1111.0
1583970360000,0.021,0.0068723,0.021,0.00633,16438.774611
1583970420000,0.0209,0.0202,0.0209,0.0074447,40034.0
1583970480000,0.0085,0.019528999999999998,0.019528999999999998,0.0085,16966.0
1583970540000,0.019528999999999998,0.019528999999999998,0.019528999999999998,0.019528999999999998,2034.984764
1584012180000,0.009000000000000001,0.009000000000000001,0.009000000000000001,0.009000000000000001,7108.778
1585169880000,0.0056301,0.0056301,0.0056301,0.0056301,310.0
1585233840000,0.0056301,0.0056301,0.0056301,0.0056301,190.0
1585233900000,0.004797399999999999,0.004797399999999999,0.004797399999999999,0.004797399999999999,1713.52049965
1585237620000,0.006563899999999999,0.006563899999999999,0.006563899999999999,0.006563899999999999,310.0
1585238340000,0.006564399999999999,0.006564399999999999,0.006564399999999999,0.006564399999999999,1746.52049965
1585251420000,0.0064774,0.0064774,0.0064774,0.0064774,310.0
1585284840000,0.0064126999999999995,0.0064126999999999995,0.0064126999999999995,0.0064126999999999995,3487.006
1585284900000,0.006688600000000001,0.0067054,0.0067054,0.006688600000000001,3059.82577953
1586116980000,0.010525,0.010525,0.010525,0.010525,1000.0
1586129280000,0.01051,0.0063,0.01051,0.0063,1146.0
1586253600000,0.0064832,0.0064832,0.0064832,0.0064832,310.0
1588176300000,0.006999999999999999,0.006999999999999999,0.006999999999999999,0.006999999999999999,310.0
1588183560000,0.006999999999999999,0.006999999999999999,0.006999999999999999,0.006999999999999999,310.0
1588244520000,0.006999999999999999,0.006999999999999999,0.006999999999999999,0.006999999999999999,427.9758
1588244580000,0.0095,0.00495,0.0095,0.00495,790.0
1588577880000,0.0051563,0.0051563,0.0051563,0.0051563,310.0
1588585500000,0.005183699999999999,0.005183699999999999,0.005183699999999999,0.005183699999999999,310.0
1588593120000,0.0051785,0.0051785,0.0051785,0.0051785,310.0
1588704900000,0.0051945,0.0051945,0.0051945,0.0051945,3580.0
1589195580000,0.0047,0.0047,0.0047,0.0047,463.07611452
1590180300000,0.009000000000000001,0.00933,0.00933,0.009000000000000001,600.0
1590384180000,0.0092822,0.0092822,0.0092822,0.0092822,1683.3092739999993
1590484440000,0.01,0.01,0.01,0.01,479.04
1590502260000,0.0105,0.011000000000000001,0.011000000000000001,0.0105,1199.769894
1590502560000,0.011000000000000001,0.011000000000000001,0.011000000000000001,0.011000000000000001,3315.730106
1591018680000,0.010065000000000001,0.010065000000000001,0.010065000000000001,0.010065000000000001,600.0
1591018740000,0.010065000000000001,0.010065000000000001,0.010065000000000001,0.010065000000000001,1557.0
1591020360000,0.010065000000000001,0.010065000000000001,0.010065000000000001,0.010065000000000001,600.0
1591020420000,0.010065000000000001,0.010065000000000001,0.010065000000000001,0.010065000000000001,447.0
1591036980000,0.010065000000000001,0.010065000000000001,0.010065000000000001,0.010065000000000001,6316.96
1591037040000,0.009440500000000001,0.009000000000000001,0.009440500000000001,0.009000000000000001,4569.27435055
1591060260000,0.009218200000000001,0.009000000000000001,0.009218200000000001,0.009000000000000001,3468.830338
1591156680000,0.009000000000000001,0.0088,0.009000000000000001,0.0088,2115.41092663
1591156740000,0.0087,0.008,0.0087,0.008,6983.56940006
1591156800000,0.0075,0.006999999999999999,0.0075,0.006999999999999999,6411.65033807
1591156860000,0.0068301,0.006,0.0068301,0.006,16409.71346877
1591156920000,0.0060061,0.0056244,0.0060061,0.0056244,3525.4239242400013
1591218360000,0.009561100000000001,0.009561100000000001,0.009561100000000001,0.009561100000000001,1260.0
1591222920000,0.0061216000000000005,0.0061216000000000005,0.0061216000000000005,0.0061216000000000005,4509.7847299999985
1591269000000,0.009539299999999999,0.009539299999999999,0.009539299999999999,0.009539299999999999,8000.0
1591630860000,0.0090735,0.0090735,0.0090735,0.0090735,2002.0
1591690140000,0.009104799999999998,0.009104799999999998,0.009104799999999998,0.009104799999999998,1859.991002
1591690320000,0.009104799999999998,0.009104799999999998,0.009104799999999998,0.009104799999999998,3882.516435
1591690440000,0.009104799999999998,0.009104799999999998,0.009104799999999998,0.009104799999999998,861.8045800000001
1591690560000,0.009104799999999998,0.009104799999999998,0.009104799999999998,0.009104799999999998,1682.3714929999999
1591690680000,0.009420900000000001,0.009420900000000001,0.009420900000000001,0.009420900000000001,2772.684627
1591690740000,0.009420900000000001,0.0095,0.0095,0.009420900000000001,2471.652985
1591690860000,0.0095,0.0095,0.0095,0.0095,515.167548
1591701360000,0.006599600000000001,0.0063,0.006599600000000001,0.0063,16016.092292
1591719600000,0.009398700000000001,0.0094801,0.0094801,0.009398700000000001,10000.0
1592036580000,0.0079,0.0079,0.0079,0.0079,310.0
1592426400000,0.006999999999999999,0.006999999999999999,0.006999999999999999,0.006999999999999999,7700.0
1592477100000,0.006999999999999999,0.006999999999999999,0.006999999999999999,0.006999999999999999,5144.4994
1592522400000,0.00698,0.00698,0.00698,0.00698,1855.5006
1592568240000,0.006740100000000002,0.0065,0.006740100000000002,0.0065,8760.0
1592610960000,0.00698,0.00698,0.00698,0.00698,331.9994
1592847000000,0.0069900000000000006,0.0069900000000000006,0.0069900000000000006,0.0069900000000000006,310.0
1592891820000,0.0069900000000000006,0.0066,0.0069900000000000006,0.0066,7983.99999966
1592899020000,0.0184,0.019138,0.019138,0.0184,3000.0
1592919420000,0.018345,0.018345,0.018345,0.018345,310.0
1592919540000,0.018345,0.018345,0.018345,0.018345,320.0
1592919660000,0.015241999999999999,0.015241999999999999,0.015241999999999999,0.015241999999999999,433.47515899999996
1592920500000,0.007411,0.007411,0.007411,0.007411,310.0
1592920620000,0.0079461,0.0079461,0.0079461,0.0079461,3572.95626187
1592920800000,0.012893,0.014987,0.014987,0.012893,620.0
1592921280000,0.0083303,0.0083303,0.0083303,0.0083303,4626.858558
1592938740000,0.013999999999999999,0.013999999999999999,0.013999999999999999,0.013999999999999999,400.0
1592956200000,0.013987000000000001,0.013987000000000001,0.013987000000000001,0.013987000000000001,310.0
1592997900000,0.01,0.01,0.01,0.01,350.0
1592999400000,0.0083303,0.0081,0.0083303,0.0081,29965.0
1593000900000,0.0081005,0.0081005,0.0081005,0.0081005,671.0
1593097080000,0.008101,0.008,0.008101,0.008,9980.0
1593356580000,0.008,0.008,0.008,0.008,2798.83970002
1593357180000,0.007167100000000002,0.00705,0.007167100000000002,0.00705,6935.16029998
1593955080000,0.0076,0.0076,0.0076,0.0076,1000.0
1593955140000,0.007559999999999998,0.007559999999999998,0.007559999999999998,0.007559999999999998,1529.6430300000006
1593979080000,0.008134899999999999,0.008134899999999999,0.008134899999999999,0.008134899999999999,310.0
1594019280000,0.0073084000000000005,0.0073084000000000005,0.0073084000000000005,0.0073084000000000005,2994.0
1594162440000,0.0075,0.0075,0.0075,0.0075,4000.0
1594216020000,0.0074,0.0074,0.0074,0.0074,4621.716402
1594481520000,0.0075,0.0075,0.0075,0.0075,1378.283598
1594481700000,0.0075,0.007987600000000001,0.007987600000000001,0.0075,2934.036379
1595199420000,0.0079685,0.0082,0.0082,0.0079685,9756.04486516
1595253660000,0.0102,0.01,0.0102,0.01,10000.0
1595261400000,0.0108,0.0108,0.0108,0.0108,9259.25925926
1595264160000,0.011099,0.011099,0.011099,0.011099,3699.9954321
1595267160000,0.011111,0.011111,0.011111,0.011111,4793.217984000001
1595269800000,0.011111,0.011111,0.011111,0.011111,7604.0
1595274900000,0.011111,0.011111,0.011111,0.011111,17067.5196101
1595280840000,0.016009,0.016025,0.016025,0.016009,12440.76064318
1595307540000,0.018543,0.018543,0.018543,0.018543,320.0
1595344380000,0.017924000000000002,0.017924000000000002,0.017924000000000002,0.017924000000000002,6200.0
1595344440000,0.017924000000000002,0.017924000000000002,0.017924000000000002,0.017924000000000002,1910.0
1595344560000,0.018001,0.018001,0.018001,0.018001,643.239625
1595351520000,0.017993000000000002,0.017993000000000002,0.017993000000000002,0.017993000000000002,488.57456799999994
1595480280000,0.01123,0.01123,0.01123,0.01123,319.68
1595508000000,0.01123,0.01123,0.01123,0.01123,461.77192462
1595529900000,0.01123,0.01123,0.01123,0.01123,399.6
1595530080000,0.01,0.01,0.01,0.01,1178.6899019999996
1595538780000,0.0105,0.0105,0.0105,0.0105,5131.0
1595598540000,0.01001,0.0075514,0.01001,0.0075514,7110.0
1595598600000,0.0075514,0.0075514,0.0075514,0.0075514,3124.124069
1595766480000,0.014819,0.014819,0.014819,0.014819,20000.0
1595766540000,0.0080345,0.0080345,0.0080345,0.0080345,333.0
1595766840000,0.0080444,0.014809000000000001,0.014809000000000001,0.0080444,11892.0
1595766900000,0.0080444,0.0080444,0.014809000000000001,0.0080444,39149.0
1595766960000,0.014809000000000001,0.014809000000000001,0.014809000000000001,0.014809000000000001,17111.0
1595767380000,0.0084684,0.0084684,0.0084684,0.0084684,333.0
1595767440000,0.0084684,0.014809000000000001,0.014809000000000001,0.008433,26929.56585893
1595767500000,0.008533,0.008533,0.008533,0.008533,10112.0
1595767560000,0.014841,0.015858,0.015858,0.014841,31396.404025490014
1595767620000,0.015858,0.015828000000000002,0.015858,0.008563,65726.66790352
1595767680000,0.008583,0.008583,0.008583,0.008583,25011.0
1595767860000,0.015827,0.015828000000000002,0.015828000000000002,0.015827,25001.0
1595767920000,0.0085831,0.015828000000000002,0.015828000000000002,0.008583,60733.79813363
1595767980000,0.008583,0.008583,0.0085831,0.008583,30108.0
1595768040000,0.0087619,0.015828000000000002,0.015828000000000002,0.0087619,33961.357404
1595768100000,0.0089698,0.008865999999999999,0.0089699,0.008865999999999999,32966.934
1595768160000,0.015569,0.008876,0.015706,0.008876,51426.63103168
1595768220000,0.0090226,0.0090226,0.0090226,0.0090226,50911.0
1595768340000,0.015106,0.015106,0.015106,0.015106,7411.0
1595768400000,0.015406,0.015531,0.015531,0.015406,57966.0
1595768460000,0.0092226,0.0098226,0.0098226,0.0092226,46404.0
1595768520000,0.015031000000000001,0.011000000000000001,0.015031000000000001,0.010073,102480.0
1595768580000,0.0147,0.0147,0.0147,0.0147,61411.0
1595768760000,0.011247,0.011247,0.011247,0.011247,322.0
1595768820000,0.011547,0.014528,0.014528,0.011547,40032.0
1595769300000,0.014256999999999999,0.014421999999999999,0.014421999999999999,0.014256999999999999,2233.0
1595769660000,0.014421999999999999,0.014421999999999999,0.014421999999999999,0.014421999999999999,2233.0
1595813460000,0.012646,0.012646,0.012646,0.012646,332.339402
1595881140000,0.014421999999999999,0.014421999999999999,0.014421999999999999,0.014421999999999999,5627.784465
1595890560000,0.016552,0.016618,0.016618,0.016552,13866.535457
1595917980000,0.016618,0.016618,0.016618,0.016618,1301.3883449999996
1595918280000,0.016618,0.016618,0.016618,0.016618,711.29
1595919360000,0.016618,0.016618,0.016618,0.016618,8.786197999999999
1595919480000,0.0179,0.0179,0.0179,0.0179,1794.3560670000006
1595955180000,0.0179,0.0179,0.0179,0.0179,2000.0
1595974200000,0.013999999999999999,0.013999999999999999,0.013999999999999999,0.013999999999999999,1000.0
1595974380000,0.013327,0.013000000000000001,0.013327,0.013000000000000001,4616.528896
1596039360000,0.015,0.015,0.015,0.015,1996.0
1596117300000,0.015,0.015,0.015,0.015,598.42133975
1596829980000,0.013347,0.013000000000000001,0.013347,0.013000000000000001,15331.76591135
1596830100000,0.012331,0.0121,0.012331,0.0121,9368.234088
1596859740000,0.0179,0.0179,0.0179,0.0179,310.0
1596859800000,0.0178,0.0179,0.0179,0.0178,7585.0
1596877800000,0.0129,0.0129,0.0129,0.0129,2043.78980804
1597041660000,0.015881,0.015881,0.015881,0.015881,6117.15886926
1597041720000,0.016717,0.016717,0.016717,0.016717,7000.0
1597041780000,0.017317,0.017917,0.017917,0.017317,6000.0
1597046580000,0.017917,0.017917,0.017917,0.017917,11262.98702765
1597051020000,0.018838,0.018838,0.018838,0.018838,1535.135172
1597051140000,0.01885,0.01885,0.01885,0.01885,522.087
1597122240000,0.013746000000000001,0.013746000000000001,0.013746000000000001,0.013746000000000001,1999.9920000000002
1597417980000,0.013822999999999998,0.013822999999999998,0.013822999999999998,0.013822999999999998,1517.615228
1597422780000,0.018731,0.018731,0.018731,0.018731,555.0
1597484400000,0.018442,0.018858,0.018858,0.018442,5599.558889
1597594920000,0.018858,0.018858,0.018858,0.018858,732.988609
1597595760000,0.018858,0.018858,0.018858,0.018858,1083.60595232
1597595820000,0.020488,0.020999,0.020999,0.020488,3233.702612
1597644480000,0.01915,0.01915,0.01915,0.01915,5588.46612109
1597675200000,0.013838,0.013838,0.013838,0.013838,1781.0308
1597689600000,0.014679,0.014679,0.014679,0.014679,1497.0
1597763160000,0.019714,0.0205,0.0205,0.019714,5814.65263666
1597763220000,0.021,0.021,0.021,0.021,488.085993
1597763280000,0.021799000000000002,0.022246000000000002,0.022246000000000002,0.021799000000000002,4327.38140104
1597763400000,0.02399,0.024000999999999998,0.024000999999999998,0.02399,800.0
1597763460000,0.024000999999999998,0.026543,0.026543,0.024000999999999998,20822.78404774
1597764060000,0.031664,0.031664,0.031664,0.031664,5138.788596
1597764180000,0.031664,0.031664,0.031664,0.031664,1857.354715
1597767540000,0.031,0.031,0.031,0.031,1300.0
1597862880000,0.03,0.03,0.03,0.03,2000.0
1597995420000,0.018912,0.0181,0.018912,0.0181,13193.624868
1598294700000,0.029519999999999998,0.029519999999999998,0.029519999999999998,0.029519999999999998,1900.0
1598295840000,0.029519999999999998,0.029519999999999998,0.029519999999999998,0.029519999999999998,1000.0
1598652060000,0.02045,0.02,0.02045,0.02,2967.94517593
1598652120000,0.018645,0.018645,0.018645,0.018645,1949.479641
1598652240000,0.018645,0.0181,0.018645,0.0181,3119.65228
1598652480000,0.018203,0.0181,0.018203,0.0181,2292.0
1598739960000,0.0278,0.029519999999999998,0.029519999999999998,0.0278,9842.377612
1598742480000,0.029519999999999998,0.029519999999999998,0.029519999999999998,0.029519999999999998,512.088386
1598777040000,0.0181,0.0181,0.0181,0.0181,2201.207692
1599027240000,0.019,0.01851,0.019,0.01851,4541.592624
1599144060000,0.01851,0.01851,0.01851,0.01851,600.0
1599153600000,0.01851,0.01851,0.01851,0.01851,999.0
1599263220000,0.0187,0.01851,0.0187,0.01851,599.7888869999998
1599961500000,0.025,0.025,0.025,0.025,349.30424500000015
1600161780000,0.022000000000000002,0.022000000000000002,0.022000000000000002,0.022000000000000002,500.0
1600161900000,0.01851,0.018101,0.01851,0.018101,31501.0
1600269360000,0.018101,0.018101,0.018101,0.018101,25001.0
1600339380000,0.018101,0.018101,0.018101,0.018101,42658.113645
1600651980000,0.018101,0.0181,0.018101,0.0181,22464.23469154
1600951380000,0.014563999999999999,0.013999999999999999,0.014563999999999999,0.013999999999999999,5170.55641316
1600951560000,0.01265,0.0121,0.01265,0.0121,34010.922634999995
1601290140000,0.0121,0.0121,0.0121,0.0121,50000.0
1601325900000,0.017987,0.017987,0.017987,0.017987,3293.4
1601327760000,0.019,0.017,0.019,0.017,60413.509422
1601836020000,0.016701,0.016701,0.016701,0.016701,110.0
1602119340000,0.016701,0.016701,0.016701,0.016701,108.0
1602183300000,0.0124,0.0121,0.0124,0.0121,1557.94700059
1602183360000,0.01047,0.00701,0.01047,0.006999999999999999,47178.60053752
1602183420000,0.00701,0.00701,0.00701,0.00701,27780.0
1602217560000,0.0115,0.0115,0.0115,0.0115,792.927688
1602227400000,0.007355299999999999,0.0070209999999999995,0.007355299999999999,0.0070209999999999995,59880.0
1602235620000,0.0115,0.0115,0.0115,0.0115,108.0
1602246960000,0.0114,0.0114,0.0114,0.0114,1304.347826
1602287340000,0.0114,0.0114,0.0114,0.0114,108.0
1602530100000,0.0085091,0.0085091,0.0085091,0.0085091,6581.12767623
1602599580000,0.007360500000000002,0.007360500000000002,0.007360500000000002,0.007360500000000002,791.3418320000003
1603209600000,0.0073685,0.0073685,0.0073685,0.0073685,7113.5340019999985
1603742880000,0.0071233999999999985,0.0071233999999999985,0.0071233999999999985,0.0071233999999999985,132.0
1603894740000,0.00713,0.00713,0.00713,0.00713,131.736
1603958460000,0.0088792,0.0088792,0.0088792,0.0088792,108.0
1603962780000,0.0088808,0.0088808,0.0088808,0.0088808,9052.2797506
1603963440000,0.0092739,0.009274,0.009274,0.0092739,9421.44715364
1604001720000,0.009661,0.009661,0.009661,0.009661,108.0
1604036460000,0.0096886,0.0096886,0.0096886,0.0096886,108.0
1604053020000,0.0097231,0.0097231,0.0097231,0.0097231,1000.0
1604061360000,0.009670200000000002,0.00978,0.00978,0.009670200000000002,6137.409616
1604175180000,0.00978,0.00978,0.00978,0.00978,794.37100608
1604219040000,0.0082979,0.0082979,0.0082979,0.0082979,960.3975199999999
1604257800000,0.013000000000000001,0.0135,0.0135,0.013000000000000001,20000.0
1604257860000,0.013000000000000001,0.0135,0.0135,0.013000000000000001,21742.311428999998
1604359320000,0.01345,0.0135,0.0135,0.01345,5183.383
1604692980000,0.010856000000000001,0.010856000000000001,0.010856000000000001,0.010856000000000001,108.0
1604700300000,0.011377,0.011377,0.011377,0.011377,108.0
1604707560000,0.011385,0.011385,0.011385,0.011385,108.0
1604715360000,0.011316,0.011316,0.011316,0.011316,108.0
1604722680000,0.011343,0.011343,0.011343,0.011343,108.0
1604730060000,0.011394,0.011394,0.011394,0.011394,108.0
1604843640000,0.011301,0.011301,0.011301,0.011301,942.3114289999999
1604880300000,0.0135,0.0135,0.0135,0.0135,109.0
1604880540000,0.011811,0.011811,0.011811,0.011811,108.891
1604881140000,0.0135,0.0135,0.0135,0.0135,109.0
1604881260000,0.012121999999999999,0.012121999999999999,0.012121999999999999,0.012121999999999999,108.891
1604881320000,0.012121999999999999,0.012121999999999999,0.012121999999999999,0.012121999999999999,1385.3449679999999
1604911440000,0.015,0.015,0.015,0.015,7581.0693
1605015120000,0.013980000000000001,0.013980000000000001,0.013980000000000001,0.013980000000000001,109.0
1605015180000,0.011337999999999999,0.011337999999999999,0.011337999999999999,0.011337999999999999,108.891
1605091560000,0.013980000000000001,0.013980000000000001,0.013980000000000001,0.013980000000000001,150.0
1605271140000,0.011561,0.011561,0.011561,0.011561,3532.05
1605283080000,0.013980000000000001,0.013980000000000001,0.013980000000000001,0.013980000000000001,140.0
1605283200000,0.013980000000000001,0.013980000000000001,0.013980000000000001,0.013980000000000001,400.0
1605283260000,0.011349,0.011349,0.011349,0.011349,539.0
1605285420000,0.013503999999999999,0.013503999999999999,0.013503999999999999,0.013503999999999999,1656.5203
1605296820000,0.0135,0.0135,0.0135,0.0135,1000.0
1605465300000,0.011391,0.011391,0.011391,0.011391,385.30785595
1605778200000,0.011391,0.011271,0.011391,0.011271,7516.06375457
1605778260000,0.010856000000000001,0.010856000000000001,0.010856000000000001,0.010856000000000001,6469.936245
1605783960000,0.012,0.012,0.012,0.012,108.0
1605791280000,0.012,0.012,0.012,0.012,108.0
1605798540000,0.012,0.012,0.012,0.012,108.0
1605821880000,0.012,0.012,0.012,0.012,2242.6259059999998
1605872100000,0.012618,0.012618,0.012618,0.012618,800.0
1605872280000,0.012618,0.012618,0.012618,0.012618,208.283469
1605873180000,0.012,0.012,0.012,0.012,166.762502
1605952740000,0.012,0.012,0.012,0.012,0.611592
1605952800000,0.010216,0.010216,0.010216,0.010216,1902.3884079999998
1605983460000,0.012,0.012,0.012,0.012,1033.2418
1606020180000,0.0119,0.0119,0.0119,0.0119,970.0705
1606052700000,0.010575,0.00978,0.010575,0.00978,28000.0
1606153020000,0.012,0.012,0.012,0.012,2848.764005
1606176780000,0.010209000000000001,0.010209000000000001,0.010209000000000001,0.010209000000000001,998.026452
1606227420000,0.012749,0.012749,0.012749,0.012749,843.875186
1606409220000,0.010503,0.010503,0.010503,0.010503,2584.06262976
1606468860000,0.010029000000000001,0.010029000000000001,0.010029000000000001,0.010029000000000001,6149.09195929
1606488720000,0.0098123,0.0098123,0.0098123,0.0098123,1482.16060485
1606648440000,0.010789,0.010790000000000001,0.010790000000000001,0.010789,2000.0
1606648440000,0.010789,0.010790000000000001,0.010790000000000001,0.010789,2000.0
1606771380000,0.0099447,0.0099447,0.0099447,0.0099447,1136.8016
1606888320000,0.009951999999999999,0.009951999999999999,0.009951999999999999,0.009951999999999999,3847.64669957
1607015820000,0.009942,0.009942,0.009942,0.009942,2591.8269179999998
1607068440000,0.0098303,0.00978,0.0098303,0.00978,9246.9337742
1607068500000,0.00817,0.0076,0.00817,0.0076,2843.0664769900004
1607103240000,0.009770000000000001,0.009770000000000001,0.009770000000000001,0.009770000000000001,1500.0
1607112840000,0.007924299999999999,0.0076,0.007924299999999999,0.0076,40001.0
1607152260000,0.0077018999999999985,0.0076,0.0077018999999999985,0.0076,25995.0
1607260800000,0.007654300000000002,0.007654300000000002,0.007654300000000002,0.007654300000000002,228.34559105
1607395440000,0.0075200000000000015,0.0075200000000000015,0.0075200000000000015,0.0075200000000000015,227.8889
1607637960000,0.007559999999999998,0.0075200000000000015,0.007559999999999998,0.0075200000000000015,2652.210971
1607639940000,0.0051249,0.0051249,0.0051249,0.0051249,998.0
1607684400000,0.0054668,0.0054668,0.0054668,0.0054668,399.013799
1607699640000,0.0054841,0.0054841,0.0054841,0.0054841,334.94679105
1607779320000,0.007509899999999998,0.007519899999999999,0.007519899999999999,0.007509899999999998,5541.01796593
1607782320000,0.0057581,0.0057581,0.0057581,0.0057581,1531.18203594
1607782320000,0.0057581,0.0057581,0.0057581,0.0057581,1531.18203594
1607782320000,0.0057581,0.0057581,0.0057581,0.0057581,1531.18203594
1607782320000,0.0057581,0.0057581,0.0057581,0.0057581,1531.18203594
1607782320000,0.0057581,0.0057581,0.0057581,0.0057581,1531.18203594
1607782320000,0.0057581,0.0057581,0.0057581,0.0057581,1531.18203594
1607782320000,0.0057581,0.0057581,0.0057581,0.0057581,1531.18203594
1607782320000,0.0057581,0.0057581,0.0057581,0.0057581,1531.18203594
1607782320000,0.0057581,0.0057581,0.0057581,0.0057581,1531.18203594
1607782320000,0.0057581,0.0057581,0.0057581,0.0057581,1531.18203594
1607782320000,0.0057581,0.0057581,0.0057581,0.0057581,1531.18203594
1607968920000,0.006354,0.006354,0.006354,0.006354,151.04
1607968920000,0.006354,0.006354,0.006354,0.006354,151.04
