time,open,close,high,low,volume
1560867960000,1.88,1.88,1.88,1.88,7.8
1560946500000,1.1001,1.1001,1.1001,1.1001,0.08
1560996000000,1.1001,1.1001,1.1001,1.1001,4.0
1561112880000,1.1001,1.1001,1.1001,1.1001,4.0
1561364400000,1.1001,1.1,1.1001,1.1,14.0
1561820700000,1.215,1.215,1.215,1.215,5.0
1561820760000,0.7759999999999999,0.7759999999999999,0.7759999999999999,0.7759999999999999,4.99
1561933200000,0.787,0.787,0.787,0.787,7.74552472
1566438600000,1.0001,1.0001,1.0001,1.0001,20.30480899
1566841140000,1.04,1.04,1.04,1.04,2.0
1566841200000,0.9980100000000001,0.9980100000000001,0.9980100000000001,0.9980100000000001,3.992
1567497840000,0.9980399999999999,0.9980399999999999,0.9980399999999999,0.9980399999999999,2.0
1568807040000,1.0,1.0,1.0,1.0,2.0
1568807100000,1.0,1.0,1.0,1.0,6.0
1568807160000,1.0,1.0001,1.0001,1.0,4.0
1568807220000,1.0001,1.0001,1.0001,1.0001,4.0
1568807280000,1.0001,1.0001,1.0001,1.0001,4.0
1568807340000,1.0002,1.0002,1.0002,1.0002,2.0
1568866200000,1.0004,1.0004,1.0004,1.0004,2.0
1568866260000,0.98946,0.98946,0.98946,0.98946,2.0
1568871480000,1.0,1.0,1.0,1.0,2.0
1568958120000,0.99,0.97,0.99,0.97,10.0
1568958180000,0.97,0.955,0.97,0.955,8.0
1569202200000,0.96,0.95,0.96,0.95,6.0
1569517920000,0.79,0.79,0.79,0.79,2.0
1569709080000,0.7557699999999999,0.7557699999999999,0.7557699999999999,0.7557699999999999,6.9910000000000005
1569709200000,0.7557699999999999,0.7557699999999999,0.7557699999999999,0.7557699999999999,6.9910000000000005
1569709560000,0.7557699999999999,0.7557699999999999,0.7557699999999999,0.7557699999999999,6.9910000000000005
1569710220000,0.75803,0.75803,0.75803,0.75803,7.0
1569715740000,0.75459,0.75459,0.75459,0.75459,4.01
1570578120000,0.767,0.767,0.767,0.767,4.0
1570578240000,0.79,0.79,0.79,0.79,6.9910000000000005
1570607340000,0.972,0.972,0.972,0.972,32.0
1570607400000,0.972,0.972,0.972,0.972,24.0
1570607460000,0.972,0.972,0.972,0.972,20.0
1570607520000,0.972,0.972,0.972,0.972,16.0
1570607580000,0.98,0.98,0.98,0.98,8.0
1570607820000,0.98,0.98,0.98,0.98,8.0
1570607940000,0.98,0.98,0.98,0.98,16.0
1570608000000,0.9884700000000001,0.99,0.99,0.9884700000000001,8.0
1570679700000,0.9,0.9,0.9,0.9,12.0
1570679760000,0.9,0.9,0.9,0.9,28.0
1570679820000,0.9,0.9,0.9,0.9,16.0
1570679880000,0.9,0.9,0.9,0.9,4.0
1570679940000,0.9,0.9,0.9,0.9,20.0
1570680060000,0.9,0.9,0.9,0.9,20.0
1570680360000,0.89,0.89,0.89,0.89,4.0
1570680480000,0.89,0.89,0.89,0.89,8.0
1570680540000,0.89,0.89,0.89,0.89,12.0
1570680600000,0.89,0.89,0.89,0.89,4.0
1570746720000,0.87,0.87,0.87,0.87,32.0
1570746780000,0.87,0.87,0.87,0.87,36.0
1570746900000,0.87,0.87,0.87,0.87,8.0
1570746960000,0.87,0.87,0.87,0.87,36.0
1571114880000,0.88,0.888,0.888,0.87,36.0
1571114940000,0.888,0.88,0.89,0.87,24.0
1571367120000,0.89,0.9162799999999999,0.9162799999999999,0.89,12.0
1572836700000,0.96,0.96,0.96,0.96,28.0
1573095780000,0.96,0.97,0.97,0.96,6.880652099999999
1576922640000,0.8388399999999999,0.8388399999999999,0.8388399999999999,0.8388399999999999,6.0
1577103600000,0.43008,0.41,0.43008,0.41,44.98190348
1579197180000,0.31,0.31,0.31,0.31,6.0
1579879620000,1.04,1.04,1.04,1.04,6.0
1581570600000,1.07,1.07,1.07,1.07,6.02086836
1584610500000,1.04,1.04,1.04,1.04,0.97313198
1585087620000,1.0499,1.0499,1.0499,1.0499,6.0
1585087800000,1.0209,1.0209,1.0209,1.0209,6.0
1588722120000,1.0,1.0,1.0,1.0,4.0
1589823480000,1.12,1.1999,1.1999,1.12,13.0478
1590537600000,0.997,0.997,0.997,0.997,4.0
1593781740000,1.052,1.052,1.052,1.052,4.04
1593782100000,0.8710100000000001,0.8710100000000001,0.8710100000000001,0.8710100000000001,4.0079199999999995
1596152160000,1.0,0.9988,1.0,0.9988,8.19
1596152220000,0.9979,0.9979,0.9979,0.9979,4.05
1596708600000,0.8680100000000001,0.8680100000000001,0.8680100000000001,0.8680100000000001,7.984
1597297560000,1.0899,1.0899,1.0899,1.0899,4.0
1597297620000,1.0899,1.0899,1.0899,1.0899,4.0
1598961900000,1.0854,1.0854,1.0854,1.0854,4.0
1598962020000,1.0854,1.0854,1.0854,1.0854,4.0
1598962860000,1.06,1.06,1.06,1.06,4.0
1598963040000,1.06,1.06,1.06,1.06,4.0
1599005460000,0.92001,0.92001,0.92001,0.92001,20.030652
1599631380000,0.9255,0.9200299999999999,0.9255,0.9200299999999999,7.9700000000000015
1601409240000,0.92005,0.92005,0.92005,0.92005,7.992000000000001
1601883180000,1.07,1.07,1.07,1.07,4.0
1602808980000,0.9200299999999999,0.9200299999999999,0.9200299999999999,0.9200299999999999,1.07
1603064460000,1.0277,1.0288,1.0288,1.0277,8.3
1603064520000,1.031,1.031,1.031,1.031,4.44
1603064580000,1.035,1.035,1.035,1.035,4.53
1603064640000,1.0368,1.0391,1.0391,1.0368,12.571000000000002
1603064700000,1.0398,1.0414,1.0414,1.0398,8.54
1603064760000,1.0418,1.0436,1.0436,1.0418,12.994000000000002
1603064820000,1.0458,1.0458,1.0458,1.0458,4.29
1603065120000,1.051,1.051,1.051,1.051,4.12
1603145340000,1.0,1.0,1.0,1.0,8.2
1603145400000,1.0,1.0,1.0,1.0,4.1
1603666920000,1.02,1.02,1.02,1.02,4.127
1603668120000,1.0594,1.0594,1.0594,1.0594,4.127
1603669500000,1.062,1.062,1.062,1.062,4.9
1603764840000,1.0,1.0,1.0,1.0,5.0
1603764900000,0.99,0.99,0.99,0.99,5.0
1603784160000,0.997,0.997,0.997,0.997,4.234
1604182560000,1.02,1.02,1.02,1.02,4.01
1604266920000,0.94101,0.94101,0.94101,0.94101,0.02
1604530140000,0.94201,0.94201,0.94201,0.94201,4.0435120000000015
1605163560000,1.0777,1.0777,1.0777,1.0777,4.0
1605163620000,1.0777,1.0777,1.0777,1.0777,2.0
1605163920000,1.0897,1.0897,1.0897,1.0897,2.0
1605492420000,1.0897,1.0897,1.0897,1.0897,9.0
1605492480000,1.0897,1.0897,1.0897,1.0897,27.658690999999997
1605492780000,1.1909,1.1909,1.1909,1.1909,2.0
1605492840000,1.17,1.17,1.17,1.17,2.0
1605495840000,1.02,1.02,1.02,1.02,2.0
1605561540000,1.03,1.03,1.03,1.03,4.0
1605745140000,1.02,1.02,1.02,1.02,5.1960000000000015
1605747660000,1.024,1.024,1.024,1.024,5.185608
1605846360000,1.044,1.044,1.044,1.044,4.0
1606131300000,0.96601,0.96601,0.96601,0.96601,2.0
1606310520000,0.9711299999999999,0.9711299999999999,0.9711299999999999,0.9711299999999999,2.0
1606310520000,0.97113,0.97113,0.97113,0.97113,2.0
1606310520000,0.9711299999999999,0.9711299999999999,0.9711299999999999,0.9711299999999999,2.0
1606310520000,0.97113,0.97113,0.97113,0.97113,2.0
1606310520000,0.9711299999999999,0.9711299999999999,0.9711299999999999,0.9711299999999999,2.0
1606310520000,0.97113,0.97113,0.97113,0.97113,2.0
1606310520000,0.9711299999999999,0.9711299999999999,0.9711299999999999,0.9711299999999999,2.0
1606310520000,0.97113,0.97113,0.97113,0.97113,2.0
1606310520000,0.9711299999999999,0.9711299999999999,0.9711299999999999,0.9711299999999999,2.0
1606310520000,0.97113,0.97113,0.97113,0.97113,2.0
