time,open,close,high,low,volume
1556909160000,10800.0,12000.0,12000.0,10800.0,0.002
1556909280000,12000.0,12000.0,12000.0,12000.0,0.003
1556923500000,12000.0,12000.0,12000.0,12000.0,0.0021
1556948880000,4160.0,4160.0,4160.0,4160.0,0.00398202
1557089100000,6500.0,6500.0,6500.0,6500.0,0.001
1557322620000,4803.0,4803.0,4803.0,4803.0,0.000998
1557694320000,6026.0,6000.0,6026.0,6000.0,0.02093127
1557738360000,8219.0,8219.0,8219.0,8219.0,0.0008
1557766440000,8564.0,8564.0,8564.0,8564.0,0.00103879
1557774360000,8564.0,8564.0,8564.0,8564.0,0.00014321
1557774420000,9725.0,9725.0,9725.0,9725.0,0.0025
1557777540000,5884.5,5884.5,5884.5,5884.5,0.00263792
1557939780000,6226.0,6084.9,6226.0,6084.9,0.02009313
1557953400000,9340.0,9737.5,9737.5,9340.0,0.00975724
1557953820000,10155.0,10155.0,10155.0,10155.0,0.0043048999999999995
1557954600000,10137.0,10137.0,10137.0,10137.0,0.00171356
1557970080000,6351.0,6317.0,6351.0,6317.0,0.01403
1557975600000,9190.0,9400.0,9400.0,9190.0,0.0044629100000000005
1557975660000,10000.0,47900.0,47900.0,10000.0,0.07160763
1557975720000,6322.0,6211.0,6322.0,6211.0,0.009999999999999998
1557977820000,6355.0,6211.0,6355.0,6211.0,0.06607
1558052820000,6800.0,6800.0,6800.0,6800.0,0.0004
1558085040000,7600.0,8000.0,8000.0,7600.0,0.00462
1558085100000,8000.0,8000.0,8000.0,8000.0,0.00132
1558092240000,6310.0,6310.0,6310.0,6310.0,0.0004
1558110600000,7000.1,7000.1,7000.1,7000.1,0.005
1558110660000,7000.1,7000.1,7000.1,7000.1,0.00052812
1558111200000,7499.9,7500.0,7500.0,7499.9,0.00912523
1558119540000,7900.0,7999.9,7999.9,7900.0,0.00193487
1558121520000,8000.0,8000.0,8000.0,8000.0,0.0005
1558121580000,8000.0,8000.0,8000.0,8000.0,0.0015
1558122300000,8000.0,8000.0,8000.0,8000.0,0.0015
1558131180000,8000.0,8000.0,8000.0,8000.0,0.00552873
1558132200000,8260.0,8260.0,8260.0,8260.0,0.0004
1558132320000,8260.0,8260.0,8260.0,8260.0,0.0004
1558132440000,8260.0,8470.0,8470.0,8260.0,0.004
1558132500000,8470.0,8470.0,8470.0,8470.0,0.0016
1558132560000,8470.0,8470.0,8470.0,8470.0,0.00255
1558132980000,8000.1,8000.0,8000.1,8000.0,0.0125398
1558133220000,9200.0,9200.0,9200.0,9200.0,0.0025
1558133280000,13600.0,13600.0,13600.0,13600.0,0.002
1558133340000,8000.1,8000.0,8000.1,8000.0,0.0069348000000000005
1558133640000,8000.1,8000.0,8000.1,8000.0,0.006934699999999999
1558134360000,20000.0,20000.0,20000.0,20000.0,0.0004
1558134840000,8002.0,8045.0,8045.0,8002.0,0.011000000000000001
1558134900000,8069.0,9181.1,9181.1,8000.0,0.00478812
1558134960000,19940.0,20000.0,20000.0,19940.0,0.012
1558135020000,8080.0,8080.0,8080.0,8080.0,0.0012
1558135080000,8111.0,8162.0,8162.0,8111.0,0.01264535
1558135140000,20000.0,19940.0,20000.0,19940.0,0.0044
1558135200000,19940.0,8201.0,20000.0,8201.0,0.012034
1558135260000,8201.0,8341.0,8341.0,8201.0,0.0124
1558135320000,8371.0,20000.0,20000.0,8371.0,0.00480034
1558135380000,19750.0,19290.0,19750.0,19290.0,0.01737
1558135440000,8450.0,8450.0,8450.0,8450.0,0.0008
1558135500000,8511.0,8666.2,19000.0,8511.0,0.01813206
1558135560000,20000.0,17900.0,20000.0,17900.0,0.0012
1558135620000,17800.0,17699.0,17800.0,17699.0,0.01591
1558135740000,8711.0,8806.0,8806.0,8711.0,0.0138
1558135800000,8831.0,8831.0,8831.0,8831.0,0.00327578
1558135860000,17000.0,15396.0,17200.0,15396.0,0.0037
1558135920000,13200.0,13200.0,13200.0,13200.0,0.013369999999999998
1558136160000,8902.0,20000.0,20000.0,8902.0,0.0008
1558136220000,20000.0,18000.0,20000.0,18000.0,0.0067180600000000005
1558136280000,17800.0,15000.0,17800.0,14900.0,0.03
1558136340000,10000.0,10000.0,10000.0,10000.0,0.0004
1558136640000,18700.0,15400.0,18700.0,15400.0,0.0012
1558136700000,13200.0,12682.0,13200.0,12682.0,0.04301942
1558136760000,10000.0,9500.0,12000.0,9500.0,0.04083093
1558136820000,9500.0,9500.0,9500.0,9500.0,0.13
1558137300000,8250.1,8250.0,8250.1,8250.0,0.00836907
1558137660000,8250.1,8250.0,8250.1,8250.0,0.00226581
1558137840000,8250.0,6440.0,8250.0,6440.0,0.08961369999999999
1558138440000,6451.0,6451.0,6451.0,6451.0,0.0007
1558138500000,6451.0,6609.0,6609.0,6451.0,0.05427601
1558138560000,8700.0,8700.0,8700.0,8700.0,0.0004
1558138620000,8700.0,8690.0,8700.0,8500.0,0.0404
1558138680000,8500.0,8399.0,8500.0,8350.0,0.011000000000000001
1558140720000,13000.0,13000.0,13000.0,13000.0,0.0004
1558140840000,11600.0,11600.0,11600.0,11300.0,0.028999999999999998
1558141080000,10900.0,9999.0,10900.0,9999.0,0.01095104
1558141740000,7900.1,7900.1,7900.1,7900.1,0.0004
1558141800000,7900.1,8100.0,8100.0,7900.1,0.0037709
1558142100000,8100.0,8100.0,8100.0,8100.0,0.00077121
1558142220000,8100.0,8100.0,8100.0,8100.0,0.0015213
1558143120000,7900.1,7250.0,7900.1,7250.0,0.01147006
1558159440000,8450.0,8662.0,8662.0,8450.0,0.0021009
1558175700000,7100.1,7100.1,7100.1,7100.1,0.005
1558203120000,7193.0,7185.1,7193.0,7185.1,0.01068848
1558203300000,7100.0,7100.0,7100.0,7100.0,0.00901214
1558203480000,7100.0,7100.0,7100.0,7100.0,0.00452757
1558203840000,7100.0,7100.0,7100.0,7100.0,0.00438214
1558206000000,7070.0,7070.0,7070.0,7070.0,0.00065555
1558208100000,6617.1,6617.1,6617.1,6617.1,0.00065424
1558217760000,7070.0,7070.0,7070.0,7070.0,0.00391237
1558238040000,8840.0,8900.0,8900.0,8840.0,0.00124224
1558362540000,8000.0,8000.0,8000.0,8000.0,0.0007968
1558386720000,8500.0,8500.0,8500.0,8500.0,0.025838
1558477020000,7940.0,7940.0,7940.0,7940.0,0.00083031
1558502220000,9390.0,9817.3,9817.3,9390.0,0.01107603
1558551360000,9440.0,9663.5,9663.5,9440.0,0.01864337
1558551720000,9665.0,9665.0,9665.0,9665.0,0.0011497
1558551780000,9665.0,9665.0,9665.0,9665.0,0.01
1558680000000,8500.0,7800.0,8500.0,7800.0,0.01425792
1558834440000,9600.0,9600.0,9600.0,9600.0,0.00211373
1558860900000,6621.0,6621.0,6621.0,6621.0,0.01105568
1558870740000,6651.0,6651.0,6651.0,6651.0,0.00211162
1558974180000,6835.0,6835.0,6835.0,6835.0,0.0019309999999999998
1559031540000,8598.9,8599.0,8599.0,8598.9,0.03572703
1559574660000,6911.0,6911.0,6911.0,6911.0,0.00214772
1559651340000,6911.0,6650.0,6911.0,6650.0,0.0157966
1560196320000,8100.0,8100.0,8100.0,8100.0,0.001
1560800820000,8048.0,8048.0,8048.0,8048.0,0.00105223
1560800880000,8048.0,8048.0,8048.0,8048.0,0.00094177
1561182180000,9998.9,9999.0,9999.0,9998.9,0.00236342
1561224060000,9997.9,9998.0,9998.0,9997.9,0.01504792
1561224120000,9997.9,9998.0,9998.0,9997.9,0.01653547
1561474620000,10000.0,10000.0,10000.0,10000.0,0.00317879
1561498080000,11001.0,11001.0,11001.0,11001.0,0.00317561
1561573140000,10999.0,11000.0,11000.0,10999.0,0.00174917
1561573200000,11499.0,11500.0,11500.0,11499.0,0.0016600000000000002
1561589520000,12400.0,13000.0,13000.0,12400.0,0.00155434
1561589580000,13000.0,15437.0,15437.0,13000.0,0.00572654
1561589940000,15437.0,15437.0,15437.0,15437.0,0.0065172
1561590480000,15500.0,15500.0,15500.0,15500.0,4e-08
1561598340000,15101.0,15101.0,15101.0,15101.0,0.00237097
1561643100000,8857.6,8857.6,8857.6,8857.6,0.0002
1561643160000,8859.9,11001.0,11001.0,8859.9,0.01078193
1561643340000,11001.0,11001.0,11001.0,11001.0,0.00279666
1561732500000,14500.0,14999.0,14999.0,14500.0,0.00149996
1561791660000,10001.0,10001.0,10001.0,10001.0,0.009000000000000001
1561842840000,10011.0,10011.0,10011.0,10011.0,0.00728632
1561870920000,10011.0,10011.0,10011.0,10011.0,0.0005
1561899180000,10020.0,10020.0,10020.0,10020.0,0.013085399999999999
1562049900000,10031.0,10000.0,10031.0,10000.0,0.010320200000000002
1562241720000,11737.0,11737.0,11737.0,11737.0,0.00043375
1562259120000,11919.0,11919.0,11919.0,11919.0,0.00076015
1562277120000,11391.0,11392.0,11392.0,11391.0,0.00305587
1562277300000,11499.0,11500.0,11500.0,11499.0,0.0024411
1562277360000,11497.0,11500.0,11500.0,11497.0,0.00691951
1562277540000,11999.0,11999.0,11999.0,11999.0,0.004070000000000001
1562361240000,11899.0,11899.0,11899.0,11899.0,0.0034903
1562361600000,11899.0,11899.0,11899.0,11899.0,0.00022222
1562364240000,11899.0,11899.0,11899.0,11899.0,0.0072749
1562365080000,11899.0,11900.0,11900.0,11899.0,0.024087
1562365440000,11899.0,11900.0,11900.0,11899.0,0.00588773
1562365500000,10011.0,10001.0,10011.0,10001.0,0.021826599999999998
1562458560000,11899.0,11899.0,11899.0,11899.0,0.003
1562499480000,11000.0,11000.0,11000.0,10999.0,0.05035278
1562499660000,10801.0,10801.0,10801.0,10801.0,0.00048311
1562614680000,11999.0,12000.0,12000.0,11999.0,0.00523335
1562635560000,10511.0,10511.0,10511.0,10511.0,0.010528000000000001
1562721540000,13498.0,13500.0,13500.0,13498.0,0.00434471
1562721660000,13999.0,14000.0,14000.0,13999.0,0.00223452
1562771580000,12501.0,12500.0,12501.0,12500.0,0.0037191000000000004
1562771760000,12501.0,12501.0,12501.0,12501.0,0.004172100000000001
1562787600000,12501.0,12501.0,12501.0,12501.0,0.00082508
1562878320000,14000.0,14000.0,14000.0,14000.0,0.001167
1562906100000,11800.0,11800.0,11800.0,11800.0,0.0005
1562908320000,12298.0,12298.0,12298.0,12298.0,0.00039219
1562910840000,11800.0,11800.0,11800.0,11800.0,0.0008818
1563013680000,12298.0,12298.0,12298.0,12298.0,0.00115404
1563061260000,12298.0,12298.0,12298.0,12298.0,0.00080948
1563256020000,12298.0,12298.0,12298.0,12298.0,0.00057106
1563266220000,12296.0,12299.0,12299.0,12296.0,0.00469284
1563266280000,8765.0,8765.0,8765.0,8765.0,0.004683
1563299760000,13900.0,14000.0,14000.0,13900.0,0.0025
1563299880000,8788.0,8771.0,8788.0,8771.0,0.002495
1563391260000,10800.0,10700.0,10800.0,10700.0,0.0006
1563391320000,8771.0,10700.0,10700.0,8771.0,0.0075
1563391380000,8800.0,10700.0,10700.0,8800.0,0.013590000000000001
1563391440000,8800.0,8800.0,10700.0,8800.0,0.02051
1563391500000,10700.0,10700.0,10700.0,8800.0,0.01933
1563391560000,8800.0,10650.0,10700.0,8800.0,0.01901
1563391620000,8881.0,8880.0,8881.0,8880.0,0.00389
1563391800000,10500.0,9100.0,10500.0,9000.0,0.015569999999999999
1563391860000,10400.0,9160.0,10400.0,9150.0,0.01173
1563392100000,10250.0,10250.0,10250.0,10250.0,0.0024
1563392160000,9170.1,9200.0,9200.0,9170.1,0.0054099
1563392220000,8771.0,8771.0,8771.0,8771.0,0.005723
1563644700000,10570.0,10570.0,10570.0,10570.0,0.00021876
1563644760000,10570.0,10570.0,10570.0,10570.0,0.00088124
1563870420000,10400.0,10400.0,10400.0,10400.0,0.00020384
1564155960000,10430.0,10430.0,10430.0,10430.0,0.00029616
1564156380000,9800.0,9800.0,9800.0,9800.0,0.0004
1564156440000,9800.0,9800.0,9800.0,9800.0,0.0008
1564161000000,9800.0,9800.0,9800.0,9800.0,0.0163399
1564623120000,12200.0,12200.0,12200.0,12200.0,0.00057363
1564649580000,12000.0,12000.0,12000.0,12000.0,0.00148262
1564650900000,12000.0,12000.0,12000.0,12000.0,0.00264568
1564965780000,10815.0,9750.0,10864.0,9750.0,0.11596743
1564965900000,10915.0,11014.0,11014.0,10915.0,0.05697846
1564969380000,11015.0,11015.0,11015.0,11015.0,0.00047447
1564972140000,9700.0,9700.0,9700.0,9700.0,0.0032663
1564973580000,11015.0,11066.0,11066.0,11015.0,0.09465771
1564982880000,8818.0,8771.0,8818.0,8771.0,0.04321444
1564991940000,11160.0,11216.0,11216.0,11160.0,0.0111862
1564992660000,11600.0,12006.0,12006.0,11600.0,0.00475321
1565074140000,11830.0,12007.0,12007.0,11830.0,0.01252505
1565093700000,11510.0,11510.0,11510.0,11510.0,0.0005
1565182440000,11000.0,11000.0,11000.0,11000.0,0.007047
1565186640000,12000.0,12000.0,12000.0,12000.0,0.0027962
1565190360000,11800.0,11800.0,11800.0,11800.0,0.00281543
1565286540000,11505.0,11505.0,11505.0,11505.0,0.00049965
1565447460000,11316.0,11316.0,11316.0,11316.0,0.0005
1565598660000,11400.0,11400.0,11400.0,11400.0,0.0004
1565598720000,11400.0,12310.0,12310.0,11400.0,0.0005
1565598780000,12310.0,10807.0,12310.0,10807.0,0.0008
1565654220000,12140.0,78000.0,78000.0,12140.0,1.05047214
1565654280000,10958.0,10958.0,10958.0,10958.0,0.001
1565654340000,11100.0,10000.0,11100.0,1001.0,1.04159075
1565655180000,12000.0,12000.0,12000.0,12000.0,0.001
1565688660000,11992.0,11992.0,11992.0,11992.0,0.00162348
1565689200000,11900.0,11900.0,11900.0,11900.0,0.0009599999999999999
1565689260000,11361.0,11361.0,11361.0,11361.0,0.00197198
1565689380000,11311.0,11311.0,11311.0,11311.0,4e-05
1565691720000,11212.0,11212.0,11212.0,11212.0,0.0005
1565692380000,11211.0,11211.0,11211.0,11211.0,0.0005
1565702700000,11211.0,11211.0,11211.0,11211.0,0.0005
1565702940000,11211.0,11211.0,11211.0,11211.0,0.0005
1565704200000,11211.0,11211.0,11211.0,11211.0,0.0005
1565704740000,11211.0,11211.0,11211.0,11211.0,0.0005
1565704980000,11211.0,11211.0,11211.0,11211.0,0.0005
1565748000000,10910.0,10910.0,10910.0,10910.0,0.0005
1565771940000,10707.0,10707.0,10707.0,10707.0,0.0005
1565799900000,10507.0,10507.0,10507.0,10507.0,0.0087618
1565800560000,11179.0,11179.0,11179.0,11179.0,0.0004971
1565802120000,10298.0,10298.0,10298.0,10298.0,0.01135816
1565802180000,10198.0,10198.0,10198.0,10198.0,0.00893252
1565802240000,10001.0,9513.0,10001.0,9513.0,0.01456668
1565866320000,10165.0,10165.0,10165.0,10165.0,0.06845117
1565866380000,10165.0,10165.0,10165.0,10165.0,0.02317848
1565874480000,10015.0,10015.0,10015.0,10015.0,0.0005
1565931780000,10299.0,10299.0,10299.0,10299.0,0.006781000000000001
1565933400000,10066.0,10066.0,10066.0,10066.0,0.0067670000000000004
1565933820000,10066.0,9800.0,10066.0,9800.0,0.00500532
1565934540000,9800.0,9800.0,9800.0,9800.0,0.0005
1565983260000,10190.0,10500.0,10500.0,10190.0,0.04386285
1565987580000,10500.0,10500.0,10500.0,10500.0,2.628e-05
1566017640000,10400.0,10400.0,10400.0,10400.0,0.009999999999999998
1566035880000,11100.0,11400.0,11400.0,11100.0,0.0206637
1566306060000,10980.0,11503.0,11503.0,10980.0,0.011217
1566409620000,10700.0,11146.0,11146.0,10700.0,0.0025
1566624720000,11499.0,11499.0,11499.0,11499.0,0.00490075
1567001580000,10150.0,10150.0,10150.0,10150.0,0.0005
1567001760000,11000.0,11000.0,11000.0,11000.0,0.00068706
1567005660000,10150.0,10150.0,10150.0,10150.0,0.00048419
1567006200000,10988.0,10988.0,10988.0,10988.0,0.00048419
1567015200000,10150.0,10150.0,10150.0,10150.0,0.0029996
1567029420000,10000.0,10000.0,10000.0,10000.0,0.00051294
1567031400000,10000.0,10000.0,10000.0,10000.0,0.0005
1567032540000,10000.0,10000.0,10000.0,10000.0,0.0005
1567037220000,10000.0,10000.0,10000.0,10000.0,0.00014826
1567053060000,9764.6,9764.6,9764.6,9764.6,0.1
1567449000000,9920.0,10000.0,10000.0,9920.0,0.0049855
1567450260000,10000.0,10000.0,10000.0,10000.0,0.0115535
1567479060000,8511.0,8511.0,8511.0,8511.0,0.001017
1567747320000,10470.0,10470.0,10470.0,10470.0,0.0005
1567873740000,10300.0,10300.0,10300.0,10300.0,0.0005
1568334840000,10299.0,10299.0,10299.0,10299.0,0.00148
1568767620000,10000.0,10000.0,10000.0,10000.0,0.01544774
1568769120000,10001.0,10001.0,10001.0,10001.0,0.0008
1568862660000,10000.0,10000.0,10000.0,10000.0,0.001
1568866620000,10000.0,10000.0,10000.0,10000.0,0.01444774
1569712440000,7527.9,7527.8,7527.9,7527.8,0.016328
1569716040000,8079.9,8079.9,8079.9,8079.9,0.00095209
1570134360000,8984.0,7352.0,8984.0,7352.0,0.0012
1570169100000,8089.9,8089.9,8089.9,8089.9,0.00564112
1570183500000,7366.6,7366.6,7366.6,7366.6,0.00074438
1570197420000,8071.0,8071.0,8071.0,8071.0,0.0005059999999999999
1570199520000,7363.0,7363.0,7363.0,7363.0,0.0007535
1570235220000,7500.1,7500.1,7500.1,7500.1,5.075e-05
1570407120000,7572.0,7572.0,7572.0,7572.0,0.00195748
1572133260000,9090.0,9090.0,9090.0,9090.0,0.00075
1572136860000,9100.1,9100.1,9100.1,9100.1,0.00306999
1572137820000,9100.1,9100.1,9100.1,9100.1,0.0008
1572139200000,9100.1,9100.1,9100.1,9100.1,0.00075
1572141120000,9100.0,9100.0,9100.0,9100.0,0.001
1572149880000,9100.0,9100.0,9100.0,9100.0,0.0009
1572156180000,9200.0,9200.0,9200.0,9200.0,0.00084344
1572167700000,9400.0,9400.0,9400.0,9400.0,0.0006
1572170160000,9500.0,9500.0,9500.0,9500.0,0.011000000000000001
1572170220000,8699.1,8699.1,8699.1,8699.1,0.00349231
1572175200000,9500.0,9500.0,9500.0,9500.0,0.0009109
1572175260000,9500.0,9500.0,9500.0,9500.0,0.00257791
1572192060000,8655.4,8655.4,8655.4,8655.4,0.0006609
1573340880000,8900.0,8900.0,8900.0,8900.0,0.0006
1573394640000,9000.0,8950.0,9000.0,8950.0,0.008016760000000001
1573394700000,8950.0,8950.0,8950.0,8950.0,0.005197
1573397640000,8900.0,8900.0,8900.0,8900.0,0.00061152
1573426980000,9200.0,9200.0,9200.0,9200.0,0.0006
1573464420000,8900.0,8900.0,8900.0,8900.0,0.004719
1573561320000,9605.1,9640.0,9640.0,9605.1,0.01283807
1573571940000,8800.0,8800.0,8800.0,8800.0,0.008582
1573575480000,9490.0,9570.0,9570.0,9490.0,0.0007856899999999999
1573590120000,9000.0,9000.0,9000.0,9000.0,0.016723
1573660200000,9654.2,9654.2,9654.2,9654.2,0.00106416
1573661040000,8800.0,8800.0,8800.0,8800.0,0.00121071
1573674720000,8950.0,8950.0,8950.0,8950.0,0.018276
1574999760000,6855.8,6855.8,6855.8,6855.8,0.0004
1575927840000,6831.5,6831.5,6831.5,6831.5,0.005582999999999999
1577457060000,7956.0,7956.0,7956.0,7956.0,0.012143000000000001
1578070920000,6690.8,6690.8,6690.8,6690.8,0.005499
1579013640000,7812.0,7812.0,7812.0,7812.0,0.012118
1579297620000,8999.9,7974.3,8999.9,7974.3,0.001798
1579297800000,8999.9,9000.0,9000.0,8999.9,0.01470726
1579297860000,9000.0,9749.0,9749.0,9000.0,0.02543314
1579297920000,9749.0,9749.0,9749.0,9749.0,0.00713164
1579297980000,7979.0,9765.1,10200.0,7979.0,0.04116463
1579298040000,10888.0,11000.0,11000.0,10888.0,0.10656971
1579298100000,8009.6,8009.6,8009.6,8009.6,0.0008
1579406760000,10047.0,10047.0,10047.0,10047.0,0.001538
1579438320000,9459.9,13000.0,13000.0,9459.9,0.01407386
1579438380000,17995.0,17995.0,17995.0,17995.0,0.0004
1579450740000,8500.0,8500.0,8500.0,8500.0,0.001535
1579453320000,8541.0,8541.0,8541.0,8541.0,0.0032270000000000003
1579613280000,15000.0,15000.0,15000.0,15000.0,0.0056
1579613340000,15000.0,15000.0,15000.0,15000.0,0.008369
1579613460000,16800.0,29900.0,29900.0,16800.0,0.0031000000000000003
1579613520000,20000.0,20000.0,20000.0,20000.0,0.003455
1579613580000,38500.0,38500.0,38500.0,38500.0,0.0009720000000000001
1579614420000,8800.0,8600.0,8800.0,8600.0,0.02115
1579614480000,8600.0,8600.0,8600.0,8600.0,0.005806
1579614600000,36745.0,38000.0,38000.0,36745.0,0.020285
1579614660000,38000.0,38000.0,38000.0,38000.0,0.0038
1579614720000,9000.0,9000.0,9000.0,9000.0,0.023
1579614780000,36000.0,38000.0,38000.0,35998.0,0.03597543
1579614840000,38000.0,38000.0,38000.0,38000.0,0.004
1579614900000,9500.0,9500.0,9500.0,9500.0,0.039
1579615080000,35000.0,35000.0,35000.0,35000.0,0.0439
1579615140000,10300.0,10300.0,10300.0,10300.0,0.0438
1579615200000,32000.0,11408.0,32000.0,11408.0,0.038948
1579615500000,27205.0,27205.0,27205.0,27205.0,0.017
1579615560000,26220.0,26220.0,26220.0,26220.0,0.0439
1579615620000,12600.0,13000.0,24000.0,12600.0,0.06179700000000001
1579615680000,22700.0,22700.0,22700.0,22700.0,0.008574
1579615740000,13600.0,21500.0,21500.0,13001.0,0.01098752
1579615800000,19500.0,19500.0,19500.0,19500.0,0.0008
1579616100000,18000.0,18000.0,18000.0,18000.0,0.0016545000000000002
1579616520000,9600.0,9600.0,9600.0,9600.0,0.0008
1579618080000,9620.0,9620.0,9620.0,9620.0,0.00117255
1579618560000,9620.1,9000.0,9620.1,9000.0,0.01226417
1579618680000,9000.1,9000.1,9000.1,9000.1,0.00258264
1579620480000,10005.0,10005.0,10005.0,10005.0,0.0034071500000000003
1579627440000,10300.0,10300.0,10300.0,10300.0,0.002
1579627560000,10288.0,10300.0,10300.0,10288.0,0.057999999999999996
1579627620000,11666.0,11900.0,11900.0,11666.0,0.01342726
1579627680000,9500.0,15777.0,15777.0,9500.0,0.075084
1579627800000,15200.0,16888.0,16888.0,15200.0,0.07579
1579627920000,16000.0,16000.0,16000.0,16000.0,0.0008
1579627980000,16000.0,10476.0,16000.0,10476.0,0.0608
1579628040000,11016.0,11016.0,11016.0,11016.0,0.0008
1579628280000,11335.0,11107.0,11335.0,11107.0,0.086496
1579628460000,9968.2,9898.0,9968.2,9898.0,0.015996
1579628520000,9898.0,9898.0,9898.0,9898.0,0.000991
1579628700000,9898.1,9877.5,9898.1,9877.5,0.00201757
1579635780000,9666.0,9757.0,9757.0,9666.0,0.00167835
1579638000000,9200.0,9200.0,9200.0,9200.0,0.0057
1579638300000,8900.0,8800.0,8900.0,8800.0,0.022313
1579640460000,8800.0,8800.0,8800.0,8800.0,0.00105779
1579640520000,8800.0,8800.0,8800.0,8800.0,0.0030488000000000004
1579641000000,8800.0,8800.0,8800.0,8800.0,0.0034
1579641060000,8800.0,8800.0,8800.0,8800.0,0.009773
1579656780000,8800.0,8800.0,8800.0,8800.0,0.00272041
1579657260000,8801.0,8801.0,8801.0,8801.0,0.00344249
1579694280000,8800.0,8800.0,8800.0,8800.0,0.004542
1579780860000,8600.0,8600.0,8600.0,8600.0,0.033662
1579811700000,8550.0,8550.0,8550.0,8550.0,0.00168605
1579876860000,8550.0,8550.0,8550.0,8550.0,0.012502
1579995960000,7538.3,7538.3,7538.3,7538.3,0.00185611
1580005740000,7525.1,7525.0,7525.1,7525.0,0.03763948
1580005800000,7501.1,7501.1,7501.1,7501.1,0.01236052
1580006460000,7501.6,7501.6,7501.6,7501.6,0.005319
1580255640000,9000.0,9000.0,9000.0,9000.0,0.004536999999999999
1580255820000,9278.9,9310.0,9310.0,9278.9,0.00180316
1580295480000,8473.2,8473.2,8473.2,8473.2,0.00360438
1581286200000,9799.9,9800.0,9800.0,9799.9,0.036896420000000006
1581289500000,9106.3,9106.3,9106.3,9106.3,0.00233923
1581289560000,9107.2,9107.2,9107.2,9107.2,0.00114895
1581788100000,8976.9,8976.9,8976.9,8976.9,0.006151
1581794400000,10913.0,11370.0,11370.0,10913.0,0.02709619
1581794460000,10910.0,10909.0,10910.0,10909.0,0.10525374
1582036560000,10330.0,10640.0,10640.0,10330.0,0.008
1582036620000,10640.0,10640.0,10640.0,10640.0,0.0008399999999999999
1582194180000,10588.0,10595.0,10595.0,10588.0,0.00457145
1582345380000,10500.0,10500.0,10500.0,10500.0,0.00470165
1582385160000,8703.5,8703.5,8703.5,8703.5,0.008826
1582895220000,8703.5,8703.5,8703.5,8703.5,0.0009
1583997600000,7006.0,6778.5,7006.0,6778.5,0.00558
1584009960000,6778.4,6778.4,6778.4,6778.4,0.00147526
1584020460000,6477.6,6477.6,6477.6,6477.6,0.00093479
1584031920000,6603.5,6603.5,6603.5,6603.5,0.00340165
1584055680000,5603.5,5603.5,5603.5,5603.5,0.0008
1584058140000,5603.5,5603.5,5603.5,5603.5,1e-05
1584065700000,4482.8,4482.8,4482.8,4482.8,0.00223075
1584067500000,5609.1,5609.1,5609.1,5609.1,0.00075876
1584069840000,5160.4,5160.4,5160.4,5160.4,0.0006
1584092580000,5160.4,5160.4,5160.4,5160.4,0.00022996
1584185280000,4943.4,4943.4,4943.4,4943.4,0.00661998
1585773420000,7615.0,7615.0,7615.0,7615.0,0.001
1585773480000,7615.0,7615.0,7615.0,7615.0,0.001
1585775280000,5137.1,5137.1,5137.1,5137.1,0.001
1585775520000,5140.0,5140.0,5140.0,5140.0,0.0009960000000000001
1585775700000,7687.2,7700.0,7700.0,7687.2,0.00423134
1585775760000,7540.0,7682.7,7682.7,7540.0,0.00276455
1585776060000,5370.0,5370.0,5370.0,5370.0,0.00698403
1585776540000,5376.0,5376.0,5376.0,5376.0,0.0009939999999999999
1585777440000,6290.0,6290.0,6290.0,6290.0,0.001
1585846680000,6560.0,6560.0,6560.0,6560.0,0.001
1586098200000,5433.1,5433.1,5433.1,5433.1,0.0008089999999999999
1586190180000,7200.0,7200.0,7200.0,7200.0,0.001
1586243880000,6871.9,6871.9,6871.9,6871.9,0.00246308
1586256780000,6089.0,6089.0,6089.0,6089.0,0.0014738
1586368260000,7100.0,7100.0,7100.0,7100.0,0.00147
1586509260000,6810.1,6810.1,6810.1,6810.1,0.00085941
1586957400000,5402.6,5402.6,5402.6,5402.6,0.003045
1587359880000,7130.0,7130.0,7130.0,7130.0,0.0007
1587360840000,6850.1,6850.1,6850.1,6850.1,0.001648
1587620460000,7100.0,7338.7,7338.7,7100.0,0.0032409999999999995
1587623700000,7473.0,7473.0,7473.0,7473.0,0.002593
1588156380000,6484.1,6484.1,6484.1,6484.1,0.0013
1588223580000,8799.0,8800.0,8800.0,8799.0,0.0016991
1589195580000,7072.0,7072.0,7072.0,7072.0,0.00227444
1589255580000,8490.0,8490.0,8490.0,8490.0,0.0006
1589402880000,9000.0,9000.0,9000.0,9000.0,0.0016699999999999998
1589475120000,9600.0,9600.0,9600.0,9600.0,0.00330303
1589476500000,9300.1,9300.1,9300.1,9300.1,0.00216667
1589504280000,10000.0,10000.0,10000.0,10000.0,0.00233834
1589510400000,9400.1,9400.1,9400.1,9400.1,0.00243834
1589510580000,9400.1,9400.1,9400.1,9400.1,0.000722
1589519100000,10000.0,10000.0,10000.0,10000.0,0.00206772
1589519520000,9600.0,9600.0,9600.0,9600.0,0.00206772
1589704680000,9999.0,9999.0,9999.0,9999.0,0.00135
1590737220000,9970.0,10269.0,10269.0,9970.0,0.010619
1590857040000,9350.1,9350.1,9350.1,9350.1,0.00085197
1590877020000,10269.0,10369.0,10369.0,10269.0,0.0006050700000000001
1590878640000,10369.0,10400.0,10400.0,10369.0,0.00060255
1590886260000,10156.0,10156.0,10156.0,10156.0,0.00064249
1590936960000,9653.0,9647.0,9653.0,9647.0,0.015655000000000002
1590937140000,9630.0,9602.6,9630.0,9602.6,0.01496543
1590937200000,9550.0,9550.0,9550.0,9550.0,0.00628486
1590937260000,9501.0,9501.0,9501.0,9501.0,0.00324774
1591088580000,10399.0,10399.0,10399.0,10399.0,0.00241633
1591088700000,10410.0,10410.0,10410.0,10410.0,0.00315067
1591224540000,9689.0,9689.0,9689.0,9689.0,0.00305508
1591227300000,9689.0,9714.7,9714.7,9689.0,0.00461561
1591227480000,9714.7,9766.0,9766.0,9714.7,0.00306313
1591227660000,9766.0,9766.0,9766.0,9766.0,0.0026787
1591246920000,9765.9,9765.9,9765.9,9765.9,0.00480934
1591304100000,9766.0,9766.0,9766.0,9766.0,0.00036839
1591346640000,9791.7,9843.0,9843.0,9791.7,0.00614205
1591479000000,9842.9,9842.9,9842.9,9842.9,0.0006
1591479060000,9842.9,9842.9,9842.9,9842.9,0.004
1591479300000,9842.9,9843.0,9843.0,9842.9,0.0045000000000000005
1591479420000,9842.9,9868.7,9868.7,9842.9,0.006
1591481520000,9672.2,9623.2,9672.2,9623.2,0.0032170000000000002
1591660860000,9868.7,9868.7,9868.7,9868.7,0.00121926
1591661640000,9868.7,9920.0,9920.0,9868.7,0.00306301
1591814520000,9915.0,9915.0,9915.0,9915.0,0.00197442
1591976160000,9919.9,9919.9,9919.9,9919.9,0.001008
1592487420000,9000.0,9000.0,9000.0,9000.0,0.005561
1592487900000,9449.9,9977.0,9977.0,9449.9,0.01459818
1592660100000,9976.9,9300.1,9976.9,9300.1,0.001999
1592661660000,9976.9,9977.0,9977.0,9976.9,0.003851
1592720160000,9300.0,9300.0,9300.0,9300.0,0.00077959
1592764380000,9699.9,9700.0,9700.0,9699.9,0.00262669
1592774220000,9450.0,9450.0,9450.0,9450.0,0.00159628
1592806980000,9450.0,9450.0,9450.0,9450.0,0.0008
1593045180000,8947.7,8947.7,8947.7,8947.7,0.01636676
1593072120000,8443.5,8443.5,8443.5,8443.5,0.014228200000000003
1593671220000,10419.0,10500.0,10500.0,10419.0,0.00412397
1593908220000,10300.0,10300.0,10300.0,10300.0,0.001
1593962040000,10400.0,10400.0,10400.0,10400.0,0.00066575
1594126560000,9369.0,9369.0,9369.0,9369.0,0.01520165
1594131180000,9369.0,9369.0,9369.0,9369.0,0.01609622
1594131360000,9369.0,9369.0,9369.0,9369.0,0.01699079
1594144260000,9369.0,9369.0,9369.0,9369.0,0.00271132
1594154280000,9368.9,9469.0,9469.0,9368.9,0.00347317
1594182000000,9369.0,9369.0,9369.0,9369.0,0.01517406
1594182060000,9369.0,9369.0,9369.0,9369.0,0.001834
1594182240000,9369.0,9369.0,9369.0,9369.0,0.012366
1594193820000,9369.0,9369.0,9369.0,9369.0,0.01062592
1594205580000,9369.0,9419.0,9419.0,9369.0,0.00813521
1594205640000,9419.0,9419.0,9419.0,9419.0,0.01963941
1594206600000,9419.0,9419.0,9419.0,9419.0,0.00424672
1594209900000,9419.0,9419.0,9419.0,9419.0,0.006944
1594215660000,9419.0,9419.0,9419.0,9419.0,0.00282939
1594216080000,9419.0,9419.0,9419.0,9419.0,0.02053238
1594216260000,9419.0,9419.0,9419.0,9419.0,0.00932768
1594407420000,8728.7,8728.7,8728.7,8728.7,0.00397216
1595818980000,10500.0,10500.0,10500.0,10500.0,0.02491433
1595831340000,10300.0,10300.0,10300.0,10300.0,0.00071025
1595832000000,10300.0,10300.0,10300.0,10300.0,0.00100512
1595832060000,10300.0,10300.0,10300.0,10300.0,0.00100502
1595916540000,9705.4,9705.4,9705.4,9705.4,0.002277
1595933040000,10161.0,10161.0,10161.0,10161.0,0.00061108
1595935440000,10669.0,10669.0,10669.0,10669.0,0.00094535
1595958360000,10660.0,10660.0,10660.0,10660.0,0.018202
1596014280000,10909.0,10909.0,10909.0,10909.0,0.00073063
1596014340000,10909.0,11009.0,11009.0,10909.0,0.0061860000000000005
1596015960000,10803.0,10803.0,10803.0,10803.0,0.0010421
1596077460000,11499.0,11499.0,11499.0,11499.0,0.00086956
1596077940000,10801.0,10801.0,10801.0,10801.0,0.00139345
1596078300000,11499.0,11499.0,11499.0,11499.0,0.0007422
1596111900000,11499.0,11499.0,11499.0,11499.0,0.000651
1596206880000,11295.0,11295.0,11295.0,11295.0,0.00070084
1596289500000,11850.0,11850.0,11850.0,11850.0,0.00084381
1596292500000,10966.0,10966.0,10966.0,10966.0,0.00092732
1596308580000,11851.0,11851.0,11851.0,11851.0,0.02546
1597110300000,11365.0,11365.0,11365.0,11365.0,0.00087983
1597140900000,11382.0,11382.0,11382.0,11382.0,0.0006852000000000001
1597169400000,11850.0,11850.0,11850.0,11850.0,0.00124912
1597221240000,11850.0,11851.0,11851.0,11850.0,0.005906669999999999
1597224840000,11851.0,11851.0,11851.0,11851.0,0.00253143
1597338960000,11851.0,11851.0,11851.0,11851.0,0.021
1597343040000,11851.0,11851.0,11851.0,11851.0,0.00084381
1597346580000,11851.0,11851.0,11851.0,11851.0,0.005906669999999999
1597351860000,11851.0,11851.0,11851.0,11851.0,0.02199148
1597351920000,11851.0,11851.0,11851.0,11851.0,1.965e-05
1597376400000,14200.0,14200.0,14200.0,14200.0,0.000654
1597401000000,14000.0,14000.0,14000.0,14000.0,0.00071223
1597401060000,13064.0,13000.0,13064.0,13000.0,0.00249215
1597404060000,15000.0,15000.0,15000.0,15000.0,0.00128458
1597404120000,15000.0,15000.0,15000.0,15000.0,0.00064232
1597405860000,13316.0,13316.0,13316.0,13316.0,0.00410228
1597408080000,12200.0,12100.0,12200.0,12100.0,0.0092
1597409220000,12183.0,12183.0,12183.0,12183.0,0.00082076
1597409340000,12100.0,12100.0,12100.0,12100.0,0.00082644
1597411440000,12898.0,13000.0,13000.0,12898.0,0.00439996
1597413840000,12943.0,12943.0,12943.0,12943.0,0.00077257
1597413960000,13000.0,13000.0,13000.0,13000.0,0.00384615
1597419180000,12000.0,12000.0,12000.0,12000.0,0.00205976
1597419960000,12250.0,12250.0,12250.0,12250.0,0.00065121
1597544340000,13000.0,13000.0,13000.0,13000.0,0.00169544
1597565760000,12897.0,12898.0,12898.0,12897.0,0.00198721
1597646760000,12000.0,12000.0,12000.0,12000.0,0.001842
1597746240000,11548.0,11548.0,11548.0,11548.0,0.00086592
1597746300000,11549.0,11549.0,11549.0,11549.0,0.0008657999999999999
1597746360000,11550.0,11550.0,11550.0,11550.0,0.00086578
1597746420000,11546.0,11546.0,11546.0,11546.0,0.00086604
1597746480000,11341.0,11341.0,11341.0,11341.0,0.00090921
1597748040000,11557.0,12100.0,12100.0,11557.0,0.00174851
1597748100000,11548.0,12100.0,12100.0,11548.0,0.00175053
1597748160000,11549.0,11549.0,11549.0,11549.0,0.00086581
1597748400000,11707.0,11707.0,11707.0,11707.0,0.00085413
1597748460000,11708.0,11708.0,12100.0,11708.0,0.0075957299999999985
1597748520000,11708.0,11708.0,11708.0,11708.0,0.00170836
1597750020000,11780.0,11780.0,11780.0,11780.0,0.00085411
1597994880000,11660.0,11660.0,11660.0,11660.0,0.001349
1598044320000,11660.0,11660.0,11660.0,11660.0,0.00263458
1598044560000,11660.0,11660.0,11660.0,11660.0,0.00594516
1598473500000,13121.0,13121.0,13121.0,13121.0,0.00076209
1598473560000,13120.0,13786.0,13786.0,13120.0,0.00336149
1598473680000,13774.0,13774.0,13774.0,13774.0,0.00783
1598474160000,13793.0,13793.0,13793.0,13793.0,0.00446923
1598568000000,13200.0,13751.0,13751.0,13200.0,0.09929271
1598632740000,13700.0,13700.0,13700.0,13700.0,0.01115543
1598797260000,13700.0,13700.0,13700.0,13700.0,0.011285600000000002
1598855700000,14028.0,14028.0,14028.0,14028.0,0.0007
1598855760000,11129.0,11129.0,11129.0,11129.0,0.000699
1598912940000,12056.0,12056.0,12056.0,12056.0,0.00165888
1598915700000,12557.0,12061.0,12557.0,12061.0,0.00162546
1598915760000,11688.0,11565.0,11688.0,11565.0,0.00165652
1598915820000,12051.0,12051.0,12051.0,12051.0,0.00801522
1598915940000,12052.0,12052.0,12052.0,12052.0,0.0006
1598919240000,12045.0,12045.0,12045.0,12045.0,0.0008302
1598928660000,11401.0,11401.0,11401.0,11401.0,0.00535159
1598931480000,11401.0,11401.0,11401.0,11401.0,0.01332282
1598931540000,11401.0,11401.0,11401.0,11401.0,0.02670527
1598932320000,11401.0,11401.0,11401.0,11401.0,0.0131904
1598932380000,11401.0,11401.0,11401.0,11401.0,0.02653155
1598932620000,11401.0,11401.0,11401.0,11401.0,0.02680723
1598932740000,11401.0,11401.0,11401.0,11401.0,0.01328907
1598932800000,11401.0,11401.0,11401.0,11401.0,0.01356582
1598932860000,11401.0,11401.0,11401.0,11401.0,0.00897374
1598932920000,11401.0,11401.0,11401.0,11401.0,0.01315674
1598938740000,11401.0,11401.0,11401.0,11401.0,0.00960871
1598938860000,11401.0,11401.0,11401.0,11401.0,0.004
1598940060000,11401.0,11401.0,11401.0,11401.0,0.0135546
1598940240000,11401.0,11401.0,11401.0,11401.0,0.01177789
1598940360000,11402.0,11402.0,11402.0,11402.0,0.01087794
1598940540000,11402.0,11402.0,11402.0,11402.0,0.01035074
1598940900000,11401.0,11401.0,11401.0,11401.0,0.00763437
1598941140000,11401.0,11401.0,11401.0,11401.0,0.00131228
1598941380000,11401.0,11401.0,11401.0,11401.0,0.00307083
1598941560000,11401.0,11401.0,11401.0,11401.0,0.00731869
1598941680000,11401.0,11401.0,11401.0,11401.0,0.00875774
1599048000000,11400.0,11400.0,11400.0,11400.0,0.00014989
1599048540000,11300.0,11300.0,11300.0,11300.0,0.0022743000000000004
1599048660000,11256.0,11256.0,11256.0,11256.0,0.02106745
1599101220000,11129.0,12852.0,12852.0,11129.0,0.00205701
1599101280000,12850.0,12852.0,12852.0,12850.0,0.00196542
1599101580000,11129.0,11123.0,11129.0,11123.0,0.0181405
1599101820000,11124.0,11124.0,11124.0,11124.0,0.006
1599101940000,11124.0,11124.0,11124.0,11124.0,0.00299777
1599103020000,11124.0,11124.0,11124.0,11124.0,0.001
1599103080000,11124.0,11124.0,11124.0,11124.0,0.00199844
1599103140000,11124.0,11124.0,11124.0,11124.0,0.0385646
1599103260000,11124.0,11124.0,11124.0,11124.0,0.00099849
1599103320000,11123.0,11123.0,11123.0,11123.0,0.00118416
1599104160000,11001.0,11001.0,11001.0,11001.0,0.001
1599104220000,11001.0,11001.0,11001.0,11001.0,0.00199844
1599104400000,11001.0,11001.0,11001.0,11001.0,0.01085325
1599106440000,11001.0,11001.0,11001.0,11001.0,0.00839746
1599106680000,11001.0,11001.0,11001.0,11001.0,0.01393289
1599116880000,11001.0,11001.0,11001.0,11001.0,0.00875704
1599130680000,11001.0,11001.0,11001.0,11001.0,0.00293206
1599135120000,11000.0,11000.0,11000.0,11000.0,0.00060478
1599135900000,11000.0,11000.0,11000.0,11000.0,0.00060478
1599138660000,11000.0,11000.0,11000.0,11000.0,0.00181818
1599221820000,11547.0,11900.0,11900.0,11547.0,0.05255677
1599225840000,11732.0,11732.0,11732.0,11732.0,0.00085233
1599225900000,11525.0,11318.0,11525.0,11318.0,0.00175121
1599253320000,11721.0,11565.0,11721.0,11565.0,0.00279258
1599275220000,9650.0,9625.1,9650.0,9625.1,0.04335163
1599275340000,9800.0,9800.0,9800.0,9800.0,0.0035
1599275460000,11590.0,11590.0,11590.0,11590.0,0.001
1599275520000,9810.0,9810.0,9810.0,9810.0,0.00274726
1599275640000,9900.0,11585.0,11585.0,9900.0,0.004
1599276060000,9905.0,9905.0,9905.0,9905.0,0.009000000000000001
1599276120000,11580.0,11580.0,11580.0,11580.0,0.0035
1599276180000,10000.0,11578.0,11578.0,10000.0,0.002
1599276240000,10001.0,10001.0,10001.0,10001.0,0.01
1599276300000,11577.0,10002.0,11577.0,10002.0,0.015
1599276360000,10005.0,10009.0,10009.0,10005.0,0.009000000000000001
1599276420000,11580.0,11580.0,11580.0,11580.0,0.009000000000000001
1599276480000,10011.0,11580.0,11580.0,10011.0,0.013999999999999999
1599276540000,11578.0,11576.0,11578.0,10013.0,0.019
1599276600000,10015.0,10015.0,10015.0,10015.0,0.017
1599276660000,11574.0,11574.0,11574.0,11574.0,0.013000000000000001
1599276720000,10017.0,10017.0,10017.0,10017.0,0.0085
1599276780000,10017.0,11572.0,11572.0,10017.0,0.0245
1599276840000,11571.0,11572.0,11572.0,11571.0,0.0085
1599276900000,11565.0,10019.0,11565.0,10019.0,0.0175
1599276960000,11563.0,10025.0,11563.0,10021.0,0.0255
1599277020000,11560.0,11558.0,11560.0,11558.0,0.0125
1599277080000,11555.0,10035.0,11555.0,10030.0,0.0295
1599277140000,10040.0,11545.0,11545.0,10040.0,0.016
1599277200000,11540.0,11540.0,11540.0,11540.0,0.0095
1599277260000,10045.0,11535.0,11535.0,10045.0,0.016
1599277320000,10050.0,11530.0,11530.0,10050.0,0.011000000000000001
1599277380000,10055.0,11525.0,11525.0,10055.0,0.016
1599277500000,11500.0,10100.0,11500.0,10100.0,0.0125
1599277560000,11495.0,10105.0,11495.0,10105.0,0.0155
1599277620000,10110.0,10110.0,10110.0,10110.0,0.006
1599277680000,11500.0,10100.0,11500.0,10100.0,0.017
1599277740000,11499.0,11500.0,11500.0,11499.0,0.009999999999999998
1599277800000,11480.0,11460.0,11480.0,10130.0,0.027000000000000003
1599277860000,10150.0,11420.0,11440.0,10150.0,0.04
1599277920000,10190.0,11360.0,11400.0,10190.0,0.06
1599277980000,10250.0,11320.0,11340.0,10250.0,0.04
1599278280000,10271.0,10271.0,10271.0,10271.0,0.00666579
1599278400000,10290.0,10310.0,11300.0,10290.0,0.06
1599278460000,11280.0,10330.0,11280.0,10330.0,0.017
1599278520000,11260.0,11260.0,11260.0,11260.0,0.01
1599278580000,10350.0,11200.0,11240.0,10350.0,0.0684
1599278640000,11199.0,11199.0,11199.0,11199.0,0.00307412
1599280860000,11198.0,11198.0,11198.0,11198.0,0.00356794
1599281760000,11198.0,11198.0,11198.0,11198.0,4.134e-05
1599281880000,10120.0,10120.0,10120.0,10120.0,0.015
1599281940000,11480.0,11450.0,11480.0,11450.0,0.024
1599282000000,10140.0,11410.0,11430.0,10140.0,0.04
1599282060000,10160.0,11350.0,11390.0,10160.0,0.06
1599282120000,10220.0,10280.0,11330.0,10220.0,0.07
1599282180000,11270.0,11250.0,11270.0,10300.0,0.03
1599282240000,10301.0,10100.0,10301.0,10100.0,0.01
1599282300000,10200.0,11440.0,11460.0,10200.0,0.037000000000000005
1599282360000,10240.0,11360.0,11420.0,10240.0,0.08
1599282420000,10320.0,11340.0,11340.0,10320.0,0.02
1599282480000,10340.0,10360.0,11320.0,10340.0,0.036000000000000004
1599282540000,11300.0,11260.0,11300.0,10380.0,0.06
1599282600000,10410.0,10440.0,11250.0,10410.0,0.084
1599282660000,11220.0,11210.0,11220.0,10450.0,0.036000000000000004
1599282720000,10200.0,11460.0,11460.0,10200.0,0.026000000000000002
1599282780000,11300.0,10230.0,11300.0,10210.0,0.07200000000000001
1599282840000,11270.0,10250.0,11270.0,10240.0,0.052000000000000005
1599282900000,11250.0,10271.0,11250.0,10260.0,0.07216816
1599282960000,9625.9,9625.9,9625.9,9625.9,0.01484552
1599283020000,10280.0,11200.0,11220.0,10280.0,0.052000000000000005
1599283080000,10300.0,11290.0,11290.0,10300.0,0.026000000000000002
1599283140000,10310.0,10310.0,10310.0,10310.0,0.006
1599283200000,11280.0,10330.0,11280.0,10320.0,0.052000000000000005
1599283260000,11260.0,10360.0,11260.0,10340.0,0.078
1599283320000,11220.0,10370.0,11220.0,10370.0,0.02
1599283380000,10150.0,10280.0,10280.0,10150.0,0.013
1599283440000,11000.0,10341.0,11450.0,10341.0,0.02
1599283500000,11200.0,11200.0,11200.0,11200.0,0.006999999999999999
1599283560000,10350.0,11190.0,11190.0,10350.0,0.027999999999999997
1599283620000,10351.0,11090.0,11090.0,10351.0,0.01395273
1599283680000,10370.0,11050.0,11070.0,10370.0,0.049
1599283740000,10990.0,10990.0,10990.0,10990.0,0.006999999999999999
1599283800000,10406.0,10980.0,10980.0,10200.0,0.017
1599283860000,10950.0,10940.0,10950.0,10400.0,0.028999999999999998
1599283920000,10410.0,10905.0,10920.0,10410.0,0.043
1599283980000,10850.0,10850.0,10850.0,10850.0,0.006999999999999999
1599284040000,10450.0,10827.0,10850.0,10450.0,0.040999999999999995
1599284100000,10801.0,10474.0,10820.0,10473.0,0.01554357
1599284160000,10502.0,10490.0,10502.0,10490.0,0.012
1599284220000,10748.0,10750.0,10780.0,10748.0,0.015
1599287580000,10547.0,10547.0,10547.0,10547.0,0.00270857
1599395580000,10640.0,10640.0,10640.0,10640.0,0.002287
1599401520000,10640.0,10644.0,10644.0,10640.0,0.009394
1599401580000,10644.0,10644.0,10644.0,10644.0,0.01016292
1599423660000,10490.0,10490.0,10490.0,10490.0,0.00074817
1599423840000,10490.0,10490.0,10490.0,10490.0,0.00094786
1599431940000,9802.1,9802.1,9802.1,9802.1,0.0017695999999999999
1599481380000,9808.2,9808.2,9808.2,9808.2,0.00089813
1599499380000,10490.0,10549.0,10549.0,10490.0,0.00257234
1599500880000,10549.0,10549.0,10549.0,10549.0,0.00072938
1599503820000,9802.1,9802.1,9802.1,9802.1,0.00257238
1599542160000,10549.0,10549.0,10549.0,10549.0,0.00260036
1599542280000,9880.0,9840.0,9880.0,9840.0,0.00259516
1599549780000,10549.0,10549.0,10549.0,10549.0,0.00062629
1599613740000,9840.0,9820.0,9840.0,9820.0,0.0006036500000000001
1599623580000,10435.0,10447.0,10447.0,10435.0,0.00253342
1599658380000,10447.0,10489.0,10489.0,10447.0,0.006669
1599702120000,10489.0,10494.0,10494.0,10489.0,0.0043
1599707940000,10493.0,10493.0,10493.0,10493.0,0.00092289
1599714180000,10493.0,10493.0,10493.0,10493.0,0.00095283
1599756240000,10101.0,10101.0,10101.0,10101.0,0.00099408
1599763080000,10488.0,10488.0,10488.0,10488.0,0.00065491
1599918300000,10139.0,10139.0,10139.0,10139.0,0.00096963
1599969000000,10489.0,10490.0,10490.0,10489.0,0.09795
1599970740000,10490.0,10490.0,10490.0,10490.0,0.032
1599971640000,10490.0,10490.0,10490.0,10490.0,0.21
1599972720000,10490.0,10490.0,10490.0,10490.0,0.0047664000000000005
1599972780000,10490.0,10490.0,10490.0,10490.0,0.00762624
1599974400000,10490.0,10490.0,10490.0,10490.0,0.043816
1599974520000,10490.0,10490.0,10490.0,10490.0,0.416706
1599979380000,10490.0,10490.0,10490.0,10490.0,0.20071393
1599998940000,10341.0,10341.0,10341.0,10341.0,0.00075625
1600012980000,10358.0,10358.0,10358.0,10358.0,0.00454517
1600022100000,10022.0,10022.0,10022.0,10022.0,0.000999
1600022220000,10487.0,10487.0,10487.0,10487.0,0.0012
1600272420000,10944.0,10944.0,10944.0,10944.0,0.00537375
1600272720000,10801.0,10801.0,10801.0,10801.0,0.00156491
1600348440000,11183.0,12939.0,12939.0,11183.0,0.03512164
1600348620000,13885.0,14799.0,14799.0,13885.0,0.01985289
1600409100000,12952.0,13131.0,13131.0,12952.0,0.00216022
1600658820000,13061.0,13061.0,13061.0,13061.0,0.00076563
1600789980000,10800.0,10800.0,10800.0,10800.0,0.001198
1600790160000,12134.0,12134.0,12134.0,12134.0,0.001
1600809960000,10800.0,10800.0,10800.0,10800.0,0.00340464
1601075820000,12133.0,12133.0,12133.0,12133.0,0.00164826
1601406420000,10962.0,10962.0,10962.0,10962.0,0.00079664
1602183540000,10503.0,10503.0,10503.0,10503.0,0.00190438
1602183600000,10503.0,10503.0,10503.0,10503.0,0.00380876
1602183660000,11081.0,11081.0,11081.0,11081.0,0.00090244
1602295500000,11000.0,11000.0,11000.0,11000.0,0.00168261
1602297420000,11000.0,11000.0,11000.0,11000.0,0.00024260000000000002
1602297480000,11000.0,11000.0,11000.0,11000.0,0.00122289
1602306960000,11000.0,11000.0,11000.0,11000.0,0.00181818
1602311220000,10533.0,10533.0,10533.0,10533.0,0.00080553
1602311280000,10533.0,11000.0,11000.0,10533.0,0.00020292
1602311460000,10067.0,10067.0,10067.0,10067.0,0.00021518
1602325440000,11000.0,11000.0,11000.0,11000.0,0.030822000000000002
1602325500000,11000.0,11000.0,11000.0,11000.0,0.0015220700000000002
1602326100000,11201.0,11201.0,11201.0,11201.0,0.00030963
1602326700000,11201.0,11201.0,11201.0,11201.0,0.0036134
1602328020000,11133.0,11133.0,11133.0,11133.0,0.00266174
1602345900000,11541.0,11541.0,11541.0,11541.0,0.00020115
1602346140000,11133.0,11133.0,11133.0,11133.0,0.00094685
1602372120000,11133.0,11133.0,11133.0,11133.0,0.00022516
1602377520000,11133.0,11133.0,11133.0,11133.0,0.00021197
1602382260000,11541.0,11541.0,11541.0,11541.0,0.00022651
1602382560000,11133.0,11133.0,11133.0,11133.0,0.00114087
1602391920000,11133.0,11133.0,11133.0,11133.0,0.00021067
1602399360000,11541.0,11541.0,11541.0,11541.0,0.0002048
1602399420000,11133.0,11133.0,11133.0,11133.0,0.00114088
1602399720000,11133.0,11133.0,11133.0,11133.0,0.00255132
1602415080000,11541.0,11541.0,11541.0,11541.0,0.00039181
1602417060000,11241.0,11241.0,11241.0,11241.0,0.00020469
1602500820000,11161.0,11161.0,11161.0,11161.0,0.00027564
1602511140000,11570.0,11570.0,11570.0,11570.0,0.00053192
1602511980000,11161.0,11161.0,11161.0,11161.0,0.00113976
1602526860000,11747.0,12100.0,12100.0,11747.0,0.02147827
1602527760000,11161.0,11161.0,11161.0,11161.0,0.00030372
1602614220000,11400.0,11400.0,11400.0,11400.0,0.005
1602614280000,11500.0,11500.0,11500.0,11500.0,0.005
1602614880000,11225.0,11225.0,11225.0,11225.0,0.00094854
1602617400000,11500.0,11500.0,11500.0,11500.0,0.069522
1602618300000,11500.0,11500.0,11500.0,11500.0,0.03
1602647340000,11225.0,11225.0,11225.0,11225.0,0.00089277
1602647400000,11225.0,11225.0,11225.0,11225.0,0.00050404
1602755940000,11550.0,11550.0,11550.0,11550.0,0.00028066
1602756480000,11225.0,11225.0,11225.0,11225.0,0.00088591
1602767340000,11550.0,11550.0,11550.0,11550.0,0.00023089
1602808740000,11225.0,11225.0,11225.0,11225.0,0.0002094
1602821400000,11550.0,11550.0,11550.0,11550.0,0.00090244
1602821940000,11225.0,11225.0,11225.0,11225.0,0.00090063
1602822180000,11225.0,11225.0,11225.0,11225.0,0.00040649
1602895020000,11225.0,11225.0,11225.0,11225.0,0.00024733
1602907500000,11550.0,11550.0,11550.0,11550.0,0.0002556
1602956880000,11549.0,11549.0,11549.0,11549.0,0.00256613
1603021080000,11370.0,11618.0,11618.0,11370.0,0.00361222
1603023240000,11618.0,11618.0,11618.0,11618.0,0.00023271
1603032000000,11618.0,11618.0,11618.0,11618.0,0.00024048
1603048500000,11058.0,11058.0,11058.0,11058.0,0.00203734
1603114800000,11618.0,11618.0,11618.0,11618.0,0.00138678
1603117200000,11103.0,11103.0,11103.0,11103.0,0.00156644
1603152000000,11861.0,11861.0,11861.0,11861.0,0.00143727
1603168020000,11103.0,11103.0,11103.0,11103.0,0.00206922
1603173300000,11861.0,11861.0,11861.0,11861.0,0.00207209
1603175340000,11103.0,11103.0,11103.0,11103.0,0.00206795
1603193580000,11103.0,11103.0,11103.0,11103.0,0.00045358
1603226400000,11613.0,11613.0,12226.0,11613.0,0.00551678
1603227180000,11613.0,11613.0,11613.0,11613.0,0.00141979
1603288920000,12042.0,12042.0,12042.0,12042.0,0.00066687
1603289640000,12042.0,12042.0,12042.0,12042.0,0.0002409000000000001
1603339080000,12574.0,12574.0,12574.0,12574.0,0.00039288
1603339560000,12042.0,12042.0,12042.0,12042.0,0.00065035
1603349460000,12574.0,12708.0,12708.0,12574.0,0.00860712
1603350780000,12043.0,12043.0,12043.0,12043.0,0.00156675
1603363320000,12725.0,12741.0,12741.0,12725.0,0.00156427
1603364280000,12045.0,12045.0,12045.0,12045.0,0.00163452
1603368420000,12741.0,12741.0,12741.0,12741.0,0.00029195
1603384440000,12741.0,12741.0,12741.0,12741.0,0.00014378
1603412700000,12810.0,12810.0,12810.0,12810.0,0.0011382
1603603620000,13357.0,13357.0,13357.0,13357.0,0.00028932
1603604220000,12802.0,12802.0,12802.0,12802.0,0.00030045
1603606200000,12802.0,12802.0,12802.0,12802.0,0.000314
1603674060000,13190.0,13190.0,13190.0,13190.0,0.00021505
1603675260000,12805.0,12805.0,12805.0,12805.0,0.00096183
1603725840000,13205.0,13205.0,13205.0,13205.0,0.00082061
1603727640000,12805.0,12805.0,12805.0,12805.0,0.00046539
1603748580000,13205.0,13205.0,13205.0,13205.0,0.00085162
1603749060000,12655.0,12655.0,12655.0,12655.0,0.00084991
1603753320000,13205.0,13205.0,13205.0,13205.0,0.00118485
1603753380000,12655.0,12655.0,12655.0,12655.0,0.0011801
1603768440000,13220.0,13220.0,13220.0,13220.0,0.00020425
1603790460000,12865.0,12865.0,12865.0,12865.0,0.00021630000000000005
1603798500000,13220.0,13220.0,13220.0,13220.0,0.00026767
1603806780000,12865.0,12865.0,12865.0,12865.0,0.00020258
1603824600000,13248.0,13248.0,13248.0,13248.0,0.00040861
1603890300000,13247.0,13247.0,13247.0,13247.0,0.00046173
1603895820000,13247.0,13247.0,13247.0,13247.0,0.00032463
1603973160000,13100.0,13100.0,13100.0,13100.0,0.00036835
1603973220000,13030.0,12994.0,13030.0,12994.0,0.003
1603973280000,12958.0,12958.0,12958.0,12958.0,0.0015
1603973580000,12922.0,12922.0,12922.0,12922.0,0.0033880000000000004
1603975020000,12923.0,12923.0,12923.0,12923.0,0.00022115
1603980000000,12887.0,12887.0,12887.0,12887.0,0.003396
1603982220000,13310.0,13310.0,13310.0,13310.0,0.00041789
1603993080000,12887.0,12887.0,12887.0,12887.0,0.00021507
1604010120000,12887.0,12887.0,12887.0,12887.0,0.00023369
1604032560000,12887.0,12887.0,12887.0,12887.0,0.006804999999999999
1604035080000,12887.0,12887.0,12887.0,12887.0,0.022000000000000002
1604040480000,12887.0,12887.0,12887.0,12887.0,0.015
1604078520000,12887.0,12887.0,12887.0,12887.0,0.00023658
1604134200000,13353.0,13353.0,13353.0,13353.0,0.00027772
1604260860000,13353.0,10941.0,13353.0,10941.0,0.08451327
1604260920000,11044.0,11044.0,11044.0,11044.0,0.01132692
1604260980000,11044.0,11044.0,11044.0,11044.0,0.0115429
1604261040000,11044.0,11044.0,11044.0,11044.0,0.01136793
1604269620000,13949.0,13949.0,13949.0,13949.0,0.00030932
1604271600000,12864.0,12863.0,12864.0,12863.0,0.00253075
1604295300000,13151.0,13151.0,13151.0,13151.0,0.00025547
1604297280000,13151.0,13151.0,13151.0,13151.0,0.00060855
1604305260000,13151.0,13050.0,13151.0,13050.0,0.00980289
1604307900000,13051.0,13051.0,13051.0,13051.0,0.00024689
1604319360000,13050.0,13050.0,13050.0,13050.0,0.00257396
1604321400000,12851.0,12851.0,12851.0,12851.0,0.00155642
1604321460000,12851.0,12850.0,12851.0,12850.0,0.00684171
1604350560000,13572.0,13572.0,13572.0,13572.0,0.01
1604350620000,13609.0,13609.0,13609.0,13609.0,0.0025
1604352060000,13425.0,13425.0,13425.0,13425.0,0.00156162
1604352900000,13317.0,13317.0,13317.0,13317.0,0.00300364
1604352960000,13317.0,13100.0,13317.0,13100.0,0.00257905
1604373600000,13100.0,13100.0,13100.0,13100.0,0.00047329
1604444820000,13200.0,13037.0,13200.0,13037.0,0.01462671
1604469300000,13300.0,13300.0,13300.0,13300.0,0.001077
1604470080000,13310.0,13310.0,13310.0,13310.0,0.00041119
1604504100000,13641.0,13700.0,13700.0,13641.0,0.00464117
1604505660000,13400.0,13400.0,13400.0,13400.0,0.0007903
1604554920000,13980.0,13980.0,13980.0,13980.0,0.001
1604556120000,13721.0,13721.0,13721.0,13721.0,0.0005262999999999999
1604559780000,14160.0,14160.0,14160.0,14160.0,0.001
1604561280000,13842.0,13842.0,13842.0,13842.0,0.00032734
1604563080000,14350.0,14350.0,14350.0,14350.0,0.021
1604563140000,14350.0,14390.0,14390.0,14350.0,0.02898882
1604563200000,14350.0,14350.0,14350.0,14350.0,0.001
1604563260000,14350.0,14350.0,14350.0,14350.0,0.04
1604563860000,13843.0,13843.0,13843.0,13843.0,0.00033662
1604583360000,14520.0,14520.0,14520.0,14520.0,0.0006887000000000001
1604583420000,14520.0,14520.0,14520.0,14520.0,0.00163467
1604583480000,13843.0,13843.0,13843.0,13843.0,0.00051362
1604593320000,14520.0,14520.0,14520.0,14520.0,0.00121253
1604594100000,13843.0,13843.0,13843.0,13843.0,0.00121011
1604597100000,14520.0,14520.0,14520.0,14520.0,0.00121254
1604597520000,13843.0,13843.0,13843.0,13843.0,0.0012075999999999999
1604611200000,14925.0,15000.0,15000.0,14925.0,0.004425200000000001
1604613600000,14501.0,14501.0,14501.0,14501.0,0.00079339
1604622480000,14701.0,14701.0,14701.0,14701.0,0.001
1604623140000,14701.0,14701.0,14701.0,14701.0,0.00033409
1604668920000,15000.0,15000.0,15000.0,15000.0,0.03862285
1604668980000,15000.0,15000.0,15000.0,15000.0,0.00041088
1604669100000,15000.0,15000.0,15000.0,15000.0,0.00134519
1604670780000,15599.0,15599.0,15599.0,15599.0,0.028574000000000002
1604670900000,15001.0,15001.0,15001.0,15001.0,0.00091891
1604672160000,15650.0,15650.0,15650.0,15650.0,0.00201912
1604672220000,15740.0,15740.0,15740.0,15740.0,0.03576986
1604672880000,15001.0,15001.0,15001.0,15001.0,0.00049271
1604684280000,15910.0,15910.0,15910.0,15910.0,0.0014
1604684340000,15910.0,15010.0,15910.0,15010.0,0.00458838
1604684400000,15010.0,15010.0,15010.0,15010.0,0.0002
1604684520000,15983.0,15983.0,15983.0,15983.0,0.0002
1604684640000,15983.0,15983.0,15983.0,15983.0,0.005
1604684700000,16055.0,16055.0,16055.0,16055.0,0.0002
1604684880000,16055.0,16055.0,16055.0,16055.0,0.0002
1604685780000,15021.0,15021.0,15021.0,15021.0,0.00034704
1604693280000,15010.0,16048.0,16048.0,15010.0,0.0004
1604693460000,16048.0,16055.0,16055.0,16048.0,0.0002
1604693520000,15010.0,15010.0,15010.0,15010.0,0.01604893
1604693580000,15010.0,15010.0,15010.0,15010.0,0.00025699999999999996
1604693760000,16055.0,16055.0,16055.0,16055.0,0.00998602
1604693820000,15001.0,15001.0,15001.0,15001.0,0.00071134
1604694000000,15003.0,15001.0,15003.0,15001.0,0.00820706
1604694060000,16054.0,15005.0,16128.0,15005.0,0.01039933
1604694120000,15007.0,15007.0,15007.0,15007.0,0.0002
1604694180000,15007.0,15001.0,15007.0,15001.0,0.00999933
1604694300000,15001.0,15001.0,15001.0,15001.0,0.0002
1604694420000,16177.0,16177.0,16177.0,16177.0,0.0002
1604694540000,16099.0,16099.0,16099.0,16099.0,0.092
1604694600000,15001.0,15099.0,16099.0,15001.0,0.271269
1604694660000,16000.0,16079.0,16089.0,15109.0,0.26982
1604694720000,15203.0,15019.0,15203.0,15019.0,0.08982000000000001
1604694780000,15997.0,15999.0,15999.0,15997.0,0.0517
1604694840000,15201.0,15204.0,15204.0,15201.0,0.051596
1604694900000,15977.0,15901.0,15991.0,15204.0,0.1034
1604695200000,15887.0,16201.0,16201.0,15887.0,0.005
1604695560000,15212.0,15232.0,15250.0,15212.0,0.055
1604695620000,16150.0,16199.0,16199.0,16150.0,0.056455
1604695680000,15351.0,15233.0,15351.0,15233.0,0.06000000000000001
1604695740000,16273.0,16273.0,16273.0,16273.0,0.0002
1604695980000,16273.0,16273.0,16273.0,16273.0,0.00984704
1604696580000,16249.0,15001.0,16249.0,15001.0,0.11614300000000001
1604696640000,15409.0,16149.0,16149.0,15409.0,0.045099
1604696700000,15509.0,16099.0,16109.0,15509.0,0.084159
1604696760000,15549.0,16000.0,16000.0,15549.0,0.039293
1604697000000,15999.0,15007.0,16346.0,15007.0,0.00971788
1604697420000,15151.0,15151.0,15151.0,15151.0,0.006568000000000001
1604697480000,16243.0,15251.0,16251.0,15160.0,0.041473
1604697540000,16250.0,15260.0,16250.0,15260.0,0.011214
1604697660000,16000.0,15360.0,16000.0,15352.0,0.04455502
1604697720000,15975.0,15001.0,15975.0,15001.0,0.009109
1604697780000,15900.0,15897.0,15901.0,15010.0,0.05305834
1604697840000,15018.0,15870.0,15890.0,15017.0,0.010731999999999998
1604697900000,15070.0,15090.0,15869.0,15070.0,0.026720999999999998
1604697960000,15840.0,15095.0,15840.0,15095.0,0.010504000000000001
1604698080000,15600.0,15599.0,15600.0,15001.0,0.00454977
1604698140000,15590.0,15211.0,15590.0,15211.0,0.026213999999999998
1604698200000,15560.0,15211.0,15560.0,15211.0,0.01999
1604698260000,15539.0,15212.0,15540.0,15211.0,0.020112
1604698320000,15540.0,15215.0,15540.0,15212.0,0.01175938
1604699220000,15002.0,15002.0,15002.0,15002.0,0.006831
1604771700000,15808.0,15808.0,15808.0,15808.0,0.001
1604772360000,15002.0,15002.0,15002.0,15002.0,0.00039573
1604774400000,15001.0,15001.0,15001.0,15001.0,0.00020646
1604776740000,15001.0,15001.0,15001.0,15001.0,0.00652656
1604859180000,15498.0,15549.0,15549.0,15498.0,0.01206453
1604952240000,15282.0,15283.0,15283.0,15282.0,0.005660760000000001
1605316680000,16494.0,16494.0,16494.0,16494.0,0.00078231
1605316860000,16001.0,16001.0,16001.0,16001.0,0.00172791
1605442920000,15611.0,15611.0,15611.0,15611.0,0.00148
1605536580000,16198.0,16198.0,16198.0,16198.0,0.00123455
1605536640000,15611.0,15611.0,15611.0,15611.0,0.00083323
1605554700000,16494.0,16494.0,16494.0,16494.0,0.00038969
1605555180000,16511.0,16511.0,16511.0,16511.0,0.00039885
1605642300000,16284.0,17925.0,17925.0,16284.0,0.02344768
1605642720000,16284.0,16284.0,16284.0,16284.0,0.0015
1605652800000,17242.0,17961.0,17961.0,17242.0,0.01572239
1605657060000,17242.0,17242.0,17242.0,17242.0,0.00231705
1605920100000,18411.0,19006.0,19006.0,18411.0,0.01744571
1605921900000,18411.0,18411.0,18411.0,18411.0,0.00191867
1605930000000,18411.0,19041.0,19041.0,18411.0,0.016852569999999997
1605930780000,18411.0,18411.0,18411.0,18411.0,0.00062904
1605954000000,18411.0,19041.0,19041.0,18410.0,0.02050486
1605954240000,18411.0,18411.0,18411.0,18411.0,0.00062927
1606072080000,18620.0,18620.0,18620.0,18620.0,0.00169153
1606072500000,17771.0,17771.0,17771.0,17771.0,0.00021819
1606073820000,18652.0,18652.0,18652.0,18652.0,0.00364376
1606074240000,18684.0,18714.0,18714.0,18684.0,0.01561362
1606141500000,18001.0,18811.0,18811.0,18001.0,0.017053810000000003
1606180320000,18843.0,18843.0,18843.0,18843.0,0.00034818
1606232520000,19351.0,19351.0,19351.0,19351.0,0.00025571
1606233240000,17771.0,17771.0,17771.0,17771.0,0.00066944
1606293000000,18676.0,18676.0,18676.0,18676.0,0.01120303
1606293480000,18676.0,18676.0,18676.0,18676.0,0.00097834
1606361940000,18469.0,18469.0,18469.0,18469.0,0.00034483
1606419300000,13248.0,13248.0,13248.0,13248.0,0.01147124
1606421700000,13522.0,13506.0,13522.0,13478.0,0.00899076
1606424400000,13739.0,13739.0,13739.0,13739.0,0.00743477
1606424580000,13795.0,13795.0,13795.0,13795.0,0.00050741
1606428900000,14050.0,14050.0,14050.0,14050.0,0.01234758
1606431540000,14142.0,14142.0,14142.0,14142.0,0.00058
1606431600000,14155.0,14050.0,14155.0,14050.0,0.010655189999999998
1606435800000,14445.0,14445.0,14445.0,14445.0,0.00796876
1606436520000,14541.0,14541.0,14541.0,14541.0,0.00094732
1606445700000,14651.0,14651.0,14651.0,14651.0,0.00733338
1606446000000,14665.0,14665.0,14665.0,14665.0,0.00035042
1606464600000,16924.0,16924.0,16924.0,16924.0,0.005
1606597800000,14689.0,14689.0,14689.0,14689.0,0.02090537
1606599300000,14725.0,14725.0,14725.0,14725.0,0.01661389
1606611900000,14811.0,14811.0,14811.0,14811.0,0.00691711
1606611900000,14811.0,14811.0,14811.0,14811.0,0.00691711
1606794900000,16921.0,16921.0,16921.0,16921.0,0.00114762
1606794960000,16921.0,16921.0,16921.0,16921.0,0.00114762
1606795020000,16921.0,16921.0,16921.0,16921.0,0.00057381
1606795380000,19000.0,20000.0,20000.0,19000.0,0.0004
1606795500000,18804.0,18804.0,18804.0,18804.0,0.00068984
1606798020000,17431.0,17431.0,17431.0,17431.0,0.00514108
1606850400000,17515.0,17515.0,17515.0,17515.0,0.01168839
1606876980000,17200.0,17200.0,17200.0,17200.0,0.01
1606877280000,17119.0,17119.0,17119.0,17119.0,0.0104905
1606877400000,17120.0,17120.0,17120.0,17120.0,0.01078538
1606880520000,17117.0,17117.0,17117.0,17117.0,0.01145339
1606882560000,17130.0,17130.0,17130.0,17130.0,0.01168361
1606882680000,17130.0,17130.0,17130.0,17130.0,0.00831639
1606940940000,21400.0,21400.0,21400.0,21400.0,0.0002
1606942320000,21400.0,22951.0,22951.0,21400.0,0.05664892000000001
1606942440000,22401.0,22944.0,22944.0,22401.0,0.03278959
1606942560000,22956.0,22972.0,24100.0,22956.0,0.01199063
1606942620000,22971.0,22971.0,22971.0,22971.0,0.00341692
1607028120000,17650.0,17650.0,17650.0,17650.0,0.1
1607028660000,23230.0,23265.0,23265.0,23230.0,0.03909546
1607028780000,17660.0,23231.0,23231.0,17655.0,0.09207413
1607029080000,18050.0,18050.0,18050.0,18050.0,0.052950800000000006
1607250000000,22390.0,22390.0,22390.0,22390.0,0.005
1607250120000,18113.0,18113.0,18113.0,18113.0,0.00499
1607369160000,22349.0,22379.0,22379.0,22349.0,0.016117899999999998
1607369700000,18123.0,18123.0,18123.0,18123.0,0.016086000000000003
1607500500000,18250.0,18250.0,18250.0,18250.0,0.016053
1607529660000,18251.0,18251.0,18251.0,18251.0,0.002
1607531820000,18260.0,18260.0,18260.0,18260.0,0.00122
1607531880000,21540.0,21545.0,21545.0,21540.0,0.002
1607531940000,21530.0,21530.0,21530.0,21530.0,0.001
1607532000000,18282.0,18282.0,18282.0,18282.0,0.0014986
1607532060000,21434.0,21434.0,21434.0,21434.0,0.001
1607532120000,18284.0,18285.0,21432.0,18284.0,0.0033727
1607532240000,21350.0,21350.0,21350.0,21350.0,0.001
1607532420000,18290.0,21350.0,21350.0,18290.0,0.004
1607532480000,18307.0,18307.0,18307.0,18307.0,0.00211977
1607532540000,21100.0,21100.0,21100.0,21100.0,0.0019
1607532600000,18321.0,21021.0,21021.0,18320.0,0.0033
1607532900000,18391.0,18391.0,18391.0,18391.0,0.0015947
1607532960000,20699.0,20700.0,20700.0,20699.0,0.0015
1607533020000,18500.0,20600.0,20600.0,18500.0,0.0031
1607533080000,18543.0,18543.0,18543.0,18543.0,0.0017957
1607533620000,18544.0,18544.0,18544.0,18544.0,0.00027711
1607533740000,18545.0,18545.0,18545.0,18545.0,0.00029676
1607533980000,18720.0,19141.0,19141.0,18720.0,0.0016
1607534040000,18472.0,19032.0,19032.0,18345.0,0.0021096400000000003
1607534100000,20290.0,20290.0,20290.0,20290.0,0.0011
1607534220000,18700.0,18700.0,18700.0,18700.0,0.00160854
1607534340000,20270.0,20270.0,20270.0,20270.0,0.0015
1607534400000,18350.0,20270.0,20270.0,18321.0,0.0034541
1607534460000,18321.0,18321.0,18321.0,18321.0,0.00129567
1607535000000,18322.0,18320.0,18322.0,18320.0,0.00033
1607595300000,18321.0,18250.0,18321.0,18250.0,0.0072968400000000015
1607595900000,18250.0,18250.0,18250.0,18250.0,0.00693437
1607597400000,18250.0,18250.0,18250.0,18250.0,0.00679976
1607672580000,18250.0,18250.0,18250.0,18250.0,0.02266101
1607672580000,18250.0,18250.0,18250.0,18250.0,0.02266101
1607672580000,18250.0,18250.0,18250.0,18250.0,0.02266101
1607672580000,18250.0,18250.0,18250.0,18250.0,0.02266101
1607672580000,18250.0,18250.0,18250.0,18250.0,0.02266101
1607672580000,18250.0,18250.0,18250.0,18250.0,0.02266101
1607672580000,18250.0,18250.0,18250.0,18250.0,0.02266101
1607672580000,18250.0,18250.0,18250.0,18250.0,0.02266101
1607672580000,18250.0,18250.0,18250.0,18250.0,0.02266101
